0
0.49341
0.70778
0.58922
0.64072
0.68024
0.69461
0.69222
0.69222
0.7018
0.51856
0.49341
0.49341
0.49341
0.49341
0.49341
0.49341
0.49341
0.49341
0.49222
0.49102
0.48623
0.48024
0.47186
0.45749
0.45269
0.44671
0.4479
0.44551
0.43593
0.42275
0.40958
0.3988
0.38563
0.38084
0.38323
0.38084
0.37844
0.37605
0.37605
0.37485
0.37246
0.37126
0.36766
0.36766
0.36527
0.36527
0.36407
0.35928
0.35808
0.35928
0.35569
0.35569
0.35449
0.35569
0.35449
0.3521
0.3521
0.3521
0.3497
0.34611
0.34731
0.34251
0.34012
0.33653
0.33054
0.32814
0.32814
0.32934
0.32575
0.32575
0.32814
0.32814
0.32575
0.32216
0.32216
0.32096
0.31856
0.31737
0.31497
0.31497
0.31497
0.31617
0.31257
0.31377
0.31497
0.31377
0.31377
0.31377
0.31377
0.31377
0.31257
0.31377
0.31497
0.30898
0.30898
0.30539
0.30299
0.3006
0.29701
0.29701
0.29701
0.29701
0.29701
0.2982
0.29701
0.2982
0.2982
0.2982
0.29581
0.29461
0.29461
0.29461
0.29341
0.29341
0.29341
0.29341
0.29341
0.29461
0.29461
0.29461
0.29341
0.29222
0.29581
0.2982
0.2994
0.2982
0.2982
0.2994
0.2994
0.2994
0.30299
0.30299
0.30299
0.30299
0.30299
0.3018
0.3018
0.3018
0.3018
0.3006
0.3006
0.3018
0.30299
0.30299
0.30299
0.3018
0.30299
0.30299
0.30419
0.30539
0.30539
0.30539
0.30419
0.30419
0.3018
0.30299
0.30299
0.2994
0.2982
0.29581
0.29581
0.29341
0.29222
0.29102
0.29222
0.29581
0.29701
0.29461
0.29341
0.29341
0.29341
0.29461
0.29461
0.29581
0.29581
0.29581
0.29581
0.29581
0.29341
0.29341
0.29461
0.29461
0.29461
0.29341
0.29461
0.29461
0.29461
0.29461
0.29341
0.29341
0.29341
0.29341
0.29461
0.29461
0.29461
0.29461
0.29461
0.29461
0.29461
0.29461
0.29461
0.29461
0.29461
0.29461
0.29461
0.29461
0.29461
0.29461
0.29461
0.29461
0.29461
0.29461
0.29461
0.29461
0.29461
0.29461
0.29461
0.29461
0.29581
0.29581
0.29461
0.29581
0.29581
0.29581
0.29581
0.29701
0.29461
0.29461
0.29341
0.29341
0.29222
0.29341
0.29461
0.29461
0.29461
0.29461
0.29461
0.29461
0.29461
0.29461
0.29341
0.29581
0.29581
0.29701
0.29701
0.2982
0.2982
0.2994
0.3006
0.3006
0.3006
0.3006
0.3006
0.3006
0.3006
0.3006
0.3006
0.3006
0.3006
0.2994
0.2994
0.2994
0.2994
0.2994
0.2994
0.2994
0.2994
0.2994
0.2994
0.2994
0.2994
0.2994
0.2994
0.2994
0.2994
0.2994
0.2982
0.2982
0.2982
0.2982
0.2982
0.2982
0.2982
0.2982
0.2982
0.2982
0.2982
0.2982
0.2982
0.2994
0.2994
0.2994
0.2994
0.3006
0.3006
0.3006
0.3006
0.3006
0.3006
0.3006
0.3006
0.3006
0.3006
0.3006
0.3006
0.3006
0.3006
0.3006
0.3006
0.3006
0.3006
0.30299
0.30299
0.30299
0.30299
0.30299
0.30299
0.30299
0.30299
0.30299
0.30299
0.30299
0.30299
0.30299
0.30299
0.30299
0.30299
0.30299
0.30299
0.30299
0.30299
0.30299
0.30299
0.30299
0.30299
0.30299
0.30299
0.30299
0.30299
0.30299
0.30299
0.30299
0.30299
0.30299
0.30299
0.30299
0.30299
0.30299
0.30299
0.30299
0.30299
0.30299
0.30299
0.30299
0.30299
0.30299
0.30299
0.30299
0.30299
0.30299
0.30299
0.30299
0.30299
0.30299
0.30299
0.30299
0.30299
0.30299
0.30299
0.30299
0.30299
0.30299
0.30299
0.30299
0.30299
0.30299
0.30299
0.30299
0.30299
0.30299
0.30299
0.3018
0.3018
0.3018
0.3018
0.3018
0.3018
0.3018
0.3018
0.3018
0.3018
0.3018
0.3018
0.3018
0.3018
0.3018
0.3018
0.3018
0.3018
0.3018
0.3018
0.3018
0.3018
0.3018
0.3018
0.3018
0.3018
0.3018
0.3018
0.3018
0.3018
0.3018
0.3018
0.3018
0.3018
0.3018
0.3018
0.3018
0.3018
0.3018
0.3018
0.3018
0.3018
0.3018
0.3018
0.3018
0.3018
0.3018
0.3018
0.3018
0.3018
0.3018
0.3018
0.3018
0.3018
0.3018
0.3018
0.3018
0.3018
0.3018
0.3018
0.3018
0.3018
0.3018
0.3018
0.3018
0.3018
0.3018
0.3018
0.3018
0.3018
0.3018
0.3018
0.3018
0.3018
0.3018
0.3018
0.3018
0.3018
0.3018
0.3018
0.3018
0.3018
0.3018
0.3018
0.3018
0.3018
0.3018
0.3018
0.3018
0.3018
0.3018
0.3018
0.3018
0.3006
0.3006
0.3006
0.3006
0.3006
0.3006
0.3006
0.3006
0.3006
0.3006
0.3006
0.3006
0.3006
0.3006
0.3006
0.3006
0.3006
0.3006
0.3006
0.3006
0.3006
0.3006
0.3006
0.3006
0.3006
0.3006
0.3006
0.3006
0.3006
0.3006
0.3006
0.3006
0.3006
0.3006
0.3006
0.3006
0.3006
0.3018
0.3018
0.3018
0.3018
0.3018
0.3018
0.3018
0.3018
0.3018
0.3018
0.3018
0.3018
0.3006
0.3006
0.3006
0.2994
0.2994
0.2994
0.2994
0.2994
0.2994
0.3006
0.3006
0.3006
0.3006
0.3006
0.3006
0.3006
0.3006
0.3006
0.3006
0.3006
0.3006
0.3006
0.3006
0.3006
0.3006
0.3006
0.3006
0.3006
0.3006
0.3006
0.3018
0.3018
0.3018
0.3018
0.3018
0.3018
0.3018
0.3018
0.3018
0.3018
0.3018
0.3018
0.3018
0.3018
0.3018
0.3018
0.3018
0.3018
0.3018
0.3018
0.3018
0.3018
0.3006
0.3006
0.3006
0.3006
0.3006
0.3006
0.2994
0.2994
0.2994
0.2994
0.2994
0.2994
0.2994
0.2994
0.2994
0.2994
0.2994
0.2994
0.2994
0.2994
0.2994
0.2994
0.2994
0.2982
0.2982
0.2982
0.2982
0.2982
0.2994
0.2994
0.2994
0.2994
0.29701
0.29701
0.29701
0.29701
0.29701
0.29701
0.29701
0.29701
0.29581
0.29581
0.29581
0.29581
0.29461
0.29461
0.29461
0.29461
0.29461
0.29581
0.2982
0.2982
0.2982
0.2982
0.2982
0.2982
0.2982
0.2982
0.2982
0.29701
0.29701
0.29701
0.29701
0.29701
0.29701
0.29701
0.29701
0.29701
0.29701
0.29701
0.29701
0.29701
0.29701
0.29701
0.29701
0.29701
0.29701
0.29701
0.29701
0.29701
0.29701
0.29701
0.29701
0.29581
0.29581
0.29581
0.29581
0.29581
0.29581
0.29581
0.29581
0.29581
0.29701
0.29701
0.29701
0.29701
0.29701
0.29701
0.29701
0.29701
0.29701
0.29701
0.29701
0.29701
0.29701
0.29701
0.29701
0.29701
0.29701
0.29701
0.29701
0.29701
0.29701
0.29701
0.29701
0.29701
0.29701
0.29701
0.29701
0.29701
0.29701
0.29701
0.29701
0.29701
0.29701
0.29701
0.29701
0.29701
0.29701
0.29701
0.29701
0.29701
0.29701
0.29701
0.29701
0.29701
0.29701
0.29701
0.29701
0.29701
0.29701
0.29701
0.29701
0.29701
0.29701
0.2982
0.2982
0.2982
0.2982
0.2982
0.2982
0.2982
0.2982
0.2982
0.2982
0.2982
0.2982
0.2982
0.2982
0.2982
0.2982
0.29701
0.29701
0.29701
0.29701
0.29701
0.29701
0.29701
0.29701
0.29701
0.29701
0.29701
0.29701
0.29701
0.29701
0.29701
0.29701
0.29701
0.29701
0.29701
0.29701
0.29701
0.29701
0.29701
0.29701
0.29701
0.29701
0.29701
0.29701
0.29701
0.29701
0.29701
0.29701
0.29701
0.29701
0.29701
0.29701
0.29701
0.29701
0.29701
0.29701
0.29701
0.29701
0.29701
0.29701
0.29701
0.29701
0.29701
0.29701
0.29701
0.29701
0.29701
0.29701
0.29701
0.29701
0.29701
0.29701
0.29701
0.29701
0.29701
0.29701
0.29701
0.29701
0.2982
0.2982
0.2982
0.2994
0.2994
0.2994
0.2994
0.2994
0.2994
0.2994
0.2994
0.2994
0.2994
0.2994
0.2994
0.2994
0.2994
0.2994
0.2994
0.2994
0.2994
0.2994
0.2994
0.2994
0.2994
0.2994
0.2994
0.2994
0.2994
0.2994
0.2994
0.2994
0.2994
0.2994
0.2994
0.2994
0.2994
0.2994
0.2994
0.2982
0.2982
0.2994
0.2994
0.2982
0.2982
0.2982
0.29701
0.29701
0.29701
0.29701
0.29701
0.29701
0.29701
0.29701
0.29701
0.29701
0.29701
0.29701
0.29701
0.29701
0.29701
0.29701
0.29701
0.29701
0.29701
0.29701
0.29701
0.29701
0.29701
0.29701
0.29701
0.29701
0.29701
0.29701
0.29701
0.29701
0.29701
0.29701
0.29701
0.29701
0.29701
0.29701
0.29701
0.29701
0.29701
0.29701
0.29701
0.29701
0.29701
0.2982
0.2982
0.2982
0.2982
0.2982
0.2982
0.2982
0.2982
0.2982
0.2982
0.2982
0.2982
0.2982
0.2982
0.2982
0.2982
0.2982
0.2982
0.2982
0.2982
0.2982
0.29701
0.29701
0.29701
0.29701
0.29701
0.29701
0.29701
0.29701
0.29701
0.29581
0.29581
0.29581
0.29581
0.29581
0.29581
0.29581
0.29581
0.29581
0.29581
0.29581
0.29581
0.29581
0.29581
0.29581
0.29581
0.29581
0.29581
0.29581
0.29581
0.29581
0.29581
0.29461
0.29461
0.29461
0.29461
0.29461
0.29461
0.29461
0.29461
0.29461
0.29461
0.29461
0.29461
0.29461
0.29461
0.29461
0.29461
0.29461
0.29461
0.29461
0.29461
0.29461
0.29461
0.29461
0.29461
0.29461
0.29461
0.29461
0.29461
0.29461
0.29461
0.29461
0.29461
0.29461
0.29461
0.29461
0.29461
0.29461
0.29461
0.29461
0.29461
0.29461
0.29461
0.29461
0.29461
0.29461
0.29461
0.29461
0.29461
0.29461
0.29461
0.29461
0.29461
0.29461
0.29461
0.29341
0.29341
0.29341
0.29341
0.29341
0.29341
0.29341
0.29341
0.29341
0.29341
0.29341
0.29341
0.29341
0.29341
0.29341
0.29341
0.29341
0.29341
0.29341
0.29341
0.29341
0.29341
0.29341
0.29341
0.29341
0.29341
0.29341
0.29341
0.29222
0.29222
0.29222
0.29222
0.29222
0.29222
0.29222
0.29222
0.29222
0.29222
0.29222
0.29222
0.29222
0.29222
0.29222
0.29222
0.29222
0.29222
0.29222
0.29222
0.29222
0.29222
0.29222
0.29222
0.29222
0.29222
0.29222
0.29222
0.29102
0.29102
0.29102
0.29102
0.29102
0.29102
0.29102
0.29102
0.29102
0.29102
0.29102
0.29102
0.29102
0.29102
0.29102
0.29102
0.29102
0.29102
0.29102
0.29102
0.29102
0.29102
0.29102
0.29102
0.29102
0.29102
0.29102
0.29102
0.29102
0.29102
0.29102
0.29102
0.29102
0.29222
0.29222
0.29222
0.29222
0.29222
0.29222
0.29222
0.29222
0.29222
0.29222
0.29222
0.29222
0.29222
0.29222
0.29222
0.29222
0.29222
0.29222
0.29222
0.29222
0.29222
0.29222
0.29222
0.29222
0.29222
0.29222
0.29222
0.29222
0.29222
0.29222
0.29222
0.29222
0.29222
0.29222
0.29222
0.29222
0.29222
0.29222
0.29222
0.29222
0.29222
0.29341
0.29341
0.29341
0.29341
0.29341
0.29341
0.29341
0.29341
0.29341
0.29341
0.29341
0.29341
0.29341
0.29341
0.29341
0.29341
0.29341
0.29341
0.29341
0.29341
0.29341
0.29341
0.29341
0.29341
0.29341
0.29341
0.29341
0.29341
0.29341
0.29341
0.29341
0.29341
0.29461
0.29461
0.29461
0.29461
0.29461
0.29461
0.29461
0.29461
0.29461
0.29461
0.29461
0.29461
0.29461
0.29461
0.29461
0.29461
0.29461
0.29461
0.29461
0.29461
0.29461
0.29461
0.29461
0.29461
0.29461
0.29461
0.29461
0.29461
0.29461
0.29461
0.29461
0.29461
0.29461
0.29461
0.29461
0.29461
0.29461
0.29461
0.29461
0.29461
0.29461
0.29461
0.29461
0.29461
0.29461
0.29461
0.29461
0.29461
0.29461
0.29461
0.29461
0.29461
0.29461
0.29461
0.29461
0.29461
0.29461
0.29461
0.29461
0.29461
0.29461
0.29461
0.29461
0.29461
0.29461
0.29461
0.29461
0.29461
0.29461
0.29461
0.29461
0.29461
0.29461
0.29461
0.29461
0.29461
0.29461
0.29461
0.29461
0.29461
0.29461
0.29461
0.29461
0.29461
0.29461
0.29461
0.29461
0.29461
0.29461
0.29461
0.29461
0.29461
0.29461
0.29461
0.29461
0.29461
0.29461
0.29461
0.29461
0.29461
0.29461
0.29461
0.29461
0.29461
0.29461
0.29461
0.29461
0.29461
0.29461
0.29461
0.29461
0.29461
0.29461
0.29461
0.29461
0.29461
0.29461
0.29461
0.29461
0.29461
0.29461
0.29461
0.29461
0.29461
0.29461
0.29461
0.29461
0.29461
0.29461
0.29461
0.29461
0.29461
0.29461
0.29461
0.29341
0.29341
0.29341
0.29341
0.29341
0.29341
0.29341
0.29341
0.29341
0.29341
0.29341
0.29341
0.29341
0.29341
0.29341
0.29341
0.29341
0.29341
0.29341
0.29341
0.29341
0.29341
0.29341
0.29341
0.29341
0.29341
0.29341
0.29341
0.29341
0.29341
0.29341
0.29341
0.29222
0.29222
0.29222
0.29222
0.29222
0.29222
0.29222
0.29222
0.29222
0.29222
0.29222
0.29222
0.29222
0.29222
0.29222
0.29222
0.29222
0.29222
0.29222
0.29222
0.29222
0.29222
0.29222
0.29222
0.29222
0.29222
0.29222
0.29222
0.29222
0.29222
0.29222
0.29222
0.29222
0.29222
0.29222
0.29222
0.29222
0.29222
0.29222
0.29222
0.29222
0.29222
0.29222
0.29222
0.29222
0.29222
0.29222
0.29222
0.29222
0.29222
0.29222
0.29222
0.29222
0.29222
0.29222
0.29222
0.29222
0.29222
0.29222
0.29222
0.29222
0.29222
0.29341
0.29341
0.29341
0.29341
0.29341
0.29341
0.29341
0.29341
0.29341
0.29341
0.29341
0.29341
0.29341
0.29341
0.29341
0.29341
0.29341
0.29341
0.29341
0.29341
0.29461
0.29461
0.29461
0.29461
0.29461
0.29461
0.29461
0.29461
0.29461
0.29461
0.29461
0.29461
0.29461
0.29461
0.29461
0.29461
0.29461
0.29461
0.29461
0.29461
0.29461
0.29461
0.29461
0.29461
0.29461
0.29461
0.29461
0.29461
0.29461
0.29461
0.29461
0.29461
0.29461
0.29461
0.29461
0.29461
0.29461
0.29461
0.29461
0.29461
0.29461
0.29461
0.29461
0.29461
0.29461
0.29461
0.29461
0.29341
0.29341
0.29341
0.29341
0.29341
0.29341
0.29341
0.29341
0.29341
0.29341
0.29341
0.29341
0.29341
0.29341
0.29341
0.29102
0.29102
0.29102
0.29102
0.29102
0.29102
0.29102
0.29102
0.29102
0.29102
0.29222
0.29222
0.29222
0.29222
0.29222
0.29222
0.29222
0.29222
0.29222
0.29222
0.29222
0.29222
0.29222
0.29222
0.29222
0.29222
0.29222
0.29222
0.29222
0.29222
0.29222
0.29222
0.29222
0.29222
0.29222
0.29222
0.29222
0.29222
0.29222
0.29341
0.29341
0.29341
0.29341
0.29341
0.29341
0.29341
0.29341
0.29341
0.29341
0.29341
0.29341
0.29341
0.29341
0.29222
0.29222
0.29222
0.29222
0.29222
0.29222
0.29222
0.29222
0.29222
0.29222
0.29102
0.29102
0.29222
0.29222
0.29222
0.29222
0.29222
0.29222
0.29222
0.29222
0.29222
0.29222
0.29222
0.29222
0.29222
0.29102
0.29102
0.29102
0.29102
0.29102
0.29102
0.29102
0.29102
0.29102
0.28982
0.28982
0.28982
0.28982
0.28982
0.28982
0.28982
0.28982
0.28982
0.28982
0.28982
0.28982
0.28982
0.28982
0.28982
0.29102
0.29102
0.29102
0.29102
0.29102
0.29102
0.29102
0.29102
0.29102
0.29102
0.29102
0.28982
0.28982
0.28982
0.28982
0.28982
0.28982
0.28982
0.28982
0.28982
0.28982
0.28982
0.28982
0.28982
0.28982
0.28982
0.28982
0.28982
0.28982
0.28982
0.28982
0.28982
0.28862
0.28862
0.28862
0.28862
0.28862
0.28862
0.28862
0.28862
0.28862
0.28862
0.28862
0.28862
0.28862
0.28862
0.28862
0.28862
0.28862
0.28862
0.28862
0.28862
0.28862
0.28862
0.28862
0.28862
0.28862
0.28862
0.28862
0.28862
0.28862
0.28743
0.28743
0.28743
0.28743
0.28743
0.28743
0.28743
0.28743
0.28743
0.28743
0.28743
0.28743
0.28743
0.28743
0.28743
0.28743
0.28743
0.28743
0.28743
0.28743
0.28743
0.28862
0.28862
0.28862
0.28862
0.28862
0.28743
0.28743
0.28743
0.28743
0.28743
0.28743
0.28743
0.28743
0.28743
0.28743
0.28623
0.28623
0.28623
0.28623
0.28623
0.28623
0.28623
0.28623
0.28623
0.28623
0.28623
0.28623
0.28623
0.28623
0.28623
0.28623
0.28503
0.28503
0.28503
0.28503
0.28503
0.28383
0.28383
0.28383
0.28383
0.28383
0.28383
0.28383
0.28383
0.28383
0.28383
0.28263
0.28263
0.28263
0.28263
0.28263
0.28263
0.28263
0.28263
0.28263
0.28263
0.28263
0.28263
0.28263
0.28263
0.28263
0.28263
0.28263
0.28263
0.28263
0.28263
0.28263
0.28263
0.28263
0.28263
0.28263
0.28263
0.28263
0.28263
0.28263
0.28263
0.28263
0.28263
0.28263
0.28263
0.28263
0.28263
0.28263
0.28263
0.28263
0.28144
0.28144
0.28144
0.28263
0.28263
0.28263
0.28383
0.28383
0.28263
0.28263
0.28263
0.28263
0.28263
0.28263
0.28263
0.28263
0.28263
0.28263
0.28263
0.28263
0.28263
0.28263
0.28263
0.28263
0.28263
0.28263
0.28263
0.28263
0.28263
0.28263
0.28263
0.28263
0.28263
0.28383
0.28383
0.28383
0.28383
0.28383
0.28383
0.28383
0.28383
0.28383
0.28383
0.28383
0.28383
0.28383
0.28383
0.28383
0.28263
0.28263
0.28263
0.28263
0.28263
0.28263
0.28263
0.28263
0.28263
0.28263
0.28263
0.28263
0.28263
0.28263
0.28263
0.28263
0.28263
0.28263
0.28263
0.28263
0.28263
0.28263
0.28263
0.28263
0.28263
0.28263
0.28263
0.28263
0.28263
0.28263
0.28263
0.28263
0.28263
0.28263
0.28263
0.28383
0.28383
0.28383
0.28383
0.28383
0.28383
0.28503
0.28503
0.28503
0.28503
0.28503
0.28503
0.28503
0.28503
0.28503
0.28503
0.28503
0.28503
0.28623
0.28623
0.28623
0.28623
0.28623
0.28623
0.28623
0.28623
0.28623
0.28623
0.28623
0.28623
0.28623
0.28623
0.28743
0.28743
0.28743
0.28743
0.28623
0.28503
0.28503
0.28503
0.28503
0.28503
0.28503
0.28503
0.28503
0.28503
0.28503
0.28503
0.28503
0.28503
0.28503
0.28503
0.28503
0.28503
0.28503
0.28503
0.28503
0.28503
0.28503
0.28503
0.28503
0.28503
0.28503
0.28503
0.28503
0.28503
0.28503
0.28503
0.28503
0.28503
0.28503
0.28383
0.28383
0.28383
0.28383
0.28383
0.28383
0.28383
0.28383
0.28383
0.28383
0.28383
0.28503
0.28503
0.28503
0.28503
0.28503
0.28503
0.28503
0.28503
0.28503
0.28503
0.28503
0.28503
0.28503
0.28503
0.28503
0.28503
0.28503
0.28503
0.28503
0.28503
0.28503
0.28503
0.28503
0.28503
0.28503
0.28503
0.28503
0.28503
0.28503
0.28503
0.28503
0.28503
0.28503
0.28503
0.28383
0.28383
0.28383
0.28383
0.28383
0.28383
0.28263
0.28263
0.28263
0.28263
0.28263
0.28263
0.28263
0.28263
0.28263
0.28263
0.28263
0.28263
0.28263
0.28263
0.28263
0.28263
0.28263
0.28144
0.28144
0.28144
0.28144
0.28144
0.28144
0.28144
0.28144
0.28144
0.28144
0.28144
0.28144
0.28144
0.28144
0.28144
0.28144
0.28144
0.28144
0.28144
0.28144
0.28144
0.28144
0.28144
0.28144
0.28144
0.28144
0.28144
0.28144
0.28144
0.28144
0.28144
0.28144
0.28144
0.28144
0.28144
0.28144
0.28144
0.28144
0.28144
0.28144
0.28144
0.28144
0.28144
0.28144
0.28144
0.28144
0.28144
0.28144
0.28144
0.28144
0.28144
0.28144
0.28144
0.28144
0.28144
0.28144
0.28144
0.28144
0.28144
0.28144
0.28144
0.28144
0.28144
0.28144
0.28144
0.28144
0.28144
0.28144
0.28144
0.28144
0.28144
0.28144
0.28144
0.28144
0.28144
0.28144
0.28144
0.28144
0.28144
0.28144
0.28144
0.28144
0.28144
0.28144
0.28144
0.28144
0.28144
0.28144
0.28144
0.28144
0.28144
0.28144
0.28144
0.28144
0.28144
0.28144
0.28144
0.28144
0.28144
0.28144
0.28144
0.28144
0.28144
0.28144
0.28144
0.28144
0.28144
0.28144
0.28144
0.28144
0.28144
0.28144
0.28144
0.28144
0.28144
0.28144
0.28144
0.28144
0.28144
0.28144
0.28144
0.28144
0.28144
0.28144
0.28144
0.28144
0.28144
0.28144
0.28144
0.28144
0.28144
0.28144
0.28144
0.28144
0.28144
0.28144
0.28144
0.28144
0.28144
0.28144
0.28144
0.28144
0.28144
0.28144
0.28144
0.28144
0.28144
0.28144
0.28144
0.28144
0.28144
0.28144
0.28144
0.28144
0.28144
0.28144
0.28144
0.28144
0.28144
0.28144
0.28144
0.28144
0.28144
0.28144
0.28144
0.28144
0.28144
0.28144
0.28144
0.28144
0.28144
0.28144
0.28024
0.28024
0.28024
0.28024
0.28024
0.28024
0.28024
0.28024
0.28024
0.28024
0.28024
0.28024
0.28024
0.28024
0.28024
0.28024
0.28024
0.28144
0.28144
0.28144
0.28144
0.28144
0.28144
0.28144
0.28144
0.28144
0.28144
0.28144
0.28144
0.28144
0.28263
0.28263
0.28263
0.28263
0.28263
0.28263
0.28263
0.28263
0.28263
0.28263
0.28263
0.28263
0.28263
0.28263
0.28263
0.28263
0.28263
0.28263
0.28263
0.28263
0.28263
0.28263
0.28263
0.28263
0.28263
0.28263
0.28263
0.28263
0.28263
0.28263
0.28263
0.28263
0.28263
0.28263
0.28263
0.28263
0.28263
0.28263
0.28263
0.28263
0.28263
0.28263
0.28263
0.28263
0.28263
0.28263
0.28263
0.28263
0.28263
0.28383
0.28383
0.28383
0.28383
0.28383
0.28383
0.28383
0.28383
0.28383
0.28383
0.28383
0.28383
0.28383
0.28383
0.28383
0.28503
0.28503
0.28503
0.28503
0.28503
0.28503
0.28503
0.28503
0.28503
0.28503
0.28503
0.28503
0.28503
0.28503
0.28503
0.28503
0.28503
0.28503
0.28503
0.28503
0.28503
0.28503
0.28503
0.28503
0.28623
0.28623
0.28623
0.28623
0.28623
0.28623
0.28623
0.28623
0.28623
0.28623
0.28623
0.28623
0.28623
0.28623
0.28623
0.28623
0.28623
0.28503
0.28503
0.28503
0.28503
0.28503
0.28503
0.28503
0.28503
0.28503
0.28503
0.28503
0.28503
0.28503
0.28503
0.28503
0.28503
0.28503
0.28503
0.28503
0.28503
0.28503
0.28503
0.28383
0.28383
0.28383
0.28383
0.28383
0.28383
0.28383
0.28383
0.28383
0.28383
0.28383
0.28383
0.28503
0.28503
0.28503
0.28503
0.28503
0.28503
0.28503
0.28503
0.28503
0.28503
0.28503
0.28503
0.28623
0.28623
0.28623
0.28623
0.28623
0.28623
0.28743
0.28743
0.28743
0.28743
0.28743
0.28743
0.28743
0.28743
0.28743
0.28743
0.28743
0.28743
0.28743
0.28743
0.28623
0.28623
0.28623
0.28623
0.28623
0.28623
0.28623
0.28623
0.28623
0.28503
0.28623
0.28623
0.28623
0.28623
0.28623
0.28623
0.28623
0.28623
0.28623
0.28623
0.28623
0.28623
0.28623
0.28623
0.28623
0.28623
0.28623
0.28623
0.28503
0.28503
0.28503
0.28503
0.28503
0.28503
0.28503
0.28503
0.28503
0.28503
0.28503
0.28503
0.28503
0.28503
0.28503
0.28503
0.28503
0.28503
0.28503
0.28503
0.28503
0.28503
0.28503
0.28503
0.28503
0.28503
0.28503
0.28503
0.28503
0.28503
0.28503
0.28503
0.28503
0.28503
0.28503
0.28503
0.28503
0.28503
0.28503
0.28503
0.28383
0.28383
0.28383
0.28383
0.28383
0.28383
0.28503
0.28503
0.28503
0.28503
0.28623
0.28623
0.28623
0.28623
0.28623
0.28623
0.28623
0.28743
0.28862
0.28862
0.28862
0.28862
0.28862
0.28862
0.28862
0.28862
0.28862
0.28862
0.28862
0.28862
0.28862
0.28862
0.28862
0.28862
0.28862
0.28862
0.28862
0.28862
0.28862
0.28862
0.28862
0.28862
0.28862
0.28862
0.28862
0.28862
0.28862
0.28862
0.28862
0.28862
0.28862
0.28862
0.28862
0.28862
0.28862
0.28862
0.28862
0.28862
0.28743
0.28743
0.28743
0.28743
0.28743
0.28743
0.28743
0.28743
0.28743
0.28743
0.28743
0.28743
0.28743
0.28743
0.28743
0.28743
0.28743
0.28743
0.28743
0.28743
0.28743
0.28743
0.28743
0.28743
0.28743
0.28743
0.28743
0.28743
0.28743
0.28743
0.28743
0.28623
0.28623
0.28743
0.28743
0.28743
0.28743
0.28743
0.28743
0.28743
0.28743
0.28743
0.28743
0.28743
0.28743
0.28743
0.28743
0.28743
0.28743
0.28743
0.28743
0.28743
0.28743
0.28743
0.28743
0.28743
0.28743
0.28743
0.28743
0.28743
0.28743
0.28743
0.28743
0.28743
0.28743
0.28623
0.28623
0.28623
0.28623
0.28623
0.28623
0.28623
0.28623
0.28623
0.28623
0.28623
0.28623
0.28503
0.28503
0.28503
0.28503
0.28503
0.28503
0.28503
0.28383
0.28383
0.28383
0.28383
0.28383
0.28383
0.28383
0.28383
0.28383
0.28383
0.28383
0.28383
0.28383
0.28383
0.28383
0.28383
0.28383
0.28383
0.28383
0.28383
0.28383
0.28383
0.28383
0.28383
0.28383
0.28383
0.28383
0.28383
0.28383
0.28383
0.28383
0.28383
0.28383
0.28383
0.28383
0.28383
0.28383
0.28383
0.28263
0.28263
0.28263
0.28263
0.28263
0.28263
0.28263
0.28263
0.28263
0.28263
0.28263
0.28383
0.28383
0.28503
0.28503
0.28503
0.28503
0.28503
0.28503
0.28503
0.28503
0.28503
0.28503
0.28503
0.28503
0.28503
0.28623
0.28623
0.28623
0.28623
0.28623
0.28623
0.28623
0.28623
0.28623
0.28623
0.28623
0.28623
0.28623
0.28623
0.28623
0.28623
0.28623
0.28623
0.28623
0.28623
0.28623
0.28623
0.28623
0.28623
0.28623
0.28623
0.28623
0.28623
0.28623
0.28623
0.28623
0.28623
0.28623
0.28623
0.28383
0.28383
0.28383
0.28383
0.28383
0.28383
0.28383
0.28383
0.28383
0.28383
0.28383
0.28383
0.28383
0.28383
0.28383
0.28383
0.28383
0.28383
0.28383
0.28383
0.28383
0.28383
0.28383
0.28383
0.28503
0.28503
0.28503
0.28503
0.28503
0.28503
0.28503
0.28503
0.28503
0.28503
0.28623
0.28623
0.28623
0.28623
0.28623
0.28623
0.28743
0.28743
0.28743
0.28743
0.28743
0.28743
0.28743
0.28743
0.28743
0.28743
0.28743
0.28743
0.28743
0.28743
0.28743
0.28862
0.28862
0.28862
0.28862
0.28862
0.28862
0.28862
0.28862
0.28862
0.28862
0.28862
0.28862
0.28862
0.28862
0.28862
0.28862
0.28862
0.28862
0.28862
0.28862
0.28862
0.28862
0.28862
0.28862
0.28862
0.28862
0.28862
0.28862
0.28862
0.28862
0.28862
0.28862
0.28862
0.28862
0.28862
0.28862
0.28862
0.28862
0.28862
0.28862
0.28862
0.28862
0.28862
0.28862
0.28862
0.28862
0.28862
0.28862
0.28862
0.28862
0.28862
0.28862
0.28862
0.28862
0.28862
0.28862
0.28862
0.28862
0.28862
0.28862
0.28862
0.28862
0.28862
0.28862
0.28862
0.28862
0.28862
0.28862
0.28862
0.28862
0.28862
0.28862
0.28982
0.28982
0.28982
0.28982
0.28982
0.28982
0.28982
0.29102
0.29102
0.29102
0.29102
0.29102
0.29102
0.29102
0.29102
0.29102
0.29102
0.29102
0.29102
0.28982
0.28982
0.28982
0.28982
0.28982
0.28982
0.28982
0.28982
0.28982
0.28982
0.28982
0.28982
0.28982
0.28982
0.28982
0.28982
0.28982
0.28982
0.28982
0.28982
0.28982
0.28982
0.28982
0.28982
0.28982
0.28982
0.28982
0.28982
0.28982
0.28982
0.28982
0.28982
0.28982
0.28982
0.28982
0.28982
0.28982
0.28982
0.29102
0.29102
0.29102
0.29102
0.29102
0.29102
0.29102
0.29102
0.29102
0.29102
0.29102
0.29102
0.29102
0.29102
0.29102
0.29102
0.29102
0.29102
0.29102
0.29102
0.29102
0.29102
0.29102
0.29102
0.29102
0.29102
0.29102
0.29102
0.29102
0.29102
0.29102
0.29102
0.29102
0.29102
0.29102
0.29102
0.29102
0.29102
0.29102
0.29222
0.29222
0.29222
0.29222
0.29222
0.29222
0.29222
0.29222
0.29222
0.29222
0.29222
0.29222
0.29222
0.29222
0.29222
0.29222
0.29222
0.29222
0.29222
0.29222
0.29222
0.29222
0.29222
0.29222
0.29222
0.29222
0.29341
0.29341
0.29341
0.29341
0.29341
0.29341
0.29341
0.29341
0.29341
0.29341
0.29341
0.29341
0.29341
0.29341
0.29341
0.29341
0.29341
0.29341
0.29341
0.29341
0.29341
0.29341
0.29341
0.29341
0.29341
0.29341
0.29341
0.29341
0.29341
0.29341
0.29341
0.29341
0.29341
0.29341
0.29341
0.29341
0.29341
0.29341
0.29341
0.29341
0.29341
0.29341
0.29341
0.29341
0.29341
0.29341
0.29341
0.29341
0.29341
0.29341
0.29341
0.29341
0.29341
0.29341
0.29341
0.29341
0.29341
0.29341
0.29341
0.29341
0.29341
0.29341
0.29341
0.29341
0.29341
0.29341
0.29341
0.29341
0.29341
0.29341
0.29341
0.29341
0.29341
0.29341
0.29341
0.29341
0.29341
0.29341
0.29341
0.29341
0.29341
0.29341
0.29341
0.29341
0.29341
0.29341
0.29341
0.29341
0.29341
0.29341
0.29341
0.29341
0.29341
0.29341
0.29341
0.29341
0.29341
0.29341
0.29341
0.29341
0.29341
0.29341
0.29341
0.29341
0.29341
0.29341
0.29341
0.29341
0.29341
0.29341
0.29341
0.29341
0.29341
0.29341
0.29341
0.29341
0.29341
0.29341
0.29341
0.29341
0.29341
0.29341
0.29341
0.29341
0.29341
0.29222
0.29222
0.29222
0.29222
0.29222
0.29222
0.29222
0.29222
0.29222
0.29222
0.29222
0.29222
0.29222
0.29222
0.29222
0.29222
0.29222
0.29222
0.29222
0.29222
0.29222
0.29222
0.29222
0.29222
0.29222
0.29222
0.29222
0.29222
0.29222
0.29222
0.29222
0.29222
0.29222
0.29222
0.29222
0.29222
0.29222
0.29222
0.29222
0.29222
0.29222
0.29222
0.29222
0.29222
0.29222
0.29222
0.29222
0.29222
0.29222
0.29222
0.29222
0.29222
0.29222
0.29222
0.29222
0.29222
0.29222
0.29222
0.29222
0.29222
0.29222
0.29222
0.29222
0.29222
0.29222
0.29222
0.29222
0.29222
0.29222
0.29222
0.29222
0.29222
0.29222
0.29222
0.29222
0.29222
0.29222
0.29222
0.29222
0.29222
0.29222
0.29222
0.29222
0.29222
0.29222
0.29222
0.29222
0.29222
0.29222
0.29222
0.29222
0.29222
0.29222
0.29222
0.29222
0.29222
0.29222
0.29222
0.29222
0.29222
0.29222
0.29222
0.29222
0.29222
0.29222
0.29222
0.29222
0.29222
0.29222
0.29222
0.29222
0.29222
0.29222
0.29222
0.29222
0.29222
0.29222
0.29222
0.29222
0.29222
0.29222
0.29222
0.29222
0.29222
0.29222
0.29222
0.29222
0.29222
0.29222
0.29222
0.29222
0.29222
0.29222
0.29222
0.29222
0.29222
0.29222
0.29222
0.29222
0.29222
0.29222
0.29222
0.29222
0.29222
0.29222
0.29222
0.29222
0.29222
0.29222
0.29222
0.29222
0.29222
0.29222
0.29222
0.29222
0.29222
0.29222
0.29222
0.29222
0.29222
0.29222
0.29222
0.29222
0.29222
0.29222
0.29222
0.29222
0.29222
0.29222
0.29222
0.29222
0.29222
0.29222
0.29222
0.29222
0.29222
0.29222
0.29222
0.29222
0.29222
0.29222
0.29222
0.29222
0.29222
0.29222
0.29222
0.29222
0.29222
0.29222
0.29222
0.29222
0.29222
0.29222
0.29222
0.29222
0.29222
0.29222
0.29222
0.29222
0.29222
0.29222
0.29222
0.29222
0.29222
0.29222
0.29222
0.29222
0.29222
0.29222
0.29222
0.29222
0.29222
0.29222
0.29222
0.29222
0.29222
0.29222
0.29222
0.29222
0.29222
0.29222
0.29222
0.29222
0.29222
0.29222
0.29222
0.29222
0.29222
0.29341
0.29341
0.29341
0.29341
0.29341
0.29341
0.29341
0.29341
0.29341
0.29341
0.29341
0.29461
0.29461
0.29461
0.29461
0.29461
0.29461
0.29461
0.29461
0.29461
0.29461
0.29461
0.29461
0.29461
0.29461
0.29461
0.29461
0.29461
0.29461
0.29461
0.29461
0.29461
0.29461
0.29461
0.29461
0.29461
0.29461
0.29461
0.29461
0.29461
0.29461
0.29461
0.29461
0.29461
0.29461
0.29461
0.29341
0.29341
0.29341
0.29341
0.29341
0.29341
0.29341
0.29341
0.29341
0.29341
0.29341
0.29341
0.29341
0.29341
0.29341
0.29341
0.29341
0.29341
0.29341
0.29341
0.29341
0.29341
0.29341
0.29341
0.29341
0.29341
0.29341
0.29341
0.29341
0.29341
0.29341
0.29341
0.29341
0.29341
0.29341
0.29341
0.29341
0.29341
0.29341
0.29341
0.29341
0.29341
0.29341
0.29341
0.29341
0.29341
0.29341
0.29341
0.29341
0.29341
0.29341
0.29341
0.29341
0.29341
0.29341
0.29341
