0
0.49341
0.71856
0.59042
0.63832
0.67904
0.69341
0.69341
0.69102
0.7006
0.57605
0.49341
0.49341
0.49341
0.49341
0.49341
0.49341
0.49222
0.49222
0.48982
0.48503
0.47425
0.46467
0.45988
0.45269
0.4515
0.44671
0.4503
0.44072
0.42275
0.40359
0.38922
0.38922
0.38802
0.38204
0.38323
0.38084
0.38204
0.37485
0.37365
0.37246
0.37006
0.36527
0.36527
0.36407
0.36168
0.36048
0.35808
0.35928
0.36048
0.3521
0.3509
0.3521
0.3521
0.35449
0.3521
0.3497
0.34491
0.34491
0.34251
0.33892
0.33533
0.33533
0.33174
0.33054
0.33174
0.33174
0.33054
0.32934
0.32814
0.32934
0.32814
0.32455
0.32216
0.31856
0.31856
0.31617
0.31617
0.31257
0.31138
0.31138
0.31018
0.30898
0.30898
0.30659
0.30659
0.30539
0.30299
0.30419
0.30778
0.30898
0.31018
0.30898
0.30778
0.30778
0.30539
0.30539
0.30419
0.30299
0.3006
0.2982
0.2994
0.2982
0.2982
0.3006
0.2994
0.2982
0.29701
0.29461
0.29461
0.29341
0.29222
0.29222
0.29222
0.29341
0.29341
0.29222
0.29222
0.29341
0.29341
0.29461
0.29341
0.29341
0.29341
0.29341
0.29341
0.29102
0.29102
0.29341
0.29222
0.29222
0.29581
0.29701
0.29581
0.29701
0.2982
0.2982
0.2982
0.29701
0.29581
0.29581
0.29461
0.29461
0.29581
0.29581
0.29581
0.29581
0.29581
0.29581
0.29581
0.29581
0.29222
0.29461
0.29341
0.29341
0.29461
0.29341
0.29581
0.29581
0.29341
0.29341
0.29341
0.29461
0.29461
0.29341
0.29341
0.29222
0.29341
0.29341
0.29222
0.29102
0.28982
0.28982
0.29102
0.28982
0.28982
0.29102
0.29222
0.29222
0.29222
0.29222
0.29222
0.29222
0.29222
0.29222
0.29222
0.29222
0.29222
0.29222
0.29102
0.29102
0.29102
0.29102
0.29102
0.29102
0.29102
0.29102
0.29102
0.29102
0.29102
0.29102
0.29102
0.29222
0.29222
0.29222
0.29102
0.29222
0.29222
0.29102
0.29102
0.29102
0.29102
0.29102
0.29102
0.29102
0.29222
0.29102
0.29102
0.29102
0.29102
0.29102
0.29102
0.29341
0.29341
0.29341
0.29341
0.29222
0.29222
0.29222
0.29222
0.29341
0.29461
0.29461
0.29341
0.29102
0.28982
0.28982
0.28982
0.28982
0.28982
0.28982
0.28982
0.28982
0.29102
0.29102
0.29341
0.29341
0.29461
0.29581
0.29581
0.29581
0.29581
0.2994
0.2994
0.2994
0.2994
0.2994
0.2994
0.2994
0.2994
0.2994
0.2994
0.2994
0.2994
0.2982
0.2982
0.2982
0.2982
0.2982
0.2982
0.2982
0.2982
0.2982
0.2982
0.2982
0.2982
0.2982
0.2982
0.2982
0.2982
0.2982
0.2994
0.2994
0.2994
0.2994
0.2994
0.2994
0.2994
0.3006
0.3006
0.3006
0.3006
0.3006
0.3006
0.3006
0.3006
0.3006
0.3006
0.3006
0.3006
0.3006
0.3006
0.3006
0.3006
0.3006
0.3006
0.3006
0.3006
0.3006
0.3006
0.3006
0.2982
0.2982
0.2982
0.2982
0.2982
0.2982
0.29701
0.29701
0.29701
0.29701
0.29701
0.29581
0.29581
0.29581
0.29581
0.29581
0.29581
0.29581
0.29581
0.29701
0.29701
0.29701
0.29701
0.29701
0.29701
0.29701
0.29701
0.29701
0.29701
0.29701
0.29701
0.2982
0.2982
0.2982
0.2982
0.2982
0.2982
0.2982
0.2982
0.2982
0.2982
0.2982
0.2982
0.2982
0.2982
0.2982
0.2982
0.2982
0.2982
0.2982
0.2982
0.2982
0.2982
0.2982
0.2982
0.2982
0.2982
0.2982
0.2982
0.2982
0.2982
0.2982
0.2982
0.2982
0.2982
0.2982
0.2982
0.2982
0.29701
0.29701
0.29701
0.29701
0.29701
0.2982
0.2982
0.2982
0.2982
0.2982
0.2982
0.2982
0.2982
0.2982
0.2982
0.2982
0.2982
0.2982
0.2982
0.29701
0.29701
0.29701
0.29701
0.29701
0.29701
0.29701
0.29701
0.29701
0.29701
0.29701
0.29701
0.29701
0.29701
0.29701
0.29701
0.29701
0.29701
0.29701
0.29701
0.29701
0.29701
0.29701
0.29701
0.29701
0.29701
0.29701
0.29701
0.29701
0.29701
0.29701
0.29701
0.29701
0.29701
0.29701
0.29701
0.29701
0.29701
0.29701
0.29701
0.29701
0.29701
0.29701
0.29701
0.29701
0.29701
0.29701
0.29701
0.29701
0.29701
0.29701
0.29701
0.29701
0.29581
0.29581
0.29581
0.29581
0.29581
0.29581
0.29581
0.29581
0.29581
0.29581
0.29701
0.29701
0.29701
0.29701
0.2982
0.2982
0.2982
0.2982
0.2982
0.2982
0.2982
0.2982
0.2982
0.2982
0.2982
0.2982
0.2982
0.2982
0.2982
0.2982
0.2982
0.2982
0.2982
0.2982
0.2982
0.2982
0.2982
0.2982
0.2982
0.2982
0.2982
0.2982
0.2982
0.2982
0.2982
0.2982
0.2982
0.29701
0.29701
0.29701
0.29701
0.29701
0.29701
0.29701
0.29701
0.29701
0.29701
0.29701
0.29701
0.2982
0.29701
0.29701
0.29701
0.29701
0.29701
0.29701
0.29701
0.29701
0.2982
0.29701
0.29701
0.29701
0.29701
0.29701
0.29581
0.2982
0.2994
0.2994
0.2994
0.2994
0.2982
0.2994
0.2994
0.2994
0.2994
0.2994
0.2994
0.2994
0.2994
0.2994
0.2994
0.2994
0.2994
0.2982
0.2982
0.2982
0.2982
0.2982
0.2982
0.2982
0.2982
0.2982
0.2982
0.2982
0.2982
0.29701
0.29701
0.29701
0.29701
0.29701
0.29701
0.29701
0.29701
0.29701
0.29701
0.29701
0.29701
0.29701
0.29701
0.29581
0.29581
0.29461
0.29461
0.29461
0.29581
0.29701
0.29701
0.29701
0.29701
0.29701
0.29581
0.29581
0.29581
0.29461
0.29461
0.29461
0.29461
0.29461
0.29461
0.29461
0.29461
0.29461
0.29461
0.29461
0.29461
0.29461
0.29461
0.29461
0.29461
0.29461
0.29461
0.29341
0.29341
0.29341
0.29341
0.29461
0.29461
0.29461
0.29461
0.29341
0.29461
0.29461
0.29341
0.29341
0.29341
0.29341
0.29341
0.29222
0.29222
0.29222
0.29222
0.29222
0.29102
0.29102
0.29102
0.29102
0.29102
0.29102
0.29102
0.29102
0.29102
0.29222
0.29341
0.29341
0.29341
0.29341
0.29341
0.29341
0.29341
0.29341
0.29341
0.29341
0.29341
0.29341
0.29222
0.29222
0.29222
0.29222
0.29222
0.29222
0.29222
0.29222
0.29222
0.29222
0.29222
0.29102
0.29102
0.29102
0.28982
0.28862
0.28862
0.28862
0.28862
0.28862
0.28862
0.28862
0.28862
0.28743
0.28743
0.28743
0.28743
0.28743
0.28623
0.28623
0.28623
0.28623
0.28623
0.28623
0.28623
0.28623
0.28623
0.28623
0.28623
0.28623
0.28623
0.28623
0.28623
0.28623
0.28623
0.28623
0.28623
0.28623
0.28623
0.28623
0.28623
0.28623
0.28623
0.28623
0.28623
0.28623
0.28623
0.28623
0.28623
0.28623
0.28623
0.28623
0.28623
0.28623
0.28623
0.28623
0.28623
0.28623
0.28623
0.28623
0.28623
0.28623
0.28623
0.28623
0.28623
0.28623
0.28623
0.28623
0.28623
0.28623
0.28623
0.28623
0.28623
0.28623
0.28623
0.28623
0.28623
0.28623
0.28623
0.28623
0.28623
0.28623
0.28623
0.28623
0.28623
0.28623
0.28623
0.28623
0.28623
0.28623
0.28623
0.28623
0.28623
0.28623
0.28623
0.28623
0.28623
0.28623
0.28623
0.28623
0.28503
0.28503
0.28503
0.28503
0.28503
0.28503
0.28503
0.28503
0.28503
0.28503
0.28503
0.28503
0.28503
0.28503
0.28503
0.28503
0.28503
0.28503
0.28503
0.28503
0.28503
0.28503
0.28503
0.28503
0.28503
0.28503
0.28503
0.28503
0.28503
0.28503
0.28503
0.28503
0.28503
0.28503
0.28503
0.28503
0.28503
0.28503
0.28503
0.28503
0.28503
0.28503
0.28503
0.28503
0.28503
0.28503
0.28503
0.28503
0.28503
0.28503
0.28623
0.28623
0.28623
0.28623
0.28623
0.28623
0.28623
0.28623
0.28623
0.28623
0.28623
0.28623
0.28623
0.28623
0.28623
0.28503
0.28503
0.28503
0.28503
0.28503
0.28503
0.28503
0.28503
0.28503
0.28503
0.28503
0.28503
0.28503
0.28503
0.28503
0.28503
0.28503
0.28503
0.28503
0.28503
0.28503
0.28503
0.28503
0.28503
0.28503
0.28503
0.28503
0.28503
0.28503
0.28503
0.28503
0.28503
0.28503
0.28503
0.28503
0.28503
0.28503
0.28503
0.28503
0.28503
0.28503
0.28503
0.28503
0.28503
0.28503
0.28503
0.28503
0.28503
0.28503
0.28503
0.28503
0.28503
0.28503
0.28503
0.28503
0.28503
0.28503
0.28503
0.28503
0.28503
0.28503
0.28503
0.28503
0.28503
0.28503
0.28503
0.28503
0.28503
0.28503
0.28503
0.28503
0.28503
0.28503
0.28503
0.28503
0.28503
0.28503
0.28503
0.28503
0.28503
0.28503
0.28503
0.28503
0.28503
0.28503
0.28503
0.28503
0.28503
0.28503
0.28503
0.28503
0.28503
0.28503
0.28503
0.28503
0.28503
0.28503
0.28503
0.28503
0.28503
0.28503
0.28503
0.28503
0.28503
0.28503
0.28503
0.28503
0.28503
0.28503
0.28503
0.28503
0.28503
0.28503
0.28503
0.28503
0.28503
0.28503
0.28503
0.28503
0.28503
0.28503
0.28503
0.28503
0.28503
0.28503
0.28503
0.28503
0.28503
0.28503
0.28503
0.28503
0.28503
0.28503
0.28503
0.28503
0.28503
0.28503
0.28503
0.28503
0.28503
0.28503
0.28503
0.28503
0.28503
0.28503
0.28503
0.28503
0.28503
0.28503
0.28503
0.28503
0.28503
0.28503
0.28503
0.28503
0.28503
0.28503
0.28503
0.28503
0.28503
0.28503
0.28503
0.28503
0.28503
0.28503
0.28503
0.28503
0.28503
0.28503
0.28503
0.28503
0.28503
0.28503
0.28503
0.28503
0.28503
0.28503
0.28503
0.28503
0.28503
0.28503
0.28503
0.28503
0.28503
0.28503
0.28503
0.28503
0.28503
0.28503
0.28503
0.28503
0.28503
0.28503
0.28503
0.28503
0.28503
0.28503
0.28503
0.28503
0.28503
0.28503
0.28503
0.28503
0.28503
0.28623
0.28623
0.28623
0.28623
0.28623
0.28623
0.28623
0.28623
0.28623
0.28623
0.28623
0.28623
0.28623
0.28623
0.28623
0.28623
0.28623
0.28623
0.28623
0.28623
0.28623
0.28623
0.28623
0.28623
0.28623
0.28623
0.28623
0.28623
0.28623
0.28623
0.28623
0.28503
0.28503
0.28503
0.28503
0.28503
0.28503
0.28503
0.28503
0.28503
0.28503
0.28503
0.28503
0.28503
0.28503
0.28503
0.28503
0.28503
0.28503
0.28503
0.28503
0.28503
0.28503
0.28503
0.28503
0.28503
0.28503
0.28503
0.28503
0.28503
0.28503
0.28503
0.28503
0.28503
0.28503
0.28503
0.28623
0.28623
0.28623
0.28623
0.28623
0.28623
0.28623
0.28623
0.28623
0.28623
0.28623
0.28623
0.28623
0.28623
0.28623
0.28623
0.28623
0.28623
0.28623
0.28623
0.28623
0.28623
0.28623
0.28623
0.28623
0.28623
0.28623
0.28623
0.28623
0.28623
0.28623
0.28623
0.28623
0.28623
0.28623
0.28623
0.28623
0.28623
0.28623
0.28623
0.28623
0.28623
0.28623
0.28623
0.28623
0.28743
0.28743
0.28743
0.28743
0.28743
0.28743
0.28743
0.28743
0.28743
0.28743
0.28743
0.28743
0.28743
0.28743
0.28743
0.28743
0.28743
0.28743
0.28743
0.28743
0.28743
0.28743
0.28743
0.28743
0.28743
0.28743
0.28743
0.28743
0.28743
0.28743
0.28743
0.28743
0.28743
0.28743
0.28743
0.28743
0.28743
0.28743
0.28743
0.28743
0.28743
0.28743
0.28743
0.28743
0.28743
0.28862
0.28862
0.28862
0.28862
0.28862
0.28862
0.28862
0.28862
0.28862
0.28862
0.28862
0.28862
0.28862
0.28862
0.28862
0.28862
0.28862
0.28862
0.28862
0.28862
0.28862
0.28862
0.28862
0.28862
0.28862
0.28862
0.28862
0.28862
0.28862
0.28862
0.28862
0.28862
0.28862
0.28862
0.28743
0.28623
0.28623
0.28623
0.28623
0.28623
0.28623
0.28623
0.28623
0.28623
0.28623
0.28623
0.28623
0.28623
0.28623
0.28623
0.28623
0.28623
0.28623
0.28623
0.28623
0.28623
0.28623
0.28623
0.28623
0.28623
0.28623
0.28623
0.28623
0.28623
0.28623
0.28623
0.28623
0.28623
0.28623
0.28623
0.28623
0.28623
0.28623
0.28623
0.28623
0.28623
0.28623
0.28623
0.28623
0.28623
0.28623
0.28623
0.28623
0.28623
0.28623
0.28623
0.28623
0.28623
0.28623
0.28623
0.28623
0.28623
0.28743
0.28743
0.28743
0.28743
0.28743
0.28743
0.28743
0.28743
0.28743
0.28743
0.28743
0.28743
0.28743
0.28743
0.28743
0.28623
0.28623
0.28623
0.28503
0.28503
0.28503
0.28503
0.28503
0.28503
0.28383
0.28383
0.28383
0.28383
0.28383
0.28383
0.28383
0.28383
0.28383
0.28383
0.28383
0.28383
0.28383
0.28383
0.28263
0.28263
0.28263
0.28263
0.28263
0.28263
0.28263
0.28263
0.28263
0.28263
0.28263
0.28263
0.28263
0.28263
0.28263
0.28263
0.28263
0.28263
0.28263
0.28263
0.28263
0.28263
0.28263
0.28263
0.28263
0.28263
0.28263
0.28263
0.28263
0.28263
0.28263
0.28263
0.28263
0.28263
0.28263
0.28263
0.28263
0.28263
0.28263
0.28263
0.28263
0.28263
0.28263
0.28263
0.28263
0.28263
0.28263
0.28263
0.28263
0.28263
0.28263
0.28263
0.28263
0.28263
0.28263
0.28263
0.28263
0.28263
0.28263
0.28263
0.28263
0.28263
0.28263
0.28263
0.28263
0.28263
0.28263
0.28383
0.28383
0.28383
0.28263
0.28144
0.28144
0.28144
0.28144
0.28144
0.28144
0.28144
0.28144
0.28144
0.28144
0.28144
0.28144
0.28144
0.28144
0.28144
0.28144
0.28144
0.28144
0.28144
0.28144
0.28144
0.28144
0.28144
0.28024
0.28024
0.28024
0.27904
0.27904
0.27904
0.27784
0.27784
0.27784
0.27784
0.27784
0.27784
0.27904
0.27904
0.27904
0.27904
0.27904
0.27904
0.27904
0.27904
0.27904
0.27904
0.27784
0.27904
0.27904
0.27904
0.27904
0.27904
0.27904
0.27904
0.27904
0.27784
0.27784
0.27784
0.27784
0.27784
0.27784
0.27784
0.27784
0.27784
0.27784
0.27784
0.27784
0.27784
0.27784
0.27784
0.27784
0.27904
0.27904
0.27904
0.27904
0.27904
0.27904
0.27904
0.27904
0.28024
0.28024
0.28024
0.28024
0.28024
0.28024
0.28024
0.28024
0.28144
0.28144
0.28144
0.28144
0.28144
0.28144
0.28144
0.28144
0.28144
0.28144
0.28144
0.28263
0.28263
0.28383
0.28383
0.28383
0.28383
0.28383
0.28383
0.28383
0.28383
0.28263
0.28263
0.28263
0.28263
0.28263
0.28263
0.28263
0.28263
0.28263
0.28263
0.28263
0.28144
0.28144
0.28263
0.28263
0.28263
0.28263
0.28263
0.28263
0.28263
0.28263
0.28383
0.28383
0.28383
0.28383
0.28383
0.28383
0.28383
0.28383
0.28383
0.28383
0.28383
0.28383
0.28383
0.28383
0.28263
0.28383
0.28383
0.28383
0.28383
0.28383
0.28383
0.28383
0.28383
0.28383
0.28383
0.28383
0.28383
0.28383
0.28383
0.28383
0.28383
0.28263
0.28263
0.28263
0.28263
0.28263
0.28503
0.28503
0.28503
0.28623
0.28623
0.28623
0.28623
0.28623
0.28623
0.28623
0.28623
0.28503
0.28503
0.28383
0.28383
0.28383
0.28383
0.28383
0.28263
0.28263
0.28263
0.28263
0.28263
0.28263
0.28263
0.28263
0.28263
0.28263
0.28263
0.28263
0.28263
0.28263
0.28263
0.28263
0.28263
0.28263
0.28263
0.28263
0.28263
0.28263
0.28263
0.28263
0.28263
0.28263
0.28263
0.28263
0.28263
0.28263
0.28263
0.28263
0.28263
0.28263
0.28263
0.28263
0.28263
0.28383
0.28383
0.28383
0.28383
0.28383
0.28383
0.28383
0.28383
0.28383
0.28383
0.28383
0.28383
0.28503
0.28383
0.28383
0.28383
0.28383
0.28383
0.28383
0.28383
0.28383
0.28383
0.28383
0.28383
0.28383
0.28383
0.28383
0.28383
0.28383
0.28383
0.28383
0.28383
0.28383
0.28383
0.28383
0.28383
0.28383
0.28383
0.28383
0.28383
0.28383
0.28383
0.28383
0.28383
0.28383
0.28383
0.28383
0.28383
0.28383
0.28383
0.28383
0.28383
0.28383
0.28503
0.28503
0.28503
0.28503
0.28503
0.28503
0.28503
0.28503
0.28503
0.28503
0.28503
0.28623
0.28623
0.28743
0.28743
0.28862
0.28862
0.28862
0.28862
0.28862
0.28862
0.28862
0.28862
0.28982
0.28982
0.28982
0.28982
0.28982
0.28982
0.28982
0.28982
0.28982
0.28982
0.28982
0.28982
0.28982
0.28982
0.28982
0.28982
0.28982
0.28982
0.28982
0.28982
0.28982
0.28982
0.28982
0.28982
0.28982
0.28982
0.28982
0.28982
0.28982
0.28982
0.28982
0.28982
0.28982
0.28982
0.28982
0.28982
0.28982
0.28862
0.28862
0.28862
0.28862
0.28862
0.28862
0.28862
0.28862
0.28862
0.28862
0.28862
0.28862
0.28862
0.28862
0.28862
0.28862
0.28743
0.28743
0.28623
0.28623
0.28623
0.28623
0.28623
0.28623
0.28623
0.28623
0.28623
0.28623
0.28623
0.28623
0.28623
0.28503
0.28503
0.28503
0.28503
0.28503
0.28503
0.28503
0.28503
0.28503
0.28503
0.28503
0.28503
0.28503
0.28503
0.28503
0.28503
0.28503
0.28503
0.28503
0.28503
0.28503
0.28503
0.28503
0.28503
0.28503
0.28503
0.28503
0.28623
0.28623
0.28623
0.28623
0.28623
0.28623
0.28623
0.28623
0.28623
0.28623
0.28623
0.28503
0.28383
0.28383
0.28383
0.28383
0.28263
0.28263
0.28263
0.28263
0.28263
0.28263
0.28263
0.28263
0.28263
0.28144
0.28144
0.28144
0.28144
0.28144
0.28144
0.28144
0.28144
0.28144
0.28144
0.28144
0.28144
0.28263
0.28263
0.28263
0.28263
0.28263
0.28263
0.28263
0.28263
0.28263
0.28263
0.28263
0.28263
0.28263
0.28383
0.28383
0.28503
0.28503
0.28503
0.28503
0.28503
0.28623
0.28623
0.28623
0.28623
0.28623
0.28623
0.28623
0.28623
0.28623
0.28623
0.28623
0.28623
0.28623
0.28623
0.28623
0.28623
0.28623
0.28623
0.28623
0.28623
0.28743
0.28743
0.28743
0.28743
0.28743
0.28743
0.28743
0.28743
0.28743
0.28743
0.28743
0.28743
0.28743
0.28743
0.28743
0.28743
0.28743
0.28743
0.28862
0.28862
0.28862
0.28862
0.28862
0.28862
0.28862
0.28862
0.28862
0.28862
0.28862
0.28862
0.28862
0.28862
0.28862
0.28862
0.28862
0.28982
0.28982
0.28982
0.28982
0.28982
0.28982
0.28982
0.29102
0.29102
0.29102
0.28982
0.28982
0.28982
0.28982
0.28982
0.28982
0.28982
0.28982
0.28982
0.28982
0.28982
0.28982
0.28982
0.28982
0.28982
0.28982
0.28982
0.28982
0.28982
0.28982
0.28982
0.28982
0.28982
0.28982
0.28982
0.28982
0.28982
0.28982
0.28982
0.28982
0.28982
0.28982
0.28982
0.28982
0.28982
0.28982
0.28982
0.28982
0.28982
0.28982
0.28982
0.28982
0.28982
0.28982
0.28982
0.28982
0.28982
0.28982
0.28982
0.28982
0.28982
0.28982
0.28982
0.28982
0.28982
0.28982
0.28982
0.28982
0.28982
0.28982
0.28982
0.28982
0.28982
0.28982
0.28982
0.28982
0.28982
0.28982
0.28982
0.28982
0.28982
0.28982
0.28982
0.28982
0.28982
0.28982
0.28982
0.28982
0.28982
0.28982
0.28982
0.28982
0.28982
0.28982
0.28982
0.28982
0.28982
0.28982
0.28982
0.28982
0.28982
0.28982
0.28982
0.28982
0.28982
0.28982
0.28982
0.28982
0.28982
0.28982
0.28982
0.28982
0.28982
0.28982
0.28982
0.28982
0.28982
0.28982
0.28982
0.28982
0.28982
0.28982
0.28982
0.28982
0.28982
0.28982
0.28982
0.28982
0.28982
0.28982
0.28982
0.28982
0.28982
0.28982
0.28982
0.28982
0.28982
0.28982
0.28982
0.28982
0.28982
0.28982
0.28982
0.28982
0.28982
0.28982
0.28982
0.28982
0.28982
0.28982
0.28982
0.28982
0.29102
0.29102
0.29102
0.29102
0.29102
0.29102
0.29102
0.29102
0.29102
0.29102
0.29102
0.29102
0.29102
0.29102
0.29102
0.29102
0.29102
0.29102
0.29102
0.29102
0.29102
0.29102
0.29102
0.29102
0.29102
0.29102
0.29102
0.29102
0.29102
0.29102
0.29102
0.29102
0.29102
0.29102
0.29102
0.29102
0.29102
0.29102
0.29102
0.29102
0.29102
0.29102
0.29102
0.29102
0.29102
0.29102
0.29102
0.29102
0.29102
0.29102
0.29102
0.29102
0.29102
0.29102
0.29102
0.29102
0.29102
0.29102
0.29102
0.29102
0.29102
0.29102
0.29102
0.29102
0.29102
0.29102
0.29102
0.29102
0.29102
0.29102
0.29102
0.29102
0.29102
0.29102
0.29102
0.29102
0.29102
0.29102
0.29102
0.29102
0.29102
0.29102
0.29102
0.29102
0.29102
0.29102
0.29102
0.29102
0.29102
0.29102
0.29102
0.29102
0.29102
0.29102
0.29102
0.29102
0.29102
0.29102
0.29102
0.29102
0.29102
0.29102
0.29102
0.29102
0.29102
0.29102
0.29102
0.29102
0.29102
0.29102
0.29102
0.29102
0.29102
0.29102
0.29102
0.29102
0.29102
0.29102
0.29102
0.29102
0.29102
0.29102
0.29102
0.29102
0.29102
0.29102
0.29102
0.29102
0.29102
0.29102
0.29102
0.29102
0.29102
0.29102
0.29102
0.29222
0.29222
0.29222
0.29222
0.29222
0.29222
0.29222
0.29222
0.29222
0.29341
0.29341
0.29341
0.29341
0.29341
0.29341
0.29341
0.29341
0.29341
0.29341
0.29341
0.29341
0.29341
0.29341
0.29341
0.29341
0.29341
0.29341
0.29341
0.29341
0.29461
0.29461
0.29461
0.29461
0.29461
0.29461
0.29461
0.29461
0.29461
0.29461
0.29461
0.29461
0.29461
0.29461
0.29461
0.29461
0.29461
0.29461
0.29461
0.29461
0.29461
0.29461
0.29461
0.29461
0.29461
0.29461
0.29461
0.29461
0.29461
0.29461
0.29461
0.29461
0.29461
0.29461
0.29461
0.29461
0.29461
0.29461
0.29461
0.29461
0.29461
0.29461
0.29461
0.29461
0.29461
0.29461
0.29461
0.29461
0.29461
0.29461
0.29461
0.29461
0.29461
0.29461
0.29461
0.29461
0.29461
0.29461
0.29461
0.29461
0.29461
0.29461
0.29461
0.29461
0.29461
0.29461
0.29461
0.29461
0.29461
0.29461
0.29461
0.29461
0.29461
0.29461
0.29461
0.29461
0.29461
0.29461
0.29461
0.29461
0.29461
0.29461
0.29461
0.29461
0.29461
0.29461
0.29461
0.29461
0.29461
0.29461
0.29461
0.29461
0.29461
0.29461
0.29461
0.29461
0.29461
0.29461
0.29461
0.29461
0.29461
0.29461
0.29461
0.29461
0.29461
0.29461
0.29461
0.29461
0.29461
0.29461
0.29461
0.29461
0.29461
0.29461
0.29461
0.29461
0.29461
0.29461
0.29461
0.29461
0.29461
0.29461
0.29461
0.29461
0.29461
0.29461
0.29461
0.29461
0.29461
0.29461
0.29461
0.29461
0.29461
0.29461
0.29461
0.29461
0.29461
0.29461
0.29461
0.29461
0.29461
0.29461
0.29461
0.29461
0.29461
0.29461
0.29461
0.29461
0.29461
0.29461
0.29461
0.29461
0.29461
0.29461
0.29461
0.29461
0.29461
0.29461
0.29461
0.29461
0.29461
0.29461
0.29461
0.29461
0.29461
0.29461
0.29461
0.29461
0.29461
0.29461
0.29461
0.29461
0.29461
0.29461
0.29461
0.29461
0.29461
0.29461
0.29461
0.29461
0.29461
0.29461
0.29461
0.29461
0.29461
0.29461
0.29461
0.29461
0.29461
0.29461
0.29461
0.29461
0.29461
0.29461
0.29461
0.29461
0.29461
0.29461
0.29461
0.29461
0.29461
0.29461
0.29461
0.29461
0.29461
0.29461
0.29461
0.29461
0.29461
0.29461
0.29461
0.29461
0.29461
0.29461
0.29461
0.29461
0.29461
0.29461
0.29461
0.29461
0.29461
0.29461
0.29461
0.29461
0.29461
0.29461
0.29461
0.29461
0.29461
0.29461
0.29461
0.29461
0.29461
0.29461
0.29461
0.29461
0.29461
0.29461
0.29461
0.29461
0.29461
0.29461
0.29461
0.29461
0.29461
0.29461
0.29461
0.29461
0.29461
0.29461
0.29461
0.29461
0.29461
0.29341
0.29341
0.29341
0.29341
0.29341
0.29461
0.29461
0.29461
0.29461
0.29461
0.29461
0.29461
0.29461
0.29461
0.29461
0.29461
0.29461
0.29461
0.29461
0.29461
0.29461
0.29461
0.29461
0.29461
0.29461
0.29461
0.29461
0.29341
0.29341
0.29341
0.29341
0.29341
0.29341
0.29341
0.29341
0.29341
0.29341
0.29341
0.29341
0.29341
0.29341
0.29341
0.29341
0.29341
0.29341
0.29341
0.29341
0.29341
0.29341
0.29341
0.29341
0.29341
0.29341
0.29341
0.29341
0.29341
0.29341
0.29341
0.29341
0.29341
0.29341
0.29341
0.29341
0.29341
0.29341
0.29341
0.29341
0.29341
0.29341
0.29341
0.29341
0.29341
0.29341
0.29341
0.29341
0.29341
0.29341
0.29341
0.29341
0.29341
0.29341
0.29341
0.29341
0.29341
0.29341
0.29341
0.29341
0.29341
0.29341
0.29341
0.29341
0.29341
0.29341
0.29341
0.29461
0.29461
0.29461
0.29461
0.29461
0.29461
0.29461
0.29461
0.29461
0.29461
0.29461
0.29461
0.29461
0.29461
0.29461
0.29461
0.29461
0.29461
0.29461
0.29461
0.29461
0.29461
0.29461
0.29461
0.29461
0.29461
0.29461
0.29461
0.29461
0.29461
0.29461
0.29461
0.29461
0.29461
0.29461
0.29461
0.29461
0.29581
0.29581
0.29581
0.29581
0.29581
0.29581
0.29581
0.29581
0.29581
0.29581
0.29581
0.29581
0.29581
0.29581
0.29581
0.29581
0.29581
0.29581
0.29581
0.29581
0.29581
0.29581
0.29581
0.29581
0.29581
0.29581
0.29581
0.29581
0.29581
0.29581
0.29581
0.29581
0.29581
0.29581
0.29581
0.29581
0.29581
0.29581
0.29581
0.29581
0.29581
0.29581
0.29581
0.29581
0.29581
0.29581
0.29581
0.29581
0.29581
0.29581
0.29581
0.29581
0.29581
0.29581
0.29581
0.29581
0.29581
0.29581
0.29581
0.29581
0.29581
0.29581
0.29581
0.29581
0.29581
0.29581
0.29581
0.29581
0.29581
0.29461
0.29461
0.29461
0.29461
0.29461
0.29461
0.29461
0.29461
0.29461
0.29461
0.29461
0.29461
0.29461
0.29461
0.29461
0.29461
0.29461
0.29461
0.29461
0.29461
0.29461
0.29461
0.29461
0.29461
0.29461
0.29461
0.29461
0.29461
0.29461
0.29461
0.29461
0.29461
0.29461
0.29461
0.29461
0.29461
0.29341
0.29341
0.29341
0.29341
0.29341
0.29341
0.29341
0.29341
0.29341
0.29341
0.29341
0.29341
0.29341
0.29341
0.29341
0.29341
0.29341
0.29341
0.29341
0.29341
0.29341
0.29341
0.29341
0.29341
0.29341
0.29341
0.29341
0.29341
0.29341
0.29341
0.29341
0.29341
0.29341
0.29341
0.29341
0.29341
0.29341
0.29341
0.29341
0.29341
0.29341
0.29341
0.29341
0.29341
0.29341
0.29341
0.29341
0.29341
0.29341
0.29341
0.29341
0.29341
0.29341
0.29341
0.29341
0.29341
0.29341
0.29341
0.29341
0.29341
0.29341
0.29341
0.29341
0.29341
0.29341
0.29341
0.29341
0.29341
0.29341
0.29341
0.29341
0.29341
0.29341
0.29341
0.29341
0.29341
0.29341
0.29341
0.29341
0.29341
0.29341
0.29341
0.29341
0.29341
0.29341
0.29341
0.29341
0.29341
0.29341
0.29341
0.29341
0.29341
0.29341
0.29341
0.29341
0.29341
0.29341
0.29341
0.29341
0.29341
0.29341
0.29341
0.29341
0.29341
0.29341
0.29341
0.29341
0.29341
0.29341
0.29341
0.29341
0.29341
0.29341
0.29341
0.29341
0.29341
0.29341
0.29341
0.29341
0.29341
0.29341
0.29341
0.29341
0.29341
0.29341
0.29341
0.29341
0.29341
0.29341
0.29341
0.29341
0.29341
0.29341
0.29341
0.29341
0.29341
0.29341
0.29341
0.29341
0.29341
0.29341
0.29341
0.29341
0.29341
0.29341
0.29341
0.29341
0.29341
0.29341
0.29341
0.29341
0.29341
0.29341
0.29341
0.29341
0.29341
0.29341
0.29341
0.29341
0.29341
0.29341
0.29341
0.29341
0.29341
0.29341
0.29341
0.29341
0.29341
0.29341
0.29341
0.29341
0.29341
0.29341
0.29341
0.29341
0.29341
0.29341
0.29341
0.29341
0.29341
0.29341
0.29341
0.29341
0.29341
0.29341
0.29222
0.29222
0.29222
0.29222
0.29222
0.29222
0.29222
0.29222
0.29222
0.29222
0.29222
0.29222
0.29222
0.29222
0.29222
0.29222
0.29222
0.29222
0.29222
0.29222
0.29222
0.29222
0.29222
0.29222
0.29222
0.29222
0.29222
0.29222
0.29222
0.29222
0.29222
0.29222
0.29222
0.29222
0.29222
0.29222
0.29222
0.29222
0.29222
0.29222
0.29222
0.29222
0.29222
0.29222
0.29222
0.29222
0.29222
0.29102
0.29102
0.29102
0.29102
0.29102
0.29102
0.29102
0.29102
0.29102
0.29102
0.29102
0.29102
0.29102
0.29102
0.29102
0.29102
0.29102
0.29102
0.29102
0.29102
0.29102
0.29102
0.29102
0.29102
0.29102
0.29102
0.29102
0.29102
0.29102
0.29102
0.29102
0.29102
0.29102
0.29102
0.29102
0.29102
0.29102
0.29102
0.29102
0.29102
0.29102
0.29102
0.29102
0.29102
0.29102
0.29102
0.29102
0.29102
0.29102
0.29102
0.29102
0.29102
0.29102
0.29102
0.29102
0.29102
0.29102
0.29102
0.29102
0.29102
0.29102
0.29102
0.29102
0.29102
0.29102
0.29102
0.29102
0.29102
0.29102
0.29102
0.29102
0.29102
0.29102
0.29102
0.29102
0.29102
0.29102
0.29102
0.29102
0.29102
0.29102
0.29102
0.29102
0.29102
0.29102
0.29102
0.29102
0.29102
0.29102
0.29102
0.29102
0.29102
0.29102
0.29102
0.29102
0.29102
0.29102
0.29102
0.29102
0.29102
0.29102
0.29102
0.29102
0.29102
0.29102
0.29102
0.29102
0.29102
0.29102
0.29102
0.29102
0.29102
0.29102
0.29102
0.29102
0.29102
0.29102
0.29102
0.29102
0.29102
0.29102
0.29102
0.29102
0.29102
0.29102
0.29102
0.29102
0.29102
0.29102
0.29102
0.29102
0.29102
0.29102
0.29102
0.29102
0.29102
0.29102
0.29102
0.29102
0.29102
0.29102
0.29102
0.29102
0.29102
0.29102
0.29102
0.29102
0.29102
0.29102
0.29102
0.29102
0.29102
0.29102
0.29102
0.29102
0.29102
0.29102
0.29102
0.29102
0.29102
0.29102
0.29102
0.29102
0.29102
0.29102
0.29102
0.29102
0.29102
0.29102
0.29102
0.29102
0.29102
0.29102
0.29102
0.29102
0.29102
0.29102
0.29102
0.29102
0.29102
0.29102
0.29102
0.29102
0.29102
0.29102
0.29102
0.29102
0.29102
0.29102
0.29102
0.29102
0.29102
0.29102
0.29102
0.29102
0.29102
0.29102
0.29102
0.29102
0.29102
0.29102
0.29102
0.29102
0.29102
0.29102
0.29102
0.29102
0.29102
0.29102
0.29102
0.29102
0.29102
0.29102
0.29102
0.29102
0.29102
0.29102
0.29102
0.29102
0.29102
0.29102
0.29102
0.29102
0.29102
0.29102
0.29102
0.29102
0.29102
0.29102
0.29102
0.29102
0.29102
0.29102
0.29102
0.29102
0.29102
0.29102
0.29102
0.29102
0.29102
0.29102
0.29102
0.29102
0.29102
0.29102
0.29102
0.29102
0.29102
0.29102
0.29102
0.29102
0.29102
0.29102
0.29102
0.29102
0.29102
0.29102
0.29102
0.29102
0.29102
0.29102
0.29102
0.29102
0.29102
0.29102
0.29102
0.29102
0.29102
0.29102
0.29102
0.29102
0.29102
0.29102
0.29102
0.29102
0.29102
0.29102
0.29102
0.29102
0.29102
0.29102
0.29102
0.29102
0.29102
0.29102
0.29102
0.29102
0.29102
0.29102
0.29102
0.29102
0.29102
0.29222
0.29222
0.29222
0.29222
0.29222
0.29222
0.29222
0.29222
0.29222
0.29222
0.29222
0.29222
0.29222
0.29222
0.29222
0.29222
0.29222
0.29222
0.29222
0.29222
0.29222
0.29222
0.29222
0.29222
0.29222
0.29222
0.29222
0.29222
0.29222
0.29222
0.29222
0.29222
0.29222
0.29222
0.29222
0.29222
0.29222
0.29222
0.29222
0.29222
0.29222
0.29222
0.29222
0.29222
0.29222
0.29222
0.29222
0.29222
0.29222
0.29222
0.29222
0.29222
0.29222
0.29222
0.29222
0.29222
0.29222
0.29222
0.29222
0.29222
0.29222
0.29222
0.29222
0.29222
0.29222
0.29222
0.29222
0.29222
0.29222
0.29222
0.29222
0.29222
0.29222
0.29222
0.29222
0.29222
0.29222
0.29222
0.29222
0.29222
0.29222
0.29222
0.29222
0.29222
0.29222
0.29222
0.29222
0.29222
0.29222
0.29222
0.29222
0.29222
0.29222
0.29222
0.29222
0.29222
0.29222
0.29222
0.29222
0.29222
0.29222
0.29222
0.29222
0.29222
0.29222
0.29222
0.29222
0.29222
0.29222
0.29222
0.29222
0.29222
0.29222
0.29222
0.29222
0.29222
0.29222
0.29222
0.29222
0.29222
0.29222
0.29222
0.29222
0.29222
0.29222
0.29222
0.29222
0.29222
0.29222
0.29222
