0
0.4586
0.45831
0.45802
0.42299
0.42936
0.38998
0.39259
0.35553
0.3011
0.28923
0.2901
0.30544
0.30631
0.31616
0.30602
0.3121
0.32397
0.32224
0.33411
0.34974
0.36885
0.39114
0.41401
0.41951
0.41893
0.40938
0.40475
0.40359
0.39548
0.38448
0.36972
0.35235
0.33845
0.33005
0.31702
0.30573
0.29618
0.28691
0.28402
0.28228
0.28112
0.27823
0.2762
0.27504
0.27273
0.27128
0.27099
0.27012
0.26983
0.27186
0.27591
0.27678
0.2791
0.2791
0.27968
0.28141
0.28141
0.2817
0.28141
0.28141
0.28025
0.28054
0.28112
0.28083
0.27997
0.27997
0.2791
0.2791
0.27881
0.2791
0.27823
0.27823
0.27794
0.27707
0.27678
0.27533
0.27504
0.27331
0.27157
0.26983
0.26838
0.26694
0.26665
0.26491
0.26346
0.26317
0.26202
0.26173
0.26057
0.25912
0.25825
0.25594
0.25333
0.25246
0.24986
0.24841
0.24754
0.24551
0.2432
0.24146
0.23856
0.2377
0.23567
0.23451
0.23335
0.23191
0.23162
0.23162
0.23133
0.23075
0.22959
0.22872
0.22669
0.22554
0.22409
0.22351
0.22322
0.22351
0.22293
0.22235
0.22235
0.22148
0.22119
0.22061
0.22061
0.21946
0.21801
0.21598
0.2154
0.21453
0.21309
0.21019
0.20874
0.20816
0.20787
0.20759
0.20816
0.2073
0.20672
0.20643
0.20556
0.20498
0.20469
0.20527
0.20353
0.20353
0.20353
0.20411
0.20411
0.20411
0.20353
0.20353
0.20295
0.20295
0.20093
0.20064
0.19948
0.19832
0.19716
0.19629
0.19658
0.19658
0.19658
0.19687
0.19687
0.19745
0.19774
0.19687
0.19485
0.19514
0.19543
0.19543
0.19456
0.19427
0.19398
0.19369
0.1934
0.1934
0.1934
0.1934
0.19311
0.19224
0.19224
0.19195
0.19195
0.19195
0.19253
0.1934
0.19369
0.1934
0.19311
0.19282
0.19311
0.19369
0.19514
0.19572
0.196
0.19658
0.19629
0.19572
0.19427
0.19427
0.19369
0.19369
0.1934
0.19311
0.19427
0.19485
0.196
0.19629
0.19716
0.1989
0.19948
0.19948
0.20064
0.20064
0.20006
0.20035
0.20093
0.20151
0.20151
0.20266
0.20353
0.20411
0.2044
0.20382
0.20498
0.20498
0.20585
0.20585
0.20643
0.20643
0.20614
0.20672
0.20759
0.20816
0.20845
0.21019
0.21135
0.21193
0.21309
0.21424
0.21424
0.2154
0.2154
0.2154
0.21511
0.21569
0.21598
0.21627
0.21569
0.21569
0.2154
0.2154
0.21569
0.21569
0.21598
0.21569
0.21569
0.21569
0.21656
0.21627
0.21627
0.21656
0.21714
0.21801
0.2183
0.21859
0.21888
0.21859
0.21946
0.21975
0.21975
0.22003
0.22061
0.22119
0.22206
0.22206
0.22206
0.22235
0.22235
0.22235
0.22235
0.22264
0.22177
0.22177
0.22177
0.22177
0.22177
0.22148
0.22148
0.22119
0.22061
0.22061
0.22032
0.22032
0.22003
0.22003
0.22003
0.21975
0.21946
0.21917
0.21888
0.21888
0.21888
0.21859
0.21801
0.21714
0.21685
0.21685
0.21685
0.21627
0.21627
0.21569
0.21511
0.21511
0.21482
0.21453
0.21453
0.21395
0.21424
0.21395
0.21338
0.21251
0.21135
0.21135
0.21077
0.2099
0.2099
0.20932
0.20816
0.20787
0.20614
0.20556
0.20469
0.20382
0.20353
0.20324
0.20324
0.20266
0.20237
0.20122
0.20006
0.19977
0.19919
0.19861
0.19774
0.19774
0.19716
0.19716
0.19687
0.19629
0.19572
0.19485
0.19398
0.19398
0.1934
0.19282
0.19282
0.19253
0.19224
0.19224
0.19224
0.19137
0.19079
0.1905
0.19021
0.19021
0.18964
0.18935
0.18848
0.1879
0.18645
0.18645
0.18529
0.18529
0.185
0.18442
0.18413
0.18413
0.18327
0.18269
0.1824
0.18182
0.18124
0.18066
0.18037
0.1795
0.17834
0.17776
0.17719
0.17719
0.17719
0.17719
0.17661
0.17632
0.17632
0.17574
0.17545
0.17487
0.17487
0.17487
0.17487
0.17487
0.17458
0.17429
0.17342
0.17313
0.17313
0.17255
0.17169
0.17197
0.17226
0.17226
0.17226
0.17226
0.17226
0.17226
0.17226
0.17226
0.17197
0.17169
0.17169
0.17169
0.1714
0.17082
0.17082
0.16966
0.16908
0.16908
0.16908
0.16879
0.16879
0.16908
0.16908
0.16908
0.16937
0.16908
0.16966
0.17024
0.17024
0.17024
0.17024
0.17024
0.17024
0.17024
0.16995
0.16995
0.16995
0.16966
0.16937
0.16908
0.16908
0.16908
0.16908
0.1685
0.16821
0.16821
0.16821
0.16792
0.16792
0.16763
0.16763
0.16792
0.16763
0.16734
0.16734
0.16734
0.16734
0.16734
0.16763
0.16763
0.16763
0.16705
0.16676
0.16676
0.16676
0.16647
0.16618
0.16618
0.16589
0.16589
0.16532
0.16474
0.16474
0.16445
0.16387
0.16358
0.16329
0.16329
0.163
0.16242
0.16242
0.16213
0.16184
0.16184
0.16184
0.16184
0.16155
0.16126
0.16126
0.16126
0.16126
0.16097
0.16039
0.16039
0.1601
0.15981
0.1601
0.15981
0.15981
0.15895
0.15895
0.15924
0.15953
0.15953
0.15924
0.15924
0.15895
0.15895
0.15895
0.15895
0.15895
0.15837
0.15837
0.15837
0.15837
0.15837
0.15837
0.15779
0.15779
0.15779
0.15779
0.1575
0.1575
0.1575
0.15779
0.15779
0.15779
0.15779
0.15779
0.15779
0.15779
0.15808
0.15808
0.15808
0.15808
0.15837
0.15837
0.15837
0.15837
0.15837
0.15837
0.15837
0.15866
0.15866
0.15837
0.15837
0.15837
0.15808
0.1575
0.1575
0.15721
0.15721
0.15721
0.15721
0.15721
0.15721
0.15721
0.15721
0.15692
0.15692
0.15692
0.15692
0.15692
0.15692
0.15721
0.15721
0.15721
0.15721
0.1575
0.1575
0.1575
0.1575
0.1575
0.1575
0.1575
0.15721
0.15721
0.15721
0.15721
0.15721
0.15692
0.15692
0.15692
0.15692
0.15692
0.15692
0.15692
0.15692
0.15721
0.1575
0.1575
0.1575
0.1575
0.15721
0.15721
0.15721
0.1575
0.1575
0.15721
0.15721
0.1575
0.1575
0.1575
0.1575
0.1575
0.1575
0.1575
0.1575
0.1575
0.15779
0.15779
0.1575
0.1575
0.1575
0.15721
0.15721
0.1575
0.1575
0.15721
0.15721
0.15663
0.15634
0.15605
0.15605
0.15576
0.15605
0.15576
0.15547
0.15489
0.15489
0.15518
0.15489
0.15547
0.15547
0.15547
0.15489
0.1546
0.15431
0.15431
0.15373
0.15402
0.15402
0.15402
0.15373
0.15402
0.15431
0.15431
0.15431
0.15431
0.15402
0.15373
0.15402
0.15402
0.15373
0.15402
0.15402
0.15402
0.15373
0.15373
0.15373
0.15402
0.15402
0.15402
0.15316
0.15316
0.15316
0.15287
0.15287
0.15287
0.15287
0.15287
0.15287
0.15287
0.15287
0.15287
0.15287
0.15287
0.15287
0.15287
0.15287
0.15287
0.15258
0.15287
0.15287
0.15287
0.15287
0.15287
0.15287
0.15287
0.15287
0.15287
0.15287
0.15316
0.15316
0.15316
0.15316
0.15345
0.15345
0.15345
0.15345
0.15345
0.15345
0.15345
0.15345
0.15345
0.15345
0.15345
0.15345
0.15345
0.15345
0.15345
0.15345
0.15316
0.15316
0.15316
0.15316
0.15287
0.15287
0.15287
0.15287
0.15287
0.15287
0.15287
0.15287
0.15287
0.15287
0.15287
0.15287
0.15287
0.15287
0.15258
0.15229
0.15229
0.15229
0.15229
0.15229
0.15229
0.15229
0.15229
0.15229
0.15229
0.15229
0.15229
0.15229
0.15229
0.15229
0.15229
0.152
0.152
0.152
0.152
0.152
0.152
0.152
0.15171
0.15171
0.15171
0.15171
0.15171
0.15171
0.15171
0.15171
0.15171
0.15171
0.15171
0.15171
0.15171
0.15171
0.15171
0.15171
0.15171
0.15171
0.15171
0.15171
0.15171
0.15171
0.15171
0.15142
0.15142
0.15142
0.15142
0.15142
0.15142
0.15142
0.15142
0.15171
0.15171
0.15171
0.15171
0.15171
0.15171
0.15171
0.15171
0.15171
0.15171
0.15171
0.15171
0.15171
0.15171
0.15171
0.15171
0.15171
0.15171
0.15171
0.15171
0.15171
0.15171
0.15171
0.15171
0.15171
0.15171
0.15171
0.15171
0.15171
0.15171
0.15171
0.15171
0.15142
0.15142
0.15142
0.15142
0.15142
0.15142
0.15142
0.15142
0.15113
0.15113
0.15113
0.15113
0.15142
0.15113
0.15084
0.15084
0.15084
0.15084
0.15084
0.15084
0.15084
0.15084
0.15084
0.15084
0.15084
0.15084
0.15084
0.15084
0.15084
0.15113
0.15113
0.15113
0.15113
0.15113
0.15113
0.15113
0.15084
0.15055
0.15055
0.15055
0.15055
0.15055
0.15026
0.15026
0.15026
0.15026
0.15026
0.15026
0.14997
0.14997
0.14997
0.14997
0.14968
0.14939
0.14939
0.14939
0.1491
0.1491
0.1491
0.1491
0.1491
0.1491
0.1491
0.1491
0.1491
0.1491
0.1491
0.1491
0.1491
0.1491
0.1491
0.1491
0.1491
0.1491
0.1491
0.14881
0.14881
0.14881
0.14881
0.14881
0.14881
0.14881
0.14881
0.14823
0.14823
0.14823
0.14823
0.14794
0.14765
0.14765
0.14765
0.14765
0.14765
0.14765
0.14765
0.14765
0.14765
0.14765
0.14765
0.14765
0.14765
0.14765
0.14765
0.14765
0.14765
0.14737
0.14737
0.14737
0.14765
0.14765
0.14765
0.14765
0.14765
0.14765
0.14794
0.14794
0.14794
0.14794
0.14794
0.14794
0.14794
0.14794
0.14794
0.14794
0.14794
0.14794
0.14794
0.14794
0.14794
0.14794
0.14794
0.14823
0.14823
0.14823
0.14823
0.14823
0.14823
0.14794
0.14794
0.14794
0.14794
0.14794
0.14794
0.14823
0.14823
0.14823
0.14823
0.14823
0.14823
0.14823
0.14852
0.14852
0.14852
0.14852
0.14852
0.14852
0.14852
0.14852
0.14852
0.14852
0.14852
0.14852
0.14852
0.14852
0.14852
0.14852
0.14852
0.14852
0.14852
0.14852
0.14823
0.14794
0.14794
0.14794
0.14794
0.14765
0.14765
0.14765
0.14737
0.14737
0.14737
0.14765
0.14765
0.14765
0.14765
0.14765
0.14765
0.14765
0.14765
0.14765
0.14737
0.14737
0.14737
0.14737
0.14708
0.14708
0.14708
0.14708
0.14708
0.14708
0.14679
0.14679
0.14679
0.14679
0.14679
0.14679
0.14679
0.14679
0.1465
0.1465
0.1465
0.14621
0.14621
0.1465
0.14621
0.14621
0.14621
0.14621
0.14621
0.14621
0.14621
0.14621
0.14621
0.14621
0.14621
0.14621
0.14621
0.14621
0.14621
0.14621
0.14621
0.14621
0.14621
0.14621
0.14621
0.14621
0.14621
0.14621
0.14621
0.14592
0.14563
0.14563
0.14563
0.14563
0.14563
0.14534
0.14534
0.14534
0.14534
0.14534
0.14534
0.14534
0.14534
0.14534
0.14534
0.14534
0.14534
0.14534
0.14563
0.14563
0.14563
0.14563
0.14563
0.14563
0.14592
0.14592
0.14621
0.14621
0.14621
0.14621
0.14621
0.14592
0.14592
0.14592
0.14563
0.14621
0.14621
0.14563
0.14534
0.14534
0.14534
0.14505
0.14505
0.14505
0.14505
0.14505
0.14505
0.14476
0.14476
0.14476
0.14476
0.14476
0.14476
0.14476
0.14476
0.14476
0.14476
0.14476
0.14476
0.14476
0.14476
0.14476
0.14447
0.14447
0.14447
0.14447
0.14418
0.14418
0.14447
0.14447
0.14447
0.14447
0.14447
0.14447
0.14447
0.14447
0.14447
0.14476
0.14505
0.14534
0.14563
0.14563
0.14563
0.14592
0.14592
0.14592
0.14592
0.14592
0.14592
0.14592
0.14592
0.14592
0.14592
0.14563
0.14563
0.14534
0.14534
0.14476
0.14476
0.14476
0.14476
0.14476
0.14476
0.14447
0.14447
0.14447
0.14447
0.14447
0.14447
0.14447
0.14447
0.14447
0.14447
0.14447
0.14447
0.14447
0.14447
0.14447
0.14447
0.14418
0.14418
0.14418
0.14418
0.14418
0.14418
0.14389
0.14389
0.14389
0.14389
0.14389
0.14389
0.14389
0.14389
0.14389
0.14389
0.14389
0.14389
0.14389
0.14389
0.14389
0.14389
0.14389
0.14389
0.14418
0.14418
0.14389
0.14389
0.14418
0.14418
0.14389
0.14389
0.1436
0.14389
0.14418
0.14418
0.14389
0.14389
0.14389
0.14389
0.14389
0.14389
0.14389
0.14418
0.14418
0.14418
0.14418
0.14447
0.14447
0.14447
0.14447
0.14476
0.14476
0.14476
0.14476
0.14476
0.14476
0.14476
0.14476
0.14505
0.14505
0.14505
0.14505
0.14505
0.14505
0.14505
0.14505
0.14505
0.14505
0.14505
0.14505
0.14505
0.14476
0.14476
0.14447
0.14389
0.14389
0.14389
0.14389
0.14389
0.14389
0.14389
0.14389
0.14418
0.14389
0.14389
0.1436
0.1436
0.1436
0.1436
0.1436
0.14331
0.14302
0.14302
0.14273
0.14244
0.14215
0.14186
0.14186
0.14157
0.14186
0.14186
0.14186
0.14186
0.14186
0.14186
0.14186
0.14215
0.14244
0.14244
0.14215
0.14186
0.14157
0.14157
0.14157
0.14129
0.14129
0.14129
0.14129
0.14129
0.14071
0.14042
0.14042
0.14042
0.14042
0.14042
0.14042
0.14013
0.14013
0.14013
0.13984
0.13984
0.13984
0.13955
0.13955
0.13955
0.13955
0.13955
0.13955
0.13955
0.13955
0.13955
0.13955
0.13955
0.13955
0.13955
0.13955
0.13955
0.13955
0.13955
0.13955
0.13955
0.13926
0.13926
0.13926
0.13926
0.13926
0.13955
0.13955
0.13955
0.13955
0.13955
0.13984
0.13984
0.13984
0.13984
0.13984
0.13926
0.13926
0.13926
0.13926
0.13926
0.13897
0.13897
0.13897
0.13897
0.13897
0.13897
0.13897
0.13897
0.13897
0.13897
0.13897
0.13868
0.13868
0.13868
0.13868
0.13868
0.13839
0.13868
0.13868
0.13868
0.13868
0.13868
0.13868
0.13868
0.13868
0.13868
0.13868
0.13868
0.13868
0.13868
0.13868
0.13868
0.13868
0.13868
0.13839
0.13839
0.13839
0.13868
0.13868
0.13868
0.13868
0.13868
0.13868
0.13868
0.13868
0.13868
0.13868
0.13868
0.13868
0.13868
0.13868
0.13868
0.13868
0.13868
0.13868
0.13868
0.13868
0.13839
0.1381
0.1381
0.1381
0.1381
0.1381
0.1381
0.1381
0.13839
0.1381
0.1381
0.1381
0.1381
0.1381
0.1381
0.1381
0.1381
0.13781
0.13781
0.13781
0.13781
0.13781
0.1381
0.1381
0.1381
0.1381
0.13781
0.13781
0.13781
0.13781
0.1381
0.1381
0.1381
0.1381
0.1381
0.13839
0.13839
0.13839
0.1381
0.1381
0.1381
0.13839
0.13839
0.13839
0.13839
0.1381
0.1381
0.1381
0.1381
0.1381
0.13781
0.13781
0.13781
0.13781
0.13781
0.13781
0.13781
0.13752
0.13752
0.13752
0.13752
0.13752
0.13752
0.13752
0.13752
0.13752
0.13752
0.13752
0.13752
0.13752
0.13752
0.13752
0.13752
0.13723
0.13723
0.13723
0.13723
0.13723
0.13723
0.13723
0.13723
0.13723
0.13723
0.13723
0.13723
0.13723
0.13694
0.13694
0.13694
0.13694
0.13694
0.13694
0.13694
0.13694
0.13694
0.13694
0.13694
0.13694
0.13694
0.13723
0.13723
0.13723
0.13723
0.13723
0.13723
0.13723
0.13752
0.13752
0.13752
0.13752
0.13752
0.13781
0.13781
0.13781
0.13781
0.13781
0.13781
0.13781
0.13781
0.13781
0.13781
0.13781
0.13694
0.13694
0.13694
0.13694
0.13694
0.13694
0.13723
0.13723
0.13723
0.13723
0.13752
0.13752
0.13723
0.13752
0.13752
0.13752
0.13752
0.13723
0.13723
0.13723
0.13723
0.13723
0.13694
0.13694
0.13723
0.13723
0.13723
0.13723
0.13723
0.13723
0.13752
0.13781
0.13781
0.13781
0.13781
0.13781
0.13781
0.13781
0.1381
0.1381
0.1381
0.1381
0.1381
0.13781
0.13781
0.1381
0.1381
0.1381
0.1381
0.13839
0.13839
0.13839
0.13839
0.13839
0.13839
0.13839
0.13839
0.13839
0.13839
0.13839
0.1381
0.1381
0.1381
0.13781
0.13781
0.13781
0.13781
0.13781
0.13781
0.13752
0.13752
0.13752
0.13752
0.13752
0.13752
0.13752
0.13752
0.13752
0.13752
0.13752
0.13752
0.13752
0.13752
0.13752
0.13752
0.13723
0.13723
0.13723
0.13723
0.13723
0.13723
0.13723
0.13723
0.13723
0.13723
0.13723
0.13723
0.13723
0.13723
0.13723
0.13723
0.13723
0.13723
0.13752
0.13752
0.13752
0.13752
0.13752
0.13752
0.13781
0.13781
0.13781
0.13781
0.13781
0.13752
0.13752
0.13723
0.13752
0.13723
0.13723
0.13694
0.13694
0.13694
0.13694
0.13694
0.13694
0.13694
0.13694
0.13636
0.13636
0.13607
0.13607
0.13607
0.13607
0.13607
0.13607
0.13607
0.13607
0.13607
0.13636
0.13636
0.13636
0.13607
0.13607
0.13607
0.13607
0.13607
0.13607
0.13607
0.13578
0.1355
0.1355
0.1355
0.1355
0.13521
0.13521
0.13492
0.13463
0.13463
0.13463
0.13463
0.13434
0.13434
0.13463
0.13463
0.13463
0.13463
0.13463
0.13463
0.13463
0.13463
0.13463
0.13463
0.13463
0.13463
0.13434
0.13434
0.13434
0.13405
0.13405
0.13405
0.13405
0.13405
0.13405
0.13405
0.13405
0.13405
0.13405
0.13347
0.13376
0.13405
0.13405
0.13405
0.13405
0.13405
0.13405
0.13405
0.13405
0.13405
0.13405
0.13405
0.13405
0.13405
0.13376
0.13376
0.13347
0.13347
0.13376
0.13376
0.13376
0.13376
0.13376
0.13376
0.13376
0.13376
0.13405
0.13405
0.13434
0.13434
0.13434
0.13434
0.13434
0.13434
0.13434
0.13434
0.13434
0.13434
0.13434
0.13434
0.13434
0.13463
0.13492
0.13492
0.13492
0.13492
0.13492
0.13521
0.13521
0.13521
0.13521
0.13521
0.13521
0.13521
0.13521
0.13521
0.13521
0.1355
0.1355
0.1355
0.1355
0.1355
0.1355
0.1355
0.1355
0.1355
0.1355
0.13521
0.13521
0.13521
0.13521
0.13521
0.13521
0.13492
0.13521
0.13521
0.13521
0.13521
0.1355
0.1355
0.1355
0.1355
0.13578
0.13578
0.13578
0.13578
0.13578
0.13578
0.13578
0.13578
0.13578
0.13578
0.13578
0.13578
0.13578
0.13578
0.13578
0.13607
0.13636
0.13636
0.13636
0.13636
0.13636
0.13636
0.13636
0.13636
0.13636
0.13636
0.13636
0.13665
0.13636
0.13665
0.13665
0.13694
0.13694
0.13694
0.13694
0.13694
0.13665
0.13665
0.13665
0.13665
0.13665
0.13665
0.13665
0.13636
0.13665
0.13665
0.13665
0.13665
0.13665
0.13665
0.13665
0.13665
0.13665
0.13636
0.13636
0.13636
0.13665
0.13694
0.13694
0.13694
0.13694
0.13694
0.13694
0.13694
0.13694
0.13694
0.13694
0.13694
0.13694
0.13723
0.13723
0.13752
0.13752
0.13752
0.13752
0.13752
0.13752
0.13752
0.13752
0.13781
0.1381
0.1381
0.1381
0.1381
0.1381
0.1381
0.1381
0.1381
0.1381
0.1381
0.1381
0.1381
0.1381
0.1381
0.1381
0.1381
0.1381
0.13781
0.13781
0.13781
0.13781
0.13781
0.13781
0.13781
0.13781
0.13781
0.13781
0.13781
0.13781
0.1381
0.1381
0.1381
0.1381
0.1381
0.13781
0.13781
0.13781
0.1381
0.1381
0.1381
0.1381
0.1381
0.1381
0.1381
0.1381
0.1381
0.1381
0.1381
0.1381
0.1381
0.1381
0.1381
0.1381
0.1381
0.13781
0.13781
0.13781
0.13781
0.1381
0.1381
0.13839
0.13868
0.13868
0.13897
0.13897
0.13897
0.13897
0.13897
0.13897
0.13897
0.13897
0.13897
0.13897
0.13897
0.13897
0.13926
0.13926
0.13926
0.13926
0.13926
0.13926
0.13926
0.13926
0.13926
0.13926
0.13926
0.13955
0.13955
0.13955
0.13955
0.13955
0.13955
0.13926
0.13926
0.13926
0.13926
0.13897
0.13897
0.13926
0.13955
0.13955
0.13955
0.13955
0.13984
0.13984
0.13984
0.13984
0.13984
0.13984
0.13984
0.13984
0.13984
0.13984
0.13984
0.13984
0.13984
0.13984
0.13984
0.14013
0.14013
0.14013
0.14013
0.14013
0.14013
0.14013
0.13984
0.13984
0.13984
0.13984
0.13984
0.13984
0.13984
0.13984
0.13984
0.13984
0.13955
0.13955
0.13955
0.13955
0.13955
0.13955
0.13955
0.13955
0.13955
0.13926
0.13926
0.13926
0.13926
0.13926
0.13926
0.13926
0.13926
0.13926
0.13926
0.13926
0.13926
0.13926
0.13926
0.13926
0.13926
0.13926
0.13926
0.13926
0.13926
0.13926
0.13926
0.13926
0.13926
0.13926
0.13926
0.13926
0.13926
0.13926
0.13926
0.13926
0.13926
0.13926
0.13926
0.13926
0.13926
0.13926
0.13926
0.13926
0.13926
0.13926
0.13926
0.13897
0.13897
0.13897
0.13897
0.13897
0.13897
0.13926
0.13926
0.13926
0.13926
0.13926
0.13897
0.13897
0.13897
0.13897
0.13897
0.13897
0.13897
0.13897
0.13897
0.13897
0.13897
0.13868
0.13868
0.13868
0.13868
0.13868
0.13868
0.13868
0.13868
0.13868
0.13868
0.13868
0.13868
0.13868
0.13897
0.13897
0.13897
0.13897
0.13897
0.13897
0.13897
0.13897
0.13897
0.13897
0.13897
0.13897
0.13897
0.13897
0.13897
0.13897
0.13897
0.13897
0.13897
0.13926
0.13926
0.13926
0.13926
0.13926
0.13926
0.13926
0.13926
0.13926
0.13955
0.13955
0.13955
0.13955
0.13984
0.13984
0.13984
0.13984
0.14013
0.14013
0.14013
0.14013
0.14013
0.14013
0.14013
0.14013
0.14013
0.14013
0.14013
0.14013
0.14013
0.14013
0.14013
0.14013
0.14013
0.14013
0.14013
0.14042
0.14042
0.14042
0.14042
0.14042
0.14042
0.14042
0.14042
0.14042
0.14042
0.14042
0.14042
0.14042
0.14042
0.14042
0.14042
0.14042
0.14042
0.14042
0.14042
0.14042
0.14042
0.14042
0.14042
0.14042
0.14042
0.14042
0.14013
0.14013
0.14013
0.14013
0.14013
0.14013
0.14013
0.14013
0.14013
0.14013
0.14013
0.14013
0.14013
0.14013
0.14013
0.14013
0.14013
0.14013
0.14042
0.14042
0.14042
0.14042
0.14042
0.14042
0.14042
0.14071
0.14071
0.14071
0.14071
0.14071
0.14071
0.141
0.141
0.14129
0.14129
0.14129
0.14129
0.14129
0.14129
0.14129
0.14129
0.14129
0.14157
0.14186
0.14186
0.14186
0.14186
0.14186
0.14186
0.14186
0.14186
0.14215
0.14215
0.14215
0.14244
0.14244
0.14244
0.14244
0.14244
0.14244
0.14273
0.14273
0.14273
0.14273
0.14273
0.14273
0.14273
0.14273
0.14273
0.14273
0.14302
0.14302
0.14302
0.14302
0.14302
0.14302
0.14302
0.14302
0.14331
0.14331
0.1436
0.1436
0.1436
0.14389
0.14389
0.14389
0.14389
0.14389
0.14418
0.14389
0.14389
0.14389
0.14389
0.14389
0.14389
0.14389
0.14389
0.14389
0.14389
0.14389
0.14389
0.14389
0.14389
0.14389
0.14389
0.14389
0.14389
0.1436
0.1436
0.1436
0.1436
0.1436
0.1436
0.1436
0.1436
0.14389
0.14389
0.14389
0.14389
0.14389
0.14389
0.14389
0.14389
0.14389
0.14389
0.14389
0.14389
0.14389
0.14389
0.14389
0.14389
0.14389
0.14389
0.14389
0.14389
0.14389
0.14389
0.14389
0.14389
0.14389
0.14389
0.14418
0.14418
0.14418
0.14418
0.14418
0.14418
0.14418
0.14418
0.14418
0.14447
0.14447
0.14447
0.14447
0.14447
0.14447
0.14447
0.14447
0.14447
0.14447
0.14447
0.14447
0.14447
0.14447
0.14447
0.14447
0.14447
0.14447
0.14476
0.14476
0.14476
0.14476
0.14476
0.14505
0.14505
0.14534
0.14534
0.14563
0.14563
0.14563
0.14563
0.14563
0.14563
0.14563
0.14563
0.14563
0.14563
0.14563
0.14563
0.14563
0.14563
0.14563
0.14592
0.14592
0.14621
0.14621
0.14621
0.14621
0.14621
0.14621
0.14621
0.14621
0.14621
0.14621
0.14621
0.14621
0.14621
0.14621
0.14621
0.14621
0.14621
0.14621
0.14621
0.14621
0.14621
0.14621
0.14621
0.14621
0.14621
0.14621
0.14621
0.14621
0.14621
0.14621
0.14621
0.14621
0.14592
0.14592
0.14592
0.14592
0.14592
0.14592
0.14592
0.14592
0.14592
0.14563
0.14563
0.14563
0.14592
0.14592
0.14592
0.14592
0.14592
0.14592
0.14592
0.14592
0.14592
0.14592
0.14563
0.14563
0.14563
0.14563
0.14563
0.14563
0.14563
0.14563
0.14563
0.14563
0.14563
0.14563
0.14534
0.14534
0.14534
0.14534
0.14534
0.14534
0.14534
0.14534
0.14534
0.14534
0.14534
0.14534
0.14534
0.14534
0.14534
0.14534
0.14505
0.14505
0.14505
0.14505
0.14505
0.14505
0.14505
0.14505
0.14476
0.14476
0.14476
0.14476
0.14476
0.14476
0.14476
0.14476
0.14476
0.14476
0.14476
0.14505
0.14505
0.14505
0.14505
0.14505
0.14505
0.14505
0.14534
0.14534
0.14534
0.14534
0.14534
0.14534
0.14534
0.14534
0.14563
0.14592
0.14592
0.14592
0.14592
0.14621
0.14621
0.14621
0.14621
0.14621
0.14621
0.14621
0.14621
0.1465
0.1465
0.1465
0.1465
0.1465
0.1465
0.1465
0.1465
0.1465
0.1465
0.14679
0.14708
0.14708
0.14708
0.14708
0.14708
0.14708
0.14708
0.14708
0.14708
0.14708
0.14708
0.14737
0.14737
0.14737
0.14737
0.14737
0.14737
0.14737
0.14737
0.14737
0.14737
0.14737
0.14737
0.14737
0.14765
0.14765
0.14765
0.14765
0.14765
0.14794
0.14794
0.14823
0.14794
0.14794
0.14794
0.14794
0.14794
0.14794
0.14794
0.14794
0.14794
0.14794
0.14794
0.14794
0.14794
0.14794
0.14823
0.14823
0.14823
0.14823
0.14823
0.14823
0.14823
0.14823
0.14823
0.14794
0.14794
0.14794
0.14794
0.14794
0.14794
0.14794
0.14794
0.14794
0.14794
0.14794
0.14794
0.14794
0.14794
0.14794
0.14794
0.14794
0.14794
0.14794
0.14794
0.14794
0.14794
0.14794
0.14794
0.14794
0.14794
0.14794
0.14794
0.14794
0.14794
0.14794
0.14794
0.14794
0.14794
0.14794
0.14794
0.14823
0.14823
0.14823
0.14823
0.14823
0.14823
0.14823
0.14823
0.14823
0.14823
0.14823
0.14823
0.14823
0.14823
0.14823
0.14881
0.14881
0.14881
0.14881
0.14881
0.14881
0.14881
0.14881
0.14881
0.14939
0.14968
0.14968
0.14968
0.14968
0.14968
0.14939
0.14939
0.14939
0.14939
0.14939
0.14939
0.14939
0.14939
0.14939
0.14939
0.14939
0.14939
0.14939
0.14939
0.14939
0.14939
0.14939
0.14968
0.14997
0.14997
0.14997
0.14997
0.15026
0.15055
0.15055
0.15055
0.15055
0.15055
0.15055
0.15055
0.15055
0.15055
0.15055
0.15055
0.15055
0.15084
0.15113
0.15113
0.15084
0.15084
0.15113
0.15113
0.15113
0.15113
0.15113
0.15113
0.15142
0.15142
0.15142
0.15142
0.15171
0.15171
0.15171
0.15171
0.15171
0.15171
0.15171
0.15171
0.15171
0.15171
0.15171
0.15171
0.15171
0.15171
0.15171
0.15171
0.15171
0.15171
0.15171
0.15171
0.152
0.15229
0.15229
0.15229
0.15229
0.15229
0.15229
0.15229
0.15229
0.15229
0.15229
0.15229
0.152
0.152
0.152
0.152
0.152
0.152
0.152
0.152
0.152
0.152
0.152
0.152
0.152
0.152
0.152
0.152
0.152
0.152
0.152
0.152
0.152
0.152
0.152
0.152
0.152
0.15171
0.15171
0.15171
0.15171
0.15171
0.15171
0.15171
0.15171
0.15171
0.15142
0.15142
0.15142
0.15142
0.15142
0.15142
0.15142
0.15142
0.15142
0.15142
0.15142
0.15142
0.15142
0.15113
0.15113
0.15113
0.15113
0.15113
0.15055
0.15026
0.14968
0.14968
0.14968
0.14968
0.14939
0.14939
0.14939
0.14939
0.14939
0.14939
0.14939
0.14939
0.14939
0.14939
0.14939
0.14939
0.14939
0.1491
0.1491
0.1491
0.1491
0.14881
0.14881
0.14881
0.14881
0.14881
0.14881
0.14852
0.14823
0.14823
0.14823
0.14823
0.14794
0.14794
0.14794
0.14794
0.14794
0.14794
0.14794
0.14765
0.14765
0.14765
0.14765
0.14765
0.14765
0.14765
0.14765
0.14765
0.14765
0.14765
0.14765
0.14765
0.14765
0.14794
0.14794
0.14794
0.14794
0.14794
0.14794
0.14794
0.14794
0.14794
0.14794
0.14794
0.14794
0.14794
0.14794
0.14794
0.14794
0.14794
0.14794
0.14794
0.14794
0.14794
0.14823
0.14823
0.14823
0.14852
0.14852
0.14852
0.14852
0.14852
0.14852
0.14852
0.14852
0.14852
0.14852
0.14852
0.14852
0.14852
0.14852
0.14852
0.14852
0.14852
0.14852
0.14852
0.14852
0.14852
0.14852
0.14852
0.14823
0.14823
0.14823
0.14823
0.14823
0.14823
0.14823
0.14823
0.14823
0.14823
0.14823
0.14823
0.14823
0.14823
0.14823
0.14823
0.14823
0.14823
0.14823
0.14823
0.14823
0.14823
0.14823
0.14823
0.14823
0.14823
0.14823
0.14823
0.14823
0.14823
0.14823
0.14823
0.14823
0.14823
0.14823
0.14823
0.14823
0.14823
0.14823
0.14823
0.14823
0.14823
0.14823
0.14823
0.14823
0.14823
0.14823
0.14823
0.14823
0.14823
0.14823
0.14823
0.14823
0.14823
0.14823
0.14794
0.14794
0.14765
0.14794
0.14794
0.14794
0.14794
0.14794
0.14794
0.14794
0.14794
0.14794
0.14794
0.14794
0.14794
0.14765
0.14765
0.14737
0.14737
0.14737
0.14737
0.14708
0.14708
0.14708
0.14708
0.14708
0.14708
0.14708
0.14708
0.14708
0.14708
0.14708
0.14708
0.14708
0.14708
0.14708
0.14708
0.14708
0.14708
0.14708
0.14708
0.14708
0.14708
0.14708
0.14708
0.14708
0.14708
0.14708
0.14708
0.14708
0.14708
0.14708
0.14708
0.14708
0.14708
0.14708
0.14708
0.14708
0.14708
0.14708
0.14708
0.14679
0.14679
0.14679
0.14679
0.14679
0.14679
0.14679
0.14679
0.14679
0.14679
0.14679
0.14679
0.14679
0.14679
0.14679
0.14679
0.14708
0.14708
0.14708
0.14708
0.14708
0.14708
0.14708
0.14708
0.14708
0.14708
0.14708
0.14708
0.14708
0.14708
0.14708
0.14708
0.14708
0.14708
0.14708
0.14708
0.14708
0.14708
0.14708
0.14708
0.14708
0.14737
0.14737
0.14737
0.14737
0.14737
0.14737
0.14737
0.14737
0.14737
0.14737
0.14737
0.14737
0.14737
0.14737
0.14737
0.14737
0.14737
0.14765
0.14765
0.14765
0.14794
0.14794
0.14794
0.14794
0.14794
0.14823
0.14852
0.14852
0.14852
0.14852
0.14852
0.14852
0.14852
0.14852
0.14852
0.14852
0.14852
0.14852
0.14852
0.14852
0.14852
0.14852
0.14852
0.14852
0.14852
0.14852
0.14852
0.14852
0.14852
0.14852
0.14852
0.14852
0.14852
0.14852
0.14823
0.14823
0.14823
0.14823
0.14823
0.14823
0.14823
0.14823
0.14823
0.14823
0.14852
0.14852
0.14852
0.14852
0.14852
0.14852
0.14852
0.14852
0.14852
0.14852
0.14852
0.14852
0.14852
0.14852
0.14852
0.14852
0.14852
0.14852
0.14852
0.14852
0.14852
0.14852
0.14852
0.14852
0.14852
0.14852
0.14852
0.14852
0.14852
0.14852
0.14852
0.14881
0.14881
0.14881
0.14852
0.14852
0.14852
0.14852
0.14852
0.14852
0.14852
0.14852
0.14852
0.14852
0.14852
0.14852
0.14881
0.14881
0.14881
0.1491
0.1491
0.1491
0.1491
0.14939
0.14939
0.14939
0.14939
0.1491
0.1491
0.1491
0.1491
0.1491
0.1491
0.1491
0.1491
0.1491
0.1491
0.1491
0.1491
0.1491
0.1491
0.1491
0.1491
0.1491
0.1491
0.1491
0.1491
0.1491
0.1491
0.1491
0.1491
0.1491
0.1491
0.1491
0.1491
0.1491
0.1491
0.1491
0.1491
0.1491
0.1491
0.1491
0.1491
0.14881
0.14881
0.14881
0.14881
0.14881
0.14881
0.1491
0.1491
0.1491
0.14881
0.14881
0.14852
0.14852
0.14852
0.14852
0.14852
0.14852
0.14852
0.14852
0.14852
0.14852
0.14852
0.14852
0.14852
0.14852
0.14852
0.14852
0.14852
0.14852
0.14852
0.14852
0.14852
0.14852
0.14852
0.14852
0.14852
0.14852
0.14852
0.14852
0.14852
0.14852
0.14852
0.14852
0.14852
0.14852
0.14852
0.14852
0.14852
0.14823
0.14823
0.14823
0.14823
0.14823
0.14823
0.14823
0.14823
0.14881
0.14881
0.14881
0.14881
0.14881
0.14852
0.14852
0.14852
0.14852
0.14852
0.14852
0.14852
0.14852
0.14852
0.14852
0.14852
0.14852
0.14852
0.14852
0.14852
0.14823
0.14823
0.14823
0.14823
0.14823
0.14823
0.14823
0.14823
0.14794
0.14794
0.14794
0.14765
0.14765
0.14765
0.14765
0.14765
0.14765
0.14765
0.14765
0.14765
0.14737
0.14737
0.14737
0.14708
0.14708
0.14679
0.1465
0.1465
0.1465
0.1465
0.1465
0.1465
0.1465
0.1465
0.1465
0.1465
0.1465
0.1465
0.1465
0.1465
0.1465
0.1465
0.1465
0.1465
0.1465
0.1465
0.1465
0.1465
0.1465
0.1465
0.1465
0.1465
0.1465
0.1465
0.1465
0.1465
0.1465
0.1465
0.1465
0.1465
0.1465
0.1465
0.1465
0.1465
0.1465
0.14621
0.14621
0.14621
0.14621
0.14621
0.14621
0.14621
0.14621
0.14621
0.14621
0.14621
0.14621
0.14621
0.14621
0.14621
0.14621
0.14621
0.14621
0.14621
0.14621
0.14621
0.14621
0.14621
0.14621
0.14621
0.14621
0.14621
0.14621
0.14621
0.14621
0.14621
0.14621
0.14621
0.14621
0.14621
0.14621
0.14621
0.14621
0.14621
0.14621
0.14621
0.14621
0.14621
0.14621
0.14621
0.14621
0.14621
0.14621
0.14621
0.14621
0.14621
0.1465
0.1465
0.1465
0.1465
0.1465
0.1465
0.1465
0.1465
0.14621
0.14621
0.14621
0.14621
0.14621
0.14621
0.14621
0.14621
0.14621
0.14621
0.14621
0.14621
0.14621
0.14621
0.14621
0.14621
0.14621
0.14621
0.14621
0.14621
0.14621
0.14621
0.14621
0.14621
0.14621
0.14621
0.14621
0.14621
0.14621
0.14621
0.14621
0.14621
0.14621
0.14592
0.14592
0.14592
0.14621
0.14621
0.14621
0.14621
0.14621
0.14621
0.14621
0.14621
0.14621
0.14621
0.14621
0.14621
0.14621
0.14621
0.14621
0.14621
0.14621
0.14621
0.14621
0.14621
0.14621
0.14621
0.14621
0.14621
0.14621
0.14621
0.14621
0.14621
0.14621
0.14621
0.14621
0.14621
0.14621
0.14621
0.14621
0.14621
0.14621
0.14621
0.14621
0.14621
0.14621
0.14621
0.14621
0.14621
0.14621
0.14621
0.14621
0.14621
0.14621
0.14621
0.14621
0.14621
0.14621
0.14621
0.14621
0.14621
0.14621
0.14621
0.14621
0.14621
0.14621
0.14592
0.14592
0.14592
0.14592
0.14592
0.14592
0.14592
0.14592
0.14592
0.14592
0.14592
0.14592
0.14592
0.14592
0.14592
0.14592
0.14563
0.14563
0.14563
0.14563
0.14563
0.14563
0.14534
0.14534
0.14505
0.14505
0.14505
0.14505
0.14505
0.14505
0.14505
0.14505
0.14505
0.14505
0.14505
0.14505
0.14505
0.14505
0.14505
0.14505
0.14505
0.14505
0.14505
0.14505
0.14505
0.14505
0.14505
0.14505
0.14476
0.14476
0.14476
0.14476
0.14476
0.14476
0.14476
0.14476
0.14476
0.14476
0.14476
0.14476
0.14476
0.14476
0.14476
0.14476
0.14476
0.14476
0.14476
0.14476
0.14476
0.14476
0.14476
0.14476
0.14476
0.14476
0.14476
0.14505
0.14505
0.14505
0.14505
0.14505
0.14505
0.14505
0.14505
0.14505
0.14505
0.14505
0.14505
0.14505
0.14505
0.14505
0.14505
0.14505
0.14505
0.14505
0.14505
0.14505
0.14505
0.14505
0.14505
0.14505
0.14505
0.14505
0.14505
0.14505
0.14476
0.14476
0.14476
0.14476
0.14447
0.14447
0.14476
0.14476
0.14476
0.14476
0.14476
0.14476
0.14476
0.14476
0.14476
0.14476
0.14476
0.14476
0.14476
0.14476
0.14476
0.14476
0.14476
0.14476
0.14476
0.14476
0.14476
0.14476
0.14476
0.14505
0.14505
0.14505
0.14505
0.14476
0.14476
0.14476
0.14476
0.14476
0.14476
0.14476
0.14476
0.14476
0.14476
0.14476
0.14476
0.14476
0.14476
0.14476
0.14476
0.14476
0.14476
0.14476
0.14476
0.14476
0.14476
0.14476
0.14476
0.14505
0.14505
0.14505
0.14505
0.14505
0.14505
0.14505
0.14505
0.14476
0.14476
0.14476
0.14476
0.14476
0.14476
0.14476
0.14476
0.14476
0.14476
0.14476
0.14476
0.14476
0.14476
0.14476
0.14476
0.14476
0.14476
0.14476
0.14505
0.14505
0.14505
0.14505
0.14505
0.14505
0.14505
0.14505
0.14476
0.14476
0.14476
0.14476
0.14476
0.14476
0.14476
0.14476
0.14476
0.14476
0.14476
0.14476
0.14476
0.14476
0.14476
0.14476
0.14476
0.14476
0.14476
0.14476
0.14476
0.14476
0.14476
0.14476
0.14476
0.14476
0.14476
0.14476
0.14476
0.14476
0.14476
0.14476
0.14476
0.14505
0.14505
0.14505
0.14505
0.14505
0.14505
0.14505
0.14505
0.14534
0.14534
0.14534
0.14534
0.14534
0.14534
0.14534
0.14534
0.14534
0.14534
0.14534
0.14534
0.14534
0.14534
0.14534
0.14534
0.14534
0.14534
0.14534
0.14534
0.14534
0.14534
0.14534
0.14534
0.14534
0.14534
0.14534
0.14534
0.14534
0.14534
0.14534
0.14534
0.14534
0.14534
0.14534
0.14534
0.14534
0.14534
0.14534
0.14534
0.14534
0.14534
0.14534
0.14534
0.14534
0.14534
0.14534
0.14534
0.14534
0.14534
0.14534
0.14534
0.14534
0.14563
0.14563
0.14534
0.14534
0.14534
0.14505
0.14505
0.14505
0.14476
0.14476
0.14476
0.14476
0.14447
0.14447
0.14447
0.14447
0.14447
0.14447
0.14447
0.14447
0.14447
0.14447
0.14447
0.14447
0.14447
0.14447
0.14447
0.14447
0.14447
0.14447
0.14447
0.14418
0.14418
0.14418
0.14418
0.14418
0.14418
0.14418
0.14447
0.14447
0.14447
0.14447
0.14447
0.14447
0.14447
0.14476
0.14476
0.14447
0.14447
0.14447
0.14447
0.14447
0.14447
0.14447
0.14447
0.14447
0.14447
0.14447
0.14447
0.14447
0.14447
0.14447
0.14447
0.14447
0.14447
0.14447
0.14447
0.14447
0.14447
0.14447
0.14447
0.14447
0.14447
0.14447
0.14447
0.14447
0.14447
0.14447
0.14447
0.14447
0.14447
0.14447
0.14447
0.14447
0.14447
0.14447
0.14447
0.14447
0.14447
0.14447
0.14418
0.14418
0.14418
0.14418
0.14418
0.14418
0.14418
0.14418
0.14418
0.14418
0.14418
0.1436
0.1436
0.14331
0.14331
0.14331
0.14331
0.14331
0.14331
0.14331
0.14331
0.14302
0.14302
0.14331
0.14331
0.14331
0.1436
0.14389
0.14389
0.14389
0.14389
0.14389
0.14389
0.14389
0.14389
0.14389
0.14389
0.14389
0.14389
0.14389
0.14389
0.14389
0.14389
0.14389
0.14389
0.14389
0.14389
0.14389
0.14389
0.14389
0.1436
0.1436
0.1436
0.1436
0.1436
0.14331
0.14331
0.14302
0.14302
0.14273
0.14273
0.14273
0.14273
0.14273
0.14273
0.14215
0.14215
0.14186
0.14186
0.14186
0.14186
0.14186
0.14186
0.14186
0.14186
0.14186
0.14186
0.14186
0.14186
0.14186
0.14186
0.14157
0.14157
0.14157
0.14157
0.14157
0.14186
0.14186
0.14186
0.14186
0.14186
0.14186
0.14157
0.14157
0.14157
0.14157
0.14157
0.14129
0.14129
0.14129
0.14129
0.14129
0.14129
0.14129
0.14129
0.14129
0.14129
0.14129
0.14129
0.14129
0.14129
0.14129
0.14129
0.14129
0.14129
0.14129
0.14129
0.14129
0.14129
0.14129
0.141
0.141
0.141
0.141
0.141
0.141
0.141
0.141
0.141
0.141
0.141
0.141
0.141
0.141
0.141
0.141
0.141
0.141
0.141
0.141
0.141
0.141
0.141
0.141
0.141
0.141
0.141
0.141
0.141
0.141
0.141
0.141
0.141
0.141
0.141
0.141
0.141
0.141
0.141
0.141
0.141
0.141
0.141
0.141
0.141
0.141
0.141
0.141
0.141
0.141
0.141
0.141
0.141
0.141
0.141
0.141
0.141
0.141
0.141
0.141
0.141
0.141
0.141
0.141
0.141
0.141
0.141
0.14071
0.14071
0.14071
0.14071
0.14071
0.14071
0.14071
0.14071
0.14071
0.14071
0.14071
0.14071
0.14071
0.14071
0.14071
0.14071
0.14071
0.14071
0.14071
0.14071
0.14071
0.14071
0.14071
0.14071
0.14071
0.14071
0.14071
0.14071
0.14071
0.14071
0.14071
0.14071
0.14071
0.14071
0.14071
0.14071
0.14071
0.14071
0.14071
0.14071
0.14071
0.14071
0.14071
0.14071
0.14071
0.14071
0.14071
0.14071
0.14071
0.14071
0.141
0.141
0.141
0.141
0.141
0.141
0.141
0.141
0.141
0.141
0.141
0.141
0.141
0.141
0.141
0.141
0.141
0.14129
0.14129
0.14129
0.14129
0.14129
0.14129
0.14129
0.14129
0.14129
0.14129
0.14129
0.14129
0.14129
0.14129
0.14129
0.14129
0.14129
0.14129
0.14129
0.14129
0.14129
0.14129
0.14129
0.14129
0.14129
0.14129
0.14129
0.14129
0.14129
0.14157
0.14157
0.14157
0.14157
0.14157
0.14157
0.14157
0.14157
0.14157
0.14157
0.14157
0.14157
0.14157
0.14157
0.14157
0.14157
0.14157
0.14157
0.14157
0.14157
0.14157
0.14157
0.14157
0.14157
0.14157
0.14157
0.14157
0.14157
0.14157
0.14157
0.14157
0.14157
0.14157
0.14157
0.14157
0.14157
0.14157
0.14157
0.14157
0.14157
0.14157
0.14157
0.14157
0.14157
0.14157
0.14157
0.14157
0.14157
0.14157
0.14129
0.14129
0.14129
0.14129
0.14129
0.14129
0.14129
0.14129
0.14129
0.14129
0.14129
0.14129
0.14129
0.14129
0.14129
0.14129
0.14129
0.14129
0.14129
0.14129
0.14129
0.14129
0.14129
0.14129
0.14129
0.14129
0.14129
0.14129
0.14129
0.14129
0.14129
0.14129
0.14129
0.14129
0.14129
0.14129
0.14129
0.14129
0.14129
0.14129
0.14129
0.14129
0.14129
0.14129
0.14129
0.14129
0.14129
0.14129
0.14129
0.14157
0.14157
0.14157
0.14157
0.14157
0.14157
0.14157
0.14157
0.14157
0.14157
0.14157
0.14157
0.14157
0.14157
0.14157
0.14157
0.14157
0.14157
0.14157
0.14129
0.14129
0.14129
0.14129
0.14129
0.14129
0.14129
0.14129
0.14129
0.14129
0.14129
0.14157
0.14157
0.14157
0.14157
0.14157
0.14157
0.14129
0.14129
0.14129
0.14129
0.14129
0.14129
0.14129
0.14129
0.14129
0.14129
0.14129
0.14129
0.14129
0.14129
0.14129
0.14129
0.14129
0.14129
0.14129
0.14129
0.14129
0.14129
0.14129
0.14129
0.14129
0.14129
0.14129
0.14129
0.14129
0.14129
0.14129
0.14129
0.14129
0.14129
0.14129
0.14129
0.14129
0.14129
0.14129
0.14129
0.14129
0.14129
0.14129
0.14129
0.14129
0.14157
0.14157
0.14157
0.14157
0.14157
0.14157
0.14157
0.14157
0.14157
0.14157
0.14157
0.14157
0.14157
0.14157
0.14157
0.14157
0.14157
0.14157
0.14157
0.14157
0.14157
0.14157
0.14157
0.14157
0.14157
0.14157
0.14157
0.14157
0.14157
0.14157
0.14157
0.14157
0.14157
0.14157
0.14157
0.14157
0.14157
0.14157
0.14157
0.14157
0.14157
0.14157
0.14157
0.14157
0.14157
0.14157
0.14157
0.14157
0.14157
0.14157
0.14157
0.14157
0.14157
0.14157
0.14157
0.14157
0.14157
0.14157
0.14157
0.14157
0.14186
0.14186
0.14186
0.14215
0.14215
0.14215
0.14215
0.14215
0.14215
0.14215
0.14215
0.14215
0.14215
0.14215
0.14215
0.14215
0.14215
0.14215
0.14215
0.14215
0.14244
0.14244
0.14244
0.14244
0.14244
0.14244
0.14244
0.14244
0.14244
0.14244
0.14244
0.14273
0.14273
0.14273
0.14273
0.14273
0.14273
0.14273
0.14273
0.14273
0.14273
0.14273
0.14273
0.14273
0.14273
0.14273
0.14273
0.14273
0.14273
0.14273
0.14273
0.14273
0.14273
0.14302
0.14302
0.14302
0.14302
0.14331
0.14331
0.14331
0.14331
0.1436
0.1436
0.1436
0.1436
0.1436
0.1436
0.1436
0.1436
0.1436
0.1436
0.14389
0.14389
0.14389
0.14389
0.1436
0.1436
0.1436
0.1436
0.1436
0.1436
0.1436
0.14389
0.14389
0.14389
0.14389
0.14389
0.14389
0.14389
0.14389
0.14389
0.14389
0.14389
0.14389
0.14389
0.14389
0.14389
0.14389
0.14389
0.14389
0.14389
0.14389
0.14389
0.1436
0.1436
0.1436
0.1436
0.1436
0.1436
0.1436
0.1436
0.1436
0.1436
0.1436
0.1436
0.1436
0.1436
0.1436
0.1436
0.1436
0.1436
0.1436
0.1436
0.1436
0.1436
0.1436
0.1436
0.1436
0.1436
0.1436
0.1436
0.1436
0.1436
0.1436
0.1436
0.1436
0.1436
0.1436
0.1436
0.1436
0.1436
0.1436
0.1436
0.1436
0.1436
0.1436
0.1436
0.1436
0.1436
0.1436
0.1436
0.1436
0.1436
0.1436
0.1436
0.1436
0.1436
0.1436
0.1436
0.1436
0.1436
0.1436
0.1436
0.1436
0.1436
0.1436
0.1436
0.1436
0.1436
0.1436
0.1436
0.1436
0.1436
0.1436
0.1436
0.14389
0.14389
0.14389
0.14389
0.14389
0.14389
0.14389
0.14389
0.14389
0.14389
0.14389
0.14389
0.14389
0.14389
0.14389
0.14389
0.14389
0.14389
0.14389
0.14389
0.14389
0.14389
0.14389
0.14389
0.14389
0.14389
0.14389
0.14389
0.14389
0.14389
0.14389
0.14389
0.14389
0.14389
0.14389
0.14389
0.14389
0.14389
0.14389
0.14389
0.14389
0.14389
0.14389
0.14389
0.14389
0.14389
0.14389
0.14389
0.1436
0.1436
0.1436
0.1436
0.1436
0.1436
0.1436
0.1436
0.1436
0.1436
0.1436
0.1436
0.1436
0.1436
0.1436
0.1436
0.1436
0.1436
0.1436
0.1436
0.1436
0.1436
0.1436
0.1436
0.1436
0.1436
0.1436
0.1436
0.1436
0.1436
0.1436
0.14331
0.14331
0.14331
0.14331
0.14331
0.14331
0.14331
0.14331
0.14302
0.14302
0.14302
0.14302
0.14302
0.14302
0.14302
0.14302
0.14302
0.14302
0.14302
0.14273
0.14273
0.14273
0.14273
0.14273
0.14273
0.14273
0.14273
0.14273
0.14273
0.14273
0.14273
0.14273
0.14273
0.14273
0.14273
0.14273
0.14273
0.14273
0.14273
0.14273
0.14273
0.14273
0.14273
0.14273
0.14273
0.14273
0.14273
0.14273
0.14273
0.14273
0.14273
0.14273
0.14273
0.14273
0.14273
0.14273
0.14273
0.14273
0.14273
0.14273
0.14273
0.14273
0.14273
0.14273
0.14273
0.14273
0.14273
0.14273
0.14273
0.14273
0.14273
0.14273
0.14273
0.14273
0.14273
0.14273
0.14273
0.14273
0.14273
0.14273
0.14273
0.14273
0.14273
0.14273
0.14273
0.14273
0.14273
0.14273
0.14273
0.14273
0.14273
0.14273
0.14273
0.14244
0.14215
0.14215
0.14215
0.14215
0.14215
0.14215
0.14215
0.14215
0.14215
0.14215
0.14215
0.14215
0.14215
0.14215
0.14215
0.14215
0.14215
0.14215
0.14215
0.14215
0.14215
0.14215
0.14215
0.14215
0.14215
0.14215
0.14215
0.14215
0.14215
0.14215
0.14244
0.14244
0.14244
0.14273
0.14273
0.14302
0.14302
0.14302
0.14302
0.14302
0.14302
0.14302
0.14302
0.14302
0.14302
0.14302
0.14302
0.14302
0.14302
0.14302
0.14302
0.14302
0.14302
0.14302
0.14302
0.14302
0.14302
0.14302
0.14302
0.14302
0.14302
0.14302
0.14302
0.14273
0.14273
0.14273
0.14273
0.14273
0.14273
0.14273
0.14273
0.14273
0.14273
0.14273
0.14273
0.14273
0.14273
0.14273
0.14273
0.14273
0.14273
0.14273
0.14273
0.14273
0.14273
0.14273
0.14273
0.14273
0.14273
0.14273
0.14273
0.14273
0.14273
0.14273
0.14273
0.14273
0.14273
0.14273
0.14273
0.14273
0.14273
0.14244
0.14244
0.14244
0.14244
0.14244
0.14244
0.14244
0.14244
0.14244
0.14244
0.14244
0.14244
0.14244
0.14273
0.14273
0.14273
0.14273
0.14273
0.14273
0.14273
0.14273
0.14273
0.14273
0.14273
0.14273
0.14273
0.14273
0.14273
0.14273
0.14273
0.14273
0.14273
0.14273
0.14273
0.14273
0.14273
0.14273
0.14244
0.14244
0.14244
0.14244
0.14244
0.14244
0.14244
0.14244
0.14244
0.14244
0.14244
0.14244
0.14244
0.14244
0.14244
0.14244
0.14244
0.14244
0.14244
0.14244
0.14244
0.14244
0.14244
0.14244
0.14244
0.14244
0.14244
0.14244
0.14244
0.14244
0.14244
0.14244
0.14244
0.14244
0.14244
0.14244
0.14244
0.14244
0.14244
0.14244
0.14244
0.14244
0.14244
0.14244
0.14244
0.14244
0.14244
0.14244
0.14244
0.14244
0.14244
0.14244
0.14244
0.14244
0.14244
0.14215
0.14215
0.14215
0.14215
0.14215
0.14215
0.14215
0.14215
0.14215
0.14215
0.14215
0.14215
0.14215
0.14215
0.14215
0.14215
0.14215
0.14215
0.14215
0.14215
0.14215
0.14215
0.14215
0.14215
0.14215
0.14215
0.14215
0.14215
0.14215
0.14215
0.14215
0.14215
0.14215
0.14215
0.14215
0.14215
0.14215
0.14215
0.14215
0.14215
0.14215
0.14215
0.14215
0.14215
0.14215
0.14215
0.14215
0.14215
0.14215
0.14215
0.14215
0.14215
0.14215
0.14215
0.14215
0.14215
0.14215
0.14215
0.14215
0.14215
0.14215
0.14215
0.14215
0.14215
0.14215
0.14215
0.14215
0.14215
0.14215
0.14215
0.14215
0.14215
0.14215
0.14215
0.14215
0.14215
0.14215
0.14215
0.14215
0.14215
0.14215
0.14215
0.14215
0.14215
0.14215
0.14215
0.14215
0.14215
0.14215
0.14215
0.14215
0.14215
0.14215
0.14215
0.14215
0.14215
0.14215
0.14215
0.14215
0.14215
0.14215
0.14215
0.14215
0.14215
0.14215
0.14215
0.14215
0.14215
0.14215
0.14215
0.14215
0.14215
0.14215
0.14215
0.14215
0.14215
0.14215
0.14215
0.14215
0.14215
0.14215
0.14244
0.14244
0.14244
0.14244
0.14244
0.14244
0.14244
0.14244
0.14244
0.14244
0.14273
0.14273
0.14273
0.14273
0.14273
0.14273
0.14273
0.14273
0.14273
0.14273
0.14273
0.14273
0.14273
0.14273
0.14273
0.14273
0.14273
0.14273
0.14302
0.14302
0.14302
0.14302
0.14302
0.14302
0.14302
0.14302
0.14302
0.14302
0.14273
0.14273
0.14273
0.14273
0.14273
0.14273
0.14273
0.14273
0.14273
0.14273
0.14273
0.14273
0.14273
0.14273
0.14244
0.14244
0.14244
0.14244
0.14244
0.14244
0.14244
0.14244
0.14244
0.14244
0.14244
0.14244
0.14244
0.14244
0.14244
0.14244
0.14244
0.14244
0.14244
0.14244
0.14244
0.14244
0.14244
0.14244
0.14244
0.14244
0.14244
0.14244
0.14244
0.14244
0.14244
0.14244
0.14244
0.14244
0.14244
0.14244
0.14244
0.14244
0.14244
0.14244
0.14273
0.14273
0.14273
0.14273
0.14273
0.14273
0.14273
0.14273
0.14273
0.14273
0.14273
0.14273
0.14273
0.14273
0.14273
0.14273
0.14273
0.14273
0.14273
0.14273
0.14273
0.14273
0.14273
0.14273
0.14273
0.14273
0.14273
0.14273
0.14273
0.14273
0.14273
0.14273
0.14273
0.14273
0.14273
0.14273
0.14273
0.14273
0.14273
0.14273
0.14273
0.14273
0.14273
0.14273
0.14273
0.14273
0.14302
0.14302
0.14302
0.14273
0.14273
0.14273
0.14273
0.14273
0.14273
0.14302
0.14302
0.14302
0.14302
0.14273
0.14273
0.14273
0.14273
0.14273
0.14273
0.14273
0.14273
0.14273
0.14273
0.14273
0.14273
0.14273
0.14273
0.14273
0.14273
0.14273
0.14273
0.14273
0.14273
0.14273
0.14273
0.14273
0.14273
0.14273
0.14273
0.14273
0.14273
0.14273
0.14273
0.14273
0.14273
0.14273
0.14273
0.14273
0.14273
0.14273
0.14273
0.14273
0.14273
0.14273
0.14273
0.14273
0.14273
0.14273
0.14273
0.14273
0.14273
0.14273
0.14273
0.14273
0.14273
0.14273
0.14273
0.14273
0.14273
0.14273
0.14273
0.14273
0.14273
0.14273
0.14273
0.14273
0.14273
0.14244
0.14273
0.14273
0.14273
0.14273
0.14273
0.14273
0.14273
0.14273
0.14273
0.14273
0.14273
0.14273
0.14273
0.14273
0.14273
0.14273
0.14273
0.14273
0.14273
0.14273
0.14273
0.14273
0.14273
0.14273
0.14273
0.14273
0.14273
0.14273
0.14273
0.14273
0.14273
0.14273
0.14273
0.14273
0.14273
0.14273
0.14273
0.14273
0.14273
0.14273
0.14273
0.14273
0.14273
0.14273
0.14273
0.14273
0.14244
0.14244
0.14244
0.14244
0.14244
0.14244
0.14244
0.14244
0.14244
0.14244
0.14244
0.14244
0.14244
0.14273
0.14273
0.14273
0.14273
0.14273
0.14273
0.14273
0.14273
0.14273
0.14273
0.14273
0.14273
0.14273
0.14273
0.14273
0.14273
0.14273
0.14244
0.14244
0.14244
0.14244
0.14244
0.14244
0.14244
0.14244
0.14244
0.14244
0.14215
0.14215
0.14215
0.14215
0.14215
0.14215
0.14215
0.14215
0.14215
0.14215
0.14215
0.14215
0.14215
0.14215
0.14215
0.14215
0.14215
0.14215
0.14215
0.14215
0.14215
0.14215
0.14215
0.14215
0.14215
0.14215
0.14215
0.14215
0.14215
0.14215
0.14215
0.14215
0.14215
0.14215
0.14215
0.14215
0.14215
0.14215
0.14215
0.14215
0.14215
0.14215
0.14215
0.14215
0.14215
0.14215
0.14215
0.14273
0.14273
0.14273
0.14273
0.14273
0.14273
0.14273
0.14273
0.14273
0.14273
0.14273
0.14273
0.14273
0.14273
0.14273
0.14273
0.14273
0.14273
0.14273
0.14273
0.14273
0.14273
0.14273
0.14273
0.14273
0.14273
0.14273
0.14273
0.14273
0.14273
0.14273
0.14273
0.14273
0.14273
0.14273
0.14273
0.14273
0.14273
0.14273
0.14273
0.14273
0.14273
0.14273
0.14273
0.14273
0.14273
0.14273
0.14273
0.14273
0.14273
0.14273
0.14273
0.14273
0.14273
0.14273
0.14273
0.14302
0.14302
0.14302
0.14302
0.14302
0.14302
0.14302
0.14302
0.14302
0.14302
0.14302
0.14302
0.14302
0.14302
0.14302
0.14302
0.14302
0.14302
0.14302
0.14302
0.14302
0.14302
0.14302
0.14302
0.14302
0.14302
0.14302
0.14302
0.14302
0.14302
0.14302
0.14302
0.14302
0.14302
0.14302
0.14302
0.14302
0.14302
0.14302
0.14302
0.14302
0.14302
0.14302
0.14302
0.14302
0.14302
0.14302
0.14302
0.14302
0.14302
0.14302
0.14302
0.14302
0.14302
0.14302
0.14302
0.14302
0.14302
0.14302
0.14302
0.14302
0.14302
0.14302
0.14302
0.14302
0.14302
0.14302
0.14302
0.14302
0.14302
0.14302
0.14302
0.14302
0.14302
0.14302
0.14302
0.14302
0.14302
0.14302
0.14302
0.14302
0.14302
0.14302
0.14302
0.14302
0.14302
0.14302
0.14302
0.14302
0.14302
0.14302
0.14302
0.14302
0.14302
0.14302
0.14302
0.14302
0.14302
0.14302
0.14302
0.14302
0.14302
0.14302
0.14302
0.14302
0.14302
0.14302
0.14302
0.14302
0.14302
0.14302
0.14302
0.14302
0.14302
0.14302
0.14302
0.14302
0.14302
0.14302
0.14302
0.14302
0.14302
0.14302
0.14302
0.14302
0.14302
0.14302
0.14302
0.14302
0.14302
0.14302
0.14302
0.14302
0.14302
0.14302
0.14302
0.14302
0.14302
0.14302
0.14302
0.14302
0.14302
0.14302
0.14302
0.14302
0.14302
0.14302
0.14302
0.14302
0.14302
0.14302
0.14302
0.14302
0.14302
0.14302
0.14302
0.14302
0.14302
0.14302
0.14302
0.14302
0.14302
0.14302
0.14302
0.14302
0.14302
0.14302
0.14302
0.14302
0.14302
0.14302
0.14302
0.14302
0.14302
0.14302
0.14302
0.14302
0.14302
0.14302
0.14302
0.14302
0.14302
0.14302
0.14273
0.14273
0.14273
0.14273
0.14273
0.14273
0.14273
0.14273
0.14273
0.14273
0.14273
0.14273
0.14273
0.14273
0.14273
0.14273
0.14273
0.14273
0.14273
0.14273
0.14273
0.14273
0.14273
0.14273
0.14273
0.14273
0.14273
0.14273
0.14273
0.14273
0.14273
0.14273
0.14273
0.14273
0.14273
0.14273
0.14273
0.14273
0.14273
0.14273
0.14273
0.14273
0.14273
0.14273
0.14273
0.14273
0.14273
0.14273
0.14273
0.14273
0.14273
0.14273
0.14273
0.14273
0.14273
0.14273
0.14273
0.14273
0.14244
0.14244
0.14215
0.14215
0.14215
0.14215
0.14215
0.14215
0.14215
0.14215
0.14215
0.14215
0.14215
0.14215
0.14215
0.14215
0.14215
0.14215
0.14215
0.14215
0.14215
0.14215
0.14215
0.14215
0.14215
0.14215
0.14215
0.14215
0.14215
0.14215
0.14215
0.14215
0.14215
0.14215
0.14215
0.14215
0.14215
0.14215
0.14215
0.14215
0.14215
0.14215
0.14215
0.14215
0.14215
0.14215
0.14215
0.14215
0.14215
0.14215
0.14215
0.14186
0.14186
0.14186
0.14186
0.14186
0.14186
0.14186
0.14186
0.14186
0.14186
0.14186
0.14186
0.14186
0.14186
0.14157
0.14157
0.14157
0.14157
0.14157
0.14157
0.14157
0.14157
0.14157
0.14157
0.14157
0.14157
0.14157
0.14157
0.14157
0.14157
0.14157
0.14157
0.14157
0.14157
0.14157
0.14157
0.14157
0.14157
0.14157
0.14157
0.14157
0.14157
0.141
0.141
0.141
0.141
0.14071
0.14071
0.14071
0.14071
0.14071
0.14071
0.14071
0.14071
0.14042
0.14042
0.14042
0.14042
0.14042
0.14042
0.14042
0.14042
0.14042
0.14042
0.14042
0.14042
0.14013
0.13984
0.13984
0.13984
0.13984
0.13984
0.13984
0.13955
0.13955
0.13955
0.13955
0.13955
0.13926
0.13926
0.13926
0.13926
0.13926
0.13926
0.13926
0.13926
0.13926
0.13926
0.13926
0.13926
0.13926
0.13926
0.13926
0.13926
0.13926
0.13926
0.13926
0.13926
0.13926
0.13926
0.13926
0.13926
0.13926
0.13926
0.13926
0.13926
0.13926
0.13926
0.13926
0.13926
0.13926
0.13926
0.13926
0.13926
0.13926
0.13926
0.13926
0.13926
0.13926
0.13926
0.13926
0.13897
0.13897
0.13897
0.13897
0.13897
0.13897
0.13897
0.13897
0.13897
0.13897
0.13897
0.13897
0.13897
0.13897
0.13897
0.13897
0.13897
0.13897
0.13897
0.13897
0.13897
0.13897
0.13897
0.13897
0.13897
0.13897
0.13897
0.13897
0.13868
0.13868
0.13868
0.13868
0.13868
0.13868
0.13868
0.13868
0.13868
0.13868
0.13868
0.13868
0.13868
0.13868
0.13868
0.13868
0.13868
0.13868
0.13868
0.13868
0.13868
0.13868
0.13868
0.13868
0.13868
0.13839
0.13839
0.13839
0.13839
0.13839
0.13839
0.13839
0.13839
0.13839
0.13839
0.13839
0.13839
0.13839
0.13839
0.13839
0.13839
0.13839
0.13839
0.13839
0.13839
0.13839
0.13839
0.13839
0.13839
0.13839
0.13839
0.13839
0.13839
0.13839
0.13839
0.13839
0.13839
0.13839
0.13839
0.13868
0.13868
0.13868
0.13868
0.13868
0.13868
0.13868
0.13868
0.13868
0.13868
0.13868
0.13868
0.13868
0.13868
0.13868
0.13868
0.13868
0.13868
0.13868
0.13868
0.13868
0.13868
0.13868
0.13868
0.13868
0.13868
0.13868
0.13868
0.13868
0.13868
0.13868
0.13868
0.13868
0.13868
0.13868
0.13868
0.13868
0.13868
0.13868
0.13868
0.13868
0.13868
0.13868
0.13868
0.13868
0.13868
0.13868
0.13897
0.13897
0.13897
0.13897
0.13897
0.13897
0.13897
0.13897
0.13897
0.13926
0.13926
0.13926
0.13926
0.13926
0.13926
0.13926
0.13926
0.13926
0.13926
0.13926
0.13926
0.13926
0.13926
0.13926
0.13926
0.13897
0.13897
0.13897
0.13897
0.13897
0.13897
0.13897
0.13897
0.13897
0.13897
0.13868
0.13868
0.13868
0.13868
0.13868
0.13868
0.13868
0.13868
0.13868
0.13868
0.13868
0.13868
0.13868
0.13868
0.13868
0.13868
0.13868
0.13868
0.13868
0.13868
0.13868
0.13868
0.13868
0.13868
0.13868
0.13868
0.13868
0.13868
0.13868
0.13868
0.13868
0.13839
0.13839
0.13839
0.13839
0.13839
0.13839
0.13839
0.13839
0.13839
0.13839
0.13839
0.13839
0.13839
0.13839
0.13839
0.13839
0.13839
0.13839
0.13839
0.13839
0.13839
0.13839
0.13839
0.13839
0.13839
0.13839
0.13839
0.13839
0.13839
0.13839
0.13839
0.13839
0.13839
0.13839
0.1381
0.1381
0.1381
0.1381
0.1381
0.1381
0.1381
0.1381
0.1381
0.1381
0.1381
0.1381
0.1381
0.1381
0.1381
0.1381
0.1381
0.1381
0.13781
0.13781
0.13781
0.13781
0.13781
0.13781
0.13781
0.13781
0.13781
0.13781
0.13781
0.13781
0.13781
0.13781
0.13781
0.13781
0.13781
0.13781
0.13781
0.13781
0.13781
0.13781
0.13781
0.13781
0.13781
0.13781
0.13781
0.13781
0.13781
0.13781
0.13781
0.13781
0.13781
0.13781
0.13781
0.13781
0.13781
0.13781
0.13781
0.13781
0.13781
0.13781
0.13781
0.13781
0.13781
0.13781
0.13781
0.13781
0.13781
0.13781
0.13781
0.13781
0.13781
0.13781
0.13781
0.13781
0.13781
0.13781
0.13781
0.13781
0.13781
0.13781
0.13781
0.13781
0.13781
0.13781
0.13781
0.13781
0.13781
0.13781
0.13781
0.13781
0.13781
0.13781
0.13781
0.13781
0.13781
0.13781
0.13781
0.13781
0.13781
0.13781
0.13781
0.13781
0.13781
0.13781
0.13781
0.13781
0.13781
0.13781
0.13781
0.13781
0.13781
0.13781
0.13781
0.13781
0.13781
0.13781
0.13781
0.13781
0.13781
0.13781
0.13781
0.13781
0.13781
0.13781
0.13781
0.13781
0.13781
0.13781
0.13781
0.13781
0.13781
0.13781
0.13781
0.13781
0.13781
0.13781
0.13781
0.13781
0.13781
0.13781
0.13781
0.13781
0.13781
0.13781
0.13781
0.13781
0.13781
0.13781
0.13781
0.13781
0.13781
0.13781
0.13781
0.13781
0.13781
0.13781
0.13781
0.13781
0.13781
0.13781
0.13781
0.13781
0.13781
0.13781
0.13781
0.13781
0.13781
0.13781
0.13781
0.13781
0.13781
0.13781
0.13781
0.13781
0.13781
0.13781
0.13781
0.1381
0.1381
0.1381
0.1381
0.1381
0.1381
0.1381
0.1381
0.1381
0.1381
0.1381
0.1381
0.1381
0.1381
0.1381
0.1381
0.1381
0.1381
0.1381
0.1381
0.1381
0.1381
0.1381
0.1381
0.1381
0.1381
0.1381
0.1381
0.1381
0.1381
0.1381
0.1381
0.1381
0.1381
0.1381
0.1381
0.1381
0.1381
0.1381
0.1381
0.1381
0.1381
0.1381
0.1381
0.1381
0.1381
0.1381
0.1381
0.1381
0.1381
0.1381
0.1381
0.1381
0.1381
0.1381
0.1381
0.13839
0.13839
0.13839
0.13839
0.13839
0.13839
0.13839
0.13839
0.13839
0.13839
0.13839
0.13839
0.13839
0.13839
0.13839
0.13839
0.13839
0.13839
0.13839
0.13839
0.13839
0.13839
0.13839
0.13839
0.13839
0.13839
0.13839
0.13839
0.13839
0.13839
0.13839
0.13839
0.13839
0.13839
0.13839
0.13839
0.13839
0.13839
0.13839
0.13839
0.13839
0.13839
0.13839
0.13839
0.13839
0.13839
0.13839
0.13839
0.13839
0.13839
0.13839
0.13839
0.13839
0.13839
0.13839
0.13839
0.13839
0.13839
0.13839
0.13839
0.13839
0.13839
0.13839
0.13839
0.13839
0.13839
0.13839
0.13839
0.13839
0.13839
0.13839
0.13839
0.13839
0.13839
0.13839
0.13839
0.13839
0.13839
0.13839
0.13839
0.13839
0.13839
0.13839
0.13839
0.13839
0.13839
0.13839
0.1381
0.1381
0.1381
0.1381
0.1381
0.1381
0.1381
0.1381
0.1381
0.1381
0.1381
0.1381
0.1381
0.1381
0.1381
0.1381
0.1381
0.1381
0.1381
0.1381
0.1381
0.1381
0.1381
0.1381
0.1381
0.1381
0.1381
0.1381
0.1381
0.1381
0.1381
0.1381
0.1381
0.1381
0.1381
0.1381
0.1381
0.1381
0.1381
0.1381
0.1381
0.1381
0.1381
0.1381
0.1381
0.1381
0.1381
0.1381
0.1381
0.1381
0.1381
0.1381
0.1381
0.1381
0.1381
0.1381
0.1381
0.1381
0.1381
0.1381
0.1381
0.1381
0.1381
0.1381
0.1381
0.1381
0.1381
0.1381
0.1381
0.1381
0.1381
0.1381
0.1381
0.1381
0.1381
0.1381
0.1381
0.1381
0.1381
0.1381
0.1381
0.1381
0.1381
0.1381
0.1381
0.1381
0.1381
0.1381
0.1381
0.1381
0.13781
0.13781
0.13781
0.13781
0.13781
0.13781
0.13781
0.13781
0.13781
0.13781
0.13781
0.13781
0.13781
0.13781
0.13781
0.13781
0.13781
0.13781
0.13781
0.13781
0.13781
0.13781
0.13781
0.13781
0.13781
0.13781
0.13781
0.13781
0.13781
0.13781
0.13781
0.13781
0.13781
0.13781
0.13781
0.13781
0.13781
0.13781
0.13781
0.13781
0.13781
0.13781
0.13781
0.13781
0.13781
0.13781
0.13781
0.13781
0.13781
0.13781
0.13781
0.13781
0.13781
0.13781
0.13781
0.13781
0.13781
0.13781
0.13781
0.13781
0.13781
0.13781
0.13781
0.13781
0.13781
0.13781
0.13781
0.13781
0.13781
0.13781
0.13781
0.13781
0.13781
0.13781
0.13781
0.13781
0.13781
0.13781
0.13781
0.13781
0.13781
0.13781
0.13781
0.13781
0.13781
0.13781
0.13781
0.13781
0.13781
0.13781
0.13781
0.13781
0.13781
0.13781
0.13781
0.13781
0.13781
0.13781
0.13781
0.13781
0.13781
0.13781
0.13781
0.13781
0.13781
0.13781
0.13781
0.13781
0.13781
0.13781
0.13781
0.13781
0.13781
0.1381
0.1381
0.1381
0.1381
0.1381
0.1381
0.1381
0.1381
0.1381
0.1381
0.1381
0.1381
0.1381
0.1381
0.1381
0.1381
0.1381
0.1381
0.1381
0.1381
0.1381
0.1381
0.1381
0.13839
0.13839
0.13839
0.13839
0.13839
0.13839
0.13839
0.13868
0.13868
0.13868
0.13868
0.13868
0.13868
0.13868
0.13868
0.13868
0.13897
0.13897
0.13897
0.13897
0.13897
0.13897
0.13897
0.13897
0.13897
0.13897
0.13897
0.13897
0.13897
0.13897
0.13897
0.13897
0.13926
0.13926
0.13926
0.13926
0.13926
0.13926
0.13926
0.13926
0.13926
0.13926
0.13926
0.13926
0.13926
0.13926
0.13926
0.13926
0.13926
0.13926
0.13926
0.13926
0.13926
0.13926
0.13926
0.13926
0.13926
0.13926
0.13926
0.13926
0.13926
0.13926
0.13926
0.13926
0.13926
0.13926
0.13926
0.13926
0.13926
0.13926
0.13926
0.13926
0.13926
0.13926
0.13926
0.13926
0.13926
0.13926
0.13926
0.13926
0.13926
0.13926
0.13926
0.13926
0.13926
0.13926
0.13926
0.13926
0.13926
0.13926
0.13926
0.13926
0.13926
0.13926
0.13926
0.13926
0.13926
0.13926
0.13926
0.13926
0.13926
0.13926
0.13926
0.13926
0.13926
0.13926
0.13926
0.13926
0.13926
0.13926
0.13926
0.13926
0.13926
0.13926
0.13926
0.13926
0.13926
0.13926
0.13926
0.13955
0.13984
0.13984
0.13984
0.13984
0.13984
0.13984
0.13984
0.13984
0.13984
0.13984
0.13984
0.13984
0.13984
0.13984
0.13984
0.13984
0.13984
0.13984
0.13984
0.13984
0.13984
0.13984
0.13984
0.13984
0.13984
0.13984
0.13984
0.13984
0.13984
0.13984
0.13984
0.13984
0.13984
0.13984
0.13984
0.13984
0.13984
0.13984
0.13984
0.13984
0.13984
0.13984
0.13984
0.13984
0.13984
0.13984
0.13984
0.13984
0.13984
0.13984
0.13984
0.13984
0.13984
0.13984
0.13984
0.13984
0.13984
0.13984
0.13984
0.13984
0.13984
0.13984
0.13984
0.13984
0.13984
0.13984
0.13984
0.13984
0.13984
0.13984
0.13984
0.13984
0.13984
0.13984
0.13984
0.13984
0.13984
0.13984
0.13984
0.13984
0.13984
0.13984
0.13984
0.13984
0.13984
0.13984
0.13984
0.13984
0.14013
0.14013
0.14013
0.14013
0.14013
0.14013
0.14013
0.14013
0.14013
0.14013
0.14013
0.14013
0.14013
0.14013
0.14013
0.14013
0.14013
0.14013
0.14013
0.14013
0.14013
0.14013
0.14013
0.14013
0.14013
0.14013
0.14013
0.14013
0.14013
0.14013
0.14013
0.14013
0.14013
0.14013
0.14013
0.14013
0.14013
0.14013
0.14013
0.14013
0.14013
0.14013
0.14013
0.14013
0.14013
0.14013
0.14013
0.14013
0.14013
0.14013
0.14013
0.14013
0.14042
0.14042
0.14042
0.14042
0.14071
0.14071
0.14071
0.14071
0.14071
0.141
0.141
0.141
0.14129
0.14129
0.14129
0.14129
0.14129
0.14129
0.14129
0.14129
0.14129
0.14129
0.14129
0.14129
0.14129
0.14129
0.14129
0.14129
0.14129
0.14129
0.14129
0.14129
0.14129
0.14157
0.14157
0.14157
0.14157
0.14157
0.14157
0.14157
0.14157
0.14157
0.14157
0.14157
0.14157
0.14157
0.14157
0.14157
0.14157
0.14157
0.14157
0.14157
0.14157
0.14157
0.14157
0.14157
0.14157
0.14157
0.14157
0.14157
0.14129
0.14129
0.14129
0.14129
0.14129
0.14129
0.14129
0.14129
0.14129
0.14129
0.14129
0.14129
0.14129
0.14129
0.14129
0.14129
0.14129
0.14129
0.14129
0.14129
0.14129
0.14129
0.14129
0.14129
0.14129
0.14129
0.14129
0.14129
0.14129
0.14129
0.14129
0.14129
0.14129
0.14129
0.14129
0.14129
0.14129
0.14129
0.14129
0.14129
0.14129
0.14129
0.14129
0.14129
0.14129
0.14129
0.14129
0.14129
0.14157
0.14157
0.14157
0.14157
0.14157
0.14157
0.14157
0.14157
0.14157
0.14157
0.14157
0.14157
0.14157
0.14157
0.14157
0.14157
0.14157
0.14157
0.14157
0.14157
0.14157
0.14157
0.14157
0.14157
0.14186
0.14186
0.14186
0.14215
0.14215
0.14215
0.14215
0.14215
0.14215
0.14215
0.14215
0.14215
0.14215
0.14215
0.14215
0.14215
0.14215
0.14215
0.14215
0.14215
0.14215
0.14215
0.14215
0.14215
0.14215
0.14215
0.14215
0.14215
0.14215
0.14215
0.14215
0.14215
0.14186
0.14186
0.14186
0.14186
0.14215
0.14215
0.14215
0.14215
0.14215
0.14215
0.14215
0.14215
0.14215
0.14215
0.14215
0.14215
0.14215
0.14215
0.14215
0.14215
0.14215
0.14215
0.14215
0.14215
0.14215
0.14215
0.14215
0.14215
0.14215
0.14215
0.14215
0.14215
0.14215
0.14215
0.14215
0.14215
0.14215
0.14215
0.14215
0.14215
0.14215
0.14215
0.14215
0.14215
0.14215
0.14215
0.14215
0.14215
0.14244
0.14244
0.14244
0.14244
0.14244
0.14244
0.14244
0.14244
0.14244
0.14244
0.14244
0.14244
0.14244
0.14244
0.14244
0.14244
0.14244
0.14244
0.14244
0.14244
0.14244
0.14244
0.14244
0.14244
0.14244
0.14244
0.14244
0.14244
0.14244
0.14244
0.14273
0.14273
0.14273
0.14273
0.14273
0.14273
0.14273
0.14273
0.14273
0.14273
0.14273
0.14273
0.14273
0.14273
0.14273
0.14273
0.14273
0.14273
0.14273
0.14273
0.14273
0.14273
0.14273
0.14273
0.14273
0.14273
0.14273
0.14273
0.14273
0.14273
0.14273
0.14273
0.14273
0.14273
0.14273
0.14273
0.14273
0.14273
0.14273
0.14273
0.14273
0.14273
0.14273
0.14273
0.14273
0.14273
0.14273
0.14273
0.14273
0.14273
0.14273
0.14273
0.14273
0.14273
0.14273
0.14273
0.14273
0.14273
0.14273
0.14273
0.14273
0.14273
0.14273
0.14273
0.14273
0.14273
0.14273
0.14273
0.14273
0.14244
0.14244
0.14244
0.14244
0.14244
0.14244
0.14244
0.14244
0.14244
0.14244
0.14244
0.14244
0.14244
0.14244
0.14244
0.14244
0.14244
0.14244
0.14244
0.14244
0.14244
0.14244
0.14244
0.14244
0.14244
0.14244
0.14244
0.14244
0.14244
0.14244
0.14244
0.14244
0.14244
0.14244
0.14244
0.14244
0.14244
0.14244
0.14244
0.14244
0.14244
0.14244
0.14244
0.14215
0.14215
0.14215
0.14215
0.14215
0.14215
0.14215
0.14215
0.14186
0.14186
0.14186
0.14186
0.14186
0.14186
0.14186
0.14186
0.14186
0.14186
0.14186
0.14186
0.14186
0.14186
0.14186
0.14186
0.14186
0.14186
0.14186
0.14186
0.14186
0.14186
0.14186
0.14186
0.14186
0.14186
0.14186
0.14186
0.14186
0.14186
0.14186
0.14186
0.14186
0.14186
0.14186
0.14186
0.14186
0.14186
0.14186
0.14186
0.14186
0.14186
0.14186
0.14186
0.14186
0.14186
0.14186
0.14186
0.14186
0.14186
0.14186
0.14186
0.14186
0.14186
0.14186
0.14186
0.14186
0.14186
0.14186
0.14186
0.14157
0.14157
0.14157
0.14157
0.14157
0.14157
0.14157
0.14157
0.14157
0.14129
0.14129
0.141
0.141
0.141
0.141
0.141
0.141
0.141
0.141
0.141
0.141
0.141
0.141
0.141
0.141
0.141
0.141
0.141
0.141
0.141
0.141
0.141
0.141
0.14071
0.14071
0.14071
0.14071
0.14071
0.14071
0.14071
0.14071
0.14071
0.14071
0.14071
0.14071
0.14071
0.14071
0.14071
0.14071
0.14042
0.14042
0.14042
0.14042
0.14042
0.14042
0.14042
0.14042
0.14042
0.14042
0.14042
0.14042
0.14042
0.14042
0.14042
0.14042
0.14042
0.14042
0.14042
0.14042
0.14042
0.14042
0.14042
0.14013
0.14013
0.14013
0.14013
0.14013
0.14013
0.14013
0.14013
0.14013
0.14013
0.14013
0.14013
0.14013
0.14013
0.14013
0.14013
0.14013
0.14013
0.14013
0.14013
0.14013
0.14013
0.14013
0.14013
0.14013
0.14013
0.14013
0.14013
0.14013
0.14013
0.14013
0.14013
0.14013
0.14013
0.14013
0.14013
0.14013
0.14013
0.14013
0.14013
0.14013
0.14013
0.14013
0.14013
0.14013
0.14013
0.14013
0.14013
0.14013
0.14013
0.14013
0.14013
0.14013
0.14013
0.14013
0.14013
0.14013
0.14013
0.14013
0.14013
0.14013
0.14013
0.14013
0.14013
0.14013
0.14013
0.14013
0.14013
0.13984
0.13984
0.13984
0.13984
0.13984
0.13984
0.13984
0.13984
0.13984
0.13984
0.13984
0.13984
0.13984
0.13984
0.13984
0.13984
0.13984
0.13984
0.13984
0.13984
0.13984
0.13984
0.13984
0.13984
0.13984
0.13984
0.13984
0.13984
0.13984
0.13984
0.13984
0.13984
0.13984
0.13984
0.13984
0.13984
0.13984
0.13984
0.13984
0.13984
0.13984
0.13984
0.13984
0.13984
0.13984
0.13984
0.13984
0.13984
0.13984
0.13984
0.13984
0.13984
0.13984
0.13984
0.13984
0.13984
0.13984
0.13984
0.13984
0.13984
0.13984
0.13984
0.13984
0.13984
0.13984
0.13984
0.13984
0.13984
0.13984
0.13984
0.13984
0.13984
0.13984
0.13984
0.13984
0.13984
0.13984
0.13984
0.13955
0.13955
0.13955
0.13955
0.13955
0.13955
0.13955
0.13955
0.13955
0.13955
0.13955
0.13955
0.13955
0.13955
0.13955
0.13955
0.13955
0.13955
0.13955
0.13955
0.13955
0.13955
0.13955
0.13955
0.13955
0.13955
0.13955
0.13955
0.13955
0.13955
0.13955
0.13955
0.13955
0.13955
0.13955
0.13955
0.13955
0.13955
0.13955
0.13955
0.13955
0.13955
0.13955
0.13955
0.13955
0.13955
0.13926
0.13926
0.13926
0.13926
0.13926
0.13926
0.13926
0.13926
0.13926
0.13926
0.13926
0.13926
0.13926
0.13926
0.13926
0.13926
0.13926
0.13926
0.13926
0.13926
0.13926
0.13926
0.13926
0.13926
0.13926
0.13926
0.13926
0.13926
0.13926
0.13926
0.13926
0.13926
0.13926
0.13897
0.13897
0.13897
0.13897
0.13897
0.13897
0.13897
0.13897
0.13897
0.13897
0.13897
0.13897
0.13897
0.13897
0.13897
0.13897
0.13897
0.13897
0.13897
0.13897
0.13897
0.13897
0.13897
0.13897
0.13897
0.13897
0.13897
0.13897
0.13897
0.13897
0.13897
0.13897
0.13897
0.13897
0.13897
0.13897
0.13897
0.13897
0.13897
0.13897
0.13897
0.13897
0.13897
0.13897
0.13897
0.13897
0.13897
0.13897
0.13897
0.13897
0.13897
0.13897
0.13897
0.13897
0.13897
0.13897
0.13897
0.13897
0.13897
0.13897
0.13897
0.13897
0.13897
0.13897
0.13897
0.13897
0.13897
0.13897
0.13897
0.13897
0.13897
0.13897
0.13897
0.13897
0.13897
0.13897
0.13868
0.13868
0.13868
0.13868
0.13868
0.13868
0.13868
0.13868
0.13868
0.13868
0.13868
0.13868
0.13868
0.13868
0.13868
0.13868
0.13868
0.13868
0.13868
0.13868
0.13868
0.13868
0.13868
0.13868
0.13868
0.13868
0.13868
0.13868
0.13868
0.13868
0.13868
0.13868
0.13868
0.13868
0.13868
0.13868
0.13868
0.13868
0.13868
0.13868
0.13868
0.13868
0.13868
0.13868
0.13868
0.13868
0.13868
0.13868
0.13868
0.13868
0.13868
0.13868
0.13868
0.13868
0.13868
0.13868
0.13868
0.13868
0.13868
0.13868
0.13868
0.13868
0.13868
0.13868
0.13868
0.13868
0.13868
0.13868
0.13868
0.13868
0.13868
0.13868
0.13868
0.13868
0.13868
0.13868
0.13868
0.13868
0.13868
0.13868
0.13868
0.13868
0.13868
0.13868
0.13868
0.13868
0.13868
0.13868
0.13868
0.13868
0.13868
0.13868
0.13868
0.13868
0.13868
0.13868
0.13868
0.13868
0.13868
0.13868
0.13868
0.13868
0.13868
0.13868
0.13868
0.13868
0.13868
0.13868
0.13868
0.13868
0.13868
0.13868
0.13868
0.13868
0.13868
0.13868
0.13868
0.13868
0.13868
0.13868
0.13868
0.13868
0.13868
0.13868
0.13868
0.13868
0.13868
0.13868
0.13868
0.13868
0.13868
0.13868
0.13868
0.13868
0.13868
0.13868
0.13868
0.13868
0.13868
0.13868
0.13868
0.13868
0.13868
0.13868
0.13868
0.13868
0.13868
0.13868
0.13868
0.13868
0.13868
0.13868
0.13868
0.13868
0.13868
0.13868
0.13868
0.13868
0.13868
0.13868
0.13868
0.13868
0.13868
0.13868
0.13868
0.13868
0.13868
0.13868
0.13868
0.13868
0.13868
0.13868
0.13868
0.13868
0.13868
0.13868
0.13868
0.13868
0.13868
0.13868
0.13868
0.13868
0.13868
0.13868
0.13868
0.13868
0.13897
0.13897
0.13897
0.13897
0.13897
0.13897
0.13897
0.13897
0.13897
0.13897
0.13897
0.13897
0.13897
0.13897
0.13897
0.13897
0.13897
0.13897
0.13897
0.13897
0.13897
0.13897
0.13897
0.13897
0.13897
0.13897
0.13897
0.13897
0.13926
0.13926
0.13926
0.13926
0.13926
0.13926
0.13926
0.13926
0.13926
0.13926
0.13926
0.13926
0.13926
0.13926
0.13926
0.13926
0.13926
0.13926
0.13926
0.13955
0.13984
0.13984
0.13984
0.13955
0.13955
0.13955
0.13955
0.13955
0.13955
0.13955
0.13955
0.13955
0.13955
0.13955
0.13955
0.13955
0.13955
0.13955
0.13955
0.13955
0.13955
0.13955
0.13955
0.13955
0.13955
0.13955
0.13955
0.13955
0.13955
0.13955
0.13955
0.13955
0.13955
0.13955
0.13955
0.13955
0.13955
0.13955
0.13955
0.13955
0.13955
0.13955
0.13955
0.13955
0.13955
0.13955
0.13955
0.13955
0.13955
0.13955
0.13955
0.13955
0.13955
0.13984
0.13984
0.13984
0.13984
0.13984
0.13984
0.13984
0.13984
0.14013
0.14013
0.14013
0.14013
0.14013
0.14013
0.14013
0.14013
0.14013
0.14013
0.14013
0.14013
0.14013
0.14013
0.14013
0.14013
0.14013
0.14013
0.14013
0.14013
0.14013
0.14042
0.14042
0.14042
0.14042
0.14042
0.14042
0.14042
0.14042
0.14042
0.14042
0.14042
0.14042
0.14042
0.14042
0.14042
0.14042
0.14042
0.14042
0.14042
0.14042
0.14042
0.14042
0.14042
0.14042
0.14042
0.14042
0.14042
0.14042
0.14042
0.14042
0.14042
0.14042
0.14042
0.14042
0.14042
0.14042
0.14042
0.14042
0.14042
0.14071
0.14071
0.14071
0.14071
0.14071
0.14071
0.14071
0.14071
0.14071
0.14071
0.14071
0.14071
0.14071
0.14071
0.14071
0.14071
0.14071
0.14071
0.14071
0.14071
0.14071
0.14071
0.14071
0.14071
0.14071
0.14071
0.14071
0.14071
0.14071
0.14071
0.14071
0.14071
0.14071
0.14071
0.14071
0.14071
0.14071
0.14071
0.14071
0.14071
0.14071
0.14071
0.14071
0.14071
0.14071
0.14071
0.141
0.141
0.141
0.141
0.141
0.141
0.141
0.141
0.141
0.141
0.141
0.141
0.141
0.141
0.141
0.141
0.141
0.141
0.141
0.141
0.141
0.141
0.141
0.141
0.141
0.14129
0.14129
0.14129
0.14129
0.14157
0.14157
0.14157
0.14157
0.14157
0.14157
0.14157
0.14157
0.14157
0.14157
0.14157
0.14157
0.14157
0.14157
0.14157
0.14157
0.14157
0.14157
0.14157
0.14157
0.14157
0.14157
0.14157
0.14157
0.14157
0.14157
0.14157
0.14157
0.14157
0.14157
0.14157
0.14157
0.14157
0.14157
0.14157
0.14157
0.14157
0.14157
0.14157
0.14157
0.14157
0.14157
0.14157
0.14157
0.14157
0.14157
0.14186
0.14186
0.14186
0.14186
0.14186
0.14186
0.14186
0.14186
0.14186
0.14186
0.14186
0.14186
0.14186
0.14186
0.14186
0.14186
0.14157
0.14157
0.14157
0.14157
0.14157
0.14157
0.14157
0.14157
0.14157
0.14157
0.14157
0.14157
0.14157
0.14157
0.14157
0.14157
0.14157
0.14157
0.14157
0.14157
0.14157
0.14157
0.14157
0.14157
0.14157
0.14157
0.14157
0.14157
0.14157
0.14157
0.14157
0.14157
0.14157
0.14157
0.14157
0.14157
0.14157
0.14157
0.14157
0.14157
0.14157
0.14157
0.14157
0.14157
0.14157
0.14157
0.14157
0.14157
0.14157
0.14157
0.14157
0.14157
0.14157
0.14157
0.14157
0.14157
0.14157
0.14157
0.14157
0.14157
0.14157
0.14157
0.14157
0.14157
0.14157
0.14157
0.14157
0.14157
0.14157
0.14157
0.14157
0.14157
0.14157
0.14157
0.14157
0.14157
0.14157
0.14157
0.14157
0.14157
0.14157
0.14157
0.14157
0.14157
0.14157
0.14157
0.14157
0.14157
0.14157
0.14157
0.14157
0.14157
0.14157
0.14157
0.14157
0.14157
0.14157
0.14157
0.14157
0.14157
0.14157
0.14157
0.14157
0.14157
0.14157
0.14157
0.14157
0.14157
0.14157
0.14157
0.14157
0.14157
0.14157
0.14157
0.14157
0.14157
0.14157
0.14157
0.14157
0.14157
0.14157
0.14157
0.14157
0.14157
0.14157
0.14157
0.14157
0.14157
0.14157
0.14157
0.14157
0.14157
0.14157
0.14157
0.14157
0.14157
0.14157
0.14157
0.14157
0.14157
0.14186
0.14186
0.14186
0.14157
0.14157
0.14157
0.14157
0.14157
0.14157
0.14157
0.14157
0.14157
0.14157
0.14157
0.14157
0.14157
0.14157
0.14157
0.14157
0.14157
0.14157
0.14157
0.14157
0.14157
0.14157
0.14157
0.14157
0.14157
0.14157
0.14157
0.14157
0.14157
0.14157
0.14157
0.14157
0.14157
0.14157
0.14157
0.14157
0.14157
0.14157
0.14157
0.14157
0.14157
0.14157
0.14157
0.14157
0.14157
0.14157
0.14157
0.14157
0.14157
0.14157
0.14157
0.14157
0.14157
0.14157
0.14157
0.14157
0.14157
0.14157
0.14157
0.14157
0.14157
0.14157
0.14157
0.14157
0.14157
0.14157
0.14157
0.14157
0.14157
0.14157
0.14157
0.14157
0.14157
0.14157
0.14157
0.14157
0.14157
0.14157
0.14157
0.14157
0.14129
0.14129
0.14129
0.14129
0.14129
0.14129
0.14129
0.14129
0.14129
0.14129
0.14129
0.14129
0.14129
0.14129
0.14129
0.14129
0.14129
0.14129
0.14129
0.14129
0.14129
0.14129
0.14129
0.14129
0.14129
0.14129
0.14129
0.14129
0.14129
0.14129
0.14129
0.14129
0.141
0.141
0.141
0.141
0.141
0.141
0.141
0.141
0.141
0.141
0.141
0.141
0.14071
0.14071
0.14071
0.14071
0.14071
0.14071
0.14042
0.14042
0.14042
0.14042
0.14071
0.14071
0.14071
0.14071
0.14071
0.14042
0.14042
0.14042
0.14042
0.14042
0.14042
0.14042
0.14042
0.14042
0.14042
0.14042
0.14042
0.14042
0.14042
0.14042
0.14042
0.14071
0.14071
0.141
0.141
0.141
0.14129
0.14129
0.14129
0.14129
0.14129
0.14129
0.14129
0.14129
0.14129
0.14129
0.14129
0.14129
0.14129
0.14129
0.14129
0.14129
0.14129
0.14129
0.14129
0.14129
0.14129
0.14129
0.14129
0.14129
0.14129
0.14129
0.14129
0.14129
0.14129
0.14129
0.14129
0.14129
0.141
0.141
0.141
0.141
0.141
0.141
0.14129
0.14129
0.14129
0.14129
0.14129
0.14129
0.14129
0.14129
0.14129
0.14129
0.14129
0.14129
0.14129
0.14129
0.14129
0.14129
0.14129
0.14129
0.14129
0.14129
0.14157
0.14157
0.14157
0.14157
0.14157
0.14157
0.14157
0.14157
0.14157
0.14157
0.14157
0.14157
0.14157
0.14157
0.14157
0.14157
0.14157
0.14157
0.14157
0.14157
0.14157
0.14157
0.14157
0.14157
0.14157
0.14157
0.14157
0.14157
0.14157
0.14157
0.14157
0.14157
0.14157
0.14157
0.14157
0.14157
0.14157
0.14157
0.14157
0.14157
0.14157
0.14157
0.14157
0.14157
0.14157
0.14157
0.14157
0.14157
0.14157
0.14157
0.14157
0.14157
0.14157
0.14157
0.14157
0.14157
0.14157
0.14157
0.14157
0.14157
0.14157
0.14157
0.14157
0.14157
0.14157
0.14157
0.14157
0.14157
0.14157
0.14157
0.14157
0.14157
0.14157
0.14129
0.14129
0.14129
0.14129
0.14129
0.14129
0.14129
0.14129
0.14129
0.14129
0.14129
0.14129
0.14129
0.14129
0.14129
0.14129
0.14129
0.14129
0.14129
0.14129
0.14129
0.14129
0.14129
0.14129
0.14129
0.14129
0.14129
0.14157
0.14157
0.14157
0.14157
0.14157
0.14157
0.14157
0.14157
0.14157
0.14157
0.14157
0.14157
0.14157
0.14157
0.14157
0.14157
0.14157
0.14157
0.14157
0.14157
0.14157
0.14157
0.14157
0.14157
0.14157
0.14157
0.14157
0.14157
0.14157
0.14157
0.14157
0.14157
0.14157
0.14157
0.14157
0.14157
0.14157
0.14157
0.14157
0.14157
0.14157
0.14157
0.14157
0.14157
0.14157
0.14157
0.14157
0.14157
0.14157
0.14157
0.14157
0.14157
0.14157
0.14157
0.14157
0.14157
0.14157
0.14157
0.14157
0.14157
0.14157
0.14157
0.14157
0.14157
0.14157
0.14157
0.14157
0.14157
0.14157
0.14157
0.14157
0.14157
0.14157
0.14157
0.14157
0.14186
0.14186
0.14186
0.14186
0.14186
0.14186
0.14186
0.14186
0.14186
0.14186
0.14186
0.14186
0.14186
0.14186
0.14186
0.14186
0.14186
0.14186
0.14186
0.14186
0.14186
0.14186
0.14186
0.14186
0.14186
0.14186
0.14186
0.14186
0.14186
0.14186
0.14186
0.14186
0.14186
0.14186
0.14186
0.14186
0.14186
0.14186
0.14186
0.14186
0.14186
0.14186
0.14186
0.14186
0.14186
0.14186
0.14186
0.14186
0.14186
0.14186
0.14186
0.14186
0.14186
0.14186
0.14186
0.14186
0.14186
0.14186
0.14186
0.14186
0.14186
0.14186
0.14186
0.14186
0.14186
0.14186
0.14186
0.14186
0.14186
0.14186
0.14186
0.14186
0.14186
0.14186
0.14186
0.14186
0.14186
0.14186
0.14186
0.14186
0.14186
0.14186
0.14186
0.14186
0.14186
0.14186
0.14186
0.14186
0.14186
0.14186
0.14186
0.14186
0.14186
0.14186
0.14186
0.14186
0.14186
0.14186
0.14186
0.14186
0.14186
0.14186
0.14186
0.14186
0.14186
0.14186
0.14186
0.14186
0.14186
0.14186
0.14186
0.14186
0.14186
0.14186
0.14186
0.14186
0.14186
0.14186
0.14186
0.14186
0.14186
0.14186
0.14186
0.14186
0.14186
0.14186
0.14186
0.14186
0.14186
0.14186
0.14186
0.14186
0.14186
0.14186
0.14186
0.14186
0.14186
0.14186
0.14186
0.14186
0.14186
0.14186
0.14186
0.14186
0.14186
0.14186
0.14186
0.14186
0.14186
0.14157
0.14157
0.14157
0.14157
0.14157
0.14157
0.14157
0.14157
0.14157
0.14157
0.14186
0.14186
0.14186
0.14186
0.14186
0.14186
0.14186
0.14186
0.14186
0.14186
0.14186
0.14186
0.14186
0.14186
0.14186
0.14186
0.14186
0.14186
0.14186
0.14186
0.14186
0.14186
0.14186
0.14186
0.14186
0.14186
0.14186
0.14186
0.14186
0.14186
0.14186
0.14186
0.14186
0.14186
0.14186
0.14186
0.14186
0.14186
0.14186
0.14186
0.14186
0.14186
0.14186
0.14186
0.14186
0.14186
0.14186
0.14186
0.14186
0.14186
0.14186
0.14186
0.14186
0.14186
0.14186
0.14186
0.14186
0.14186
0.14186
0.14186
0.14186
0.14186
0.14186
0.14186
0.14186
0.14186
0.14186
0.14186
0.14186
0.14186
0.14186
0.14186
0.14186
0.14186
0.14186
0.14186
0.14186
0.14186
0.14186
0.14186
0.14215
0.14215
0.14215
0.14215
0.14215
0.14215
0.14215
0.14215
0.14215
0.14215
0.14215
0.14215
0.14215
0.14215
0.14215
0.14215
0.14215
0.14215
0.14215
0.14215
0.14215
0.14215
0.14215
0.14215
0.14215
0.14215
0.14215
0.14215
0.14215
0.14215
0.14186
0.14186
0.14186
0.14157
0.14157
0.14157
0.14157
0.14157
0.14157
0.14157
0.14157
0.14157
0.14157
0.14157
0.14157
0.14157
0.14157
0.14157
0.14157
0.14157
0.14157
0.14157
0.14157
0.14157
0.14157
0.14157
0.14157
0.14157
0.14157
0.14157
0.14157
0.14157
0.14157
0.14157
0.14157
0.14157
0.14157
0.14157
0.14157
0.14157
0.14157
0.14157
0.14157
0.14157
0.14157
0.14157
0.14157
0.14157
0.14157
0.14157
0.14157
0.14157
0.14157
0.14157
0.14157
0.14157
0.14157
0.14157
0.14157
0.14157
0.14157
0.14157
0.14157
0.14157
0.14157
0.14157
0.14157
0.14157
0.14157
0.14157
0.14157
0.14157
0.14157
0.14157
0.14157
0.14157
0.14157
0.14157
0.14157
0.14157
0.14157
0.14157
0.14157
0.14186
0.14186
0.14186
0.14186
0.14186
0.14186
0.14186
0.14186
0.14186
0.14186
0.14186
0.14186
0.14186
0.14186
0.14186
0.14186
0.14186
0.14186
0.14186
0.14186
0.14186
0.14186
0.14186
0.14186
0.14186
0.14186
0.14186
0.14186
0.14186
0.14186
0.14186
0.14186
0.14186
0.14186
0.14186
0.14186
0.14186
0.14186
0.14215
0.14215
0.14215
0.14215
0.14215
0.14215
0.14215
0.14215
0.14215
0.14215
0.14215
0.14215
0.14215
0.14215
0.14215
0.14215
0.14215
0.14215
0.14215
0.14215
0.14215
0.14215
0.14215
0.14215
0.14215
0.14215
0.14215
0.14215
0.14215
0.14215
0.14215
0.14215
0.14215
0.14215
0.14215
0.14215
0.14215
0.14215
0.14215
0.14215
0.14186
0.14186
0.14186
0.14186
0.14186
0.14186
0.14186
0.14186
0.14186
0.14186
0.14186
0.14157
0.14157
0.14157
0.14157
0.14157
0.14157
0.14157
0.14157
0.14157
0.14157
0.14157
0.14157
0.14157
0.14157
0.14157
0.14157
0.14157
0.14129
0.14129
0.14129
0.14129
0.14129
0.14129
0.14129
0.14129
0.14129
0.14129
0.14129
0.14129
0.14129
0.14129
0.14157
0.14157
0.14157
0.14157
0.14157
0.14157
0.14157
0.14157
0.14157
0.14157
0.14157
0.14157
0.14157
0.14157
0.14157
0.14157
0.14157
0.14157
0.14157
0.14157
0.14157
0.14157
0.14157
0.14157
0.14157
0.14157
0.14157
0.14157
0.14157
0.14157
0.14157
0.14157
0.14157
0.14157
0.14157
0.14157
0.14157
0.14157
0.14157
0.14157
0.14157
0.14157
0.14157
0.14157
0.14157
0.14157
0.14157
0.14157
0.14157
0.14157
0.14157
0.14157
0.14157
0.14157
0.14157
0.14157
0.14157
0.14157
0.14157
0.14157
0.14157
0.14157
0.14157
0.14157
0.14157
0.14157
0.14157
0.14157
0.14157
0.14157
0.14157
0.14157
0.14157
0.14157
0.14157
0.14157
0.14157
0.14157
0.14157
0.14157
0.14157
0.14157
0.14157
0.14157
0.14157
0.14157
0.14157
0.14157
0.14157
0.14157
0.14157
0.14157
0.14157
0.14157
0.14157
0.14157
0.14157
0.14157
0.14157
0.14157
0.14157
0.14157
0.14157
0.14157
0.14157
0.14157
0.14157
0.14157
0.14157
0.14157
0.14157
0.14157
0.14157
0.14157
0.14157
0.14157
0.14157
0.14157
0.14157
0.14157
0.14157
0.14157
0.14157
0.14157
0.14157
0.14157
0.14157
0.14157
0.14157
0.14157
0.14157
0.14157
0.14157
0.14157
0.14157
0.14157
0.14157
0.14157
0.14157
0.14157
0.14157
0.14157
0.14157
0.14157
0.14157
0.14157
0.14157
0.14157
0.14157
0.14157
0.14157
0.14157
0.14157
0.14157
0.14157
0.14157
0.14157
0.14157
0.14157
0.14157
0.14157
0.14157
0.14157
0.14157
0.14157
0.14157
0.14157
0.14157
0.14157
0.14157
0.14157
0.14157
0.14157
0.14157
0.14157
0.14157
0.14157
0.14157
0.14157
0.14157
0.14157
0.14157
0.14157
0.14186
0.14186
0.14186
0.14186
0.14186
0.14186
0.14186
0.14186
0.14186
0.14186
0.14186
0.14186
0.14186
0.14186
0.14186
0.14186
0.14186
0.14186
0.14186
0.14186
0.14186
0.14186
0.14186
0.14186
0.14186
0.14186
0.14186
0.14186
0.14186
0.14186
0.14186
0.14186
0.14186
0.14186
0.14186
0.14186
0.14186
0.14186
0.14186
0.14186
0.14186
0.14186
0.14186
0.14186
0.14186
0.14186
0.14186
0.14186
0.14186
0.14186
0.14186
0.14186
0.14186
0.14186
0.14186
0.14186
0.14186
0.14186
0.14215
0.14215
0.14215
0.14215
0.14215
0.14215
0.14215
0.14215
0.14215
0.14215
0.14215
0.14215
0.14215
0.14215
0.14215
0.14215
0.14215
0.14215
0.14215
0.14215
0.14215
0.14215
0.14215
0.14215
0.14215
0.14215
0.14215
0.14215
0.14215
0.14215
0.14215
0.14215
0.14215
0.14215
0.14215
0.14215
0.14215
0.14215
0.14215
0.14215
0.14215
0.14215
0.14215
0.14215
0.14215
0.14215
0.14215
0.14215
0.14215
0.14215
0.14215
0.14215
0.14215
0.14215
0.14215
0.14215
0.14215
0.14215
0.14215
0.14215
0.14215
0.14215
0.14215
0.14215
0.14215
0.14215
0.14215
0.14215
0.14215
0.14215
0.14215
0.14215
0.14215
0.14215
0.14215
0.14215
0.14244
0.14244
0.14244
0.14244
0.14244
0.14244
0.14244
0.14244
0.14244
0.14244
0.14244
0.14244
0.14244
0.14244
0.14244
0.14244
0.14244
0.14244
0.14244
0.14244
0.14244
0.14244
0.14244
0.14244
0.14244
0.14244
0.14244
0.14244
0.14244
0.14244
0.14244
0.14244
0.14244
0.14244
0.14244
0.14244
0.14244
0.14244
0.14244
0.14244
0.14244
0.14244
0.14244
0.14244
0.14244
0.14244
0.14244
0.14244
0.14244
0.14244
0.14273
0.14273
0.14273
0.14273
0.14273
0.14273
0.14273
0.14273
0.14273
0.14273
0.14273
0.14273
0.14273
0.14273
0.14273
0.14273
0.14273
0.14273
0.14273
0.14273
0.14273
0.14273
0.14273
0.14273
0.14273
0.14273
0.14273
0.14273
0.14273
0.14273
0.14302
0.14302
0.14302
0.14302
0.14302
0.14302
0.14302
0.14302
0.14302
0.14302
0.14302
0.14302
0.14302
0.14302
0.14302
0.14302
0.14302
0.14302
0.14302
0.14302
0.14302
0.14302
0.14302
0.14302
0.14302
0.14302
0.14302
0.14302
0.14302
0.14302
0.14302
0.14302
0.14302
0.14302
0.14302
0.14302
0.14302
0.14302
0.14302
0.14302
0.14302
0.14302
0.14302
0.14302
0.14302
0.14302
0.14302
0.14302
0.14302
0.14302
0.14302
0.14302
0.14302
0.14302
0.14302
0.14302
0.14302
0.14302
0.14302
0.14302
0.14302
0.14302
0.14302
0.14302
0.14302
0.14302
0.14302
0.14302
0.14302
0.14302
0.14302
0.14302
0.14273
0.14302
0.14302
0.14302
0.14302
0.14302
0.14302
0.14302
0.14302
0.14302
0.14302
0.14302
0.14302
0.14302
0.14302
0.14302
0.14302
0.14302
0.14302
0.14302
0.14302
0.14302
0.14302
0.14302
0.14302
0.14302
0.14302
0.14302
0.14302
0.14302
0.14302
0.14302
0.14302
0.14302
0.14302
0.14302
0.14302
0.14302
0.14302
0.14302
0.14302
0.14302
0.14302
0.14331
0.14331
0.14331
0.14331
0.14331
0.14331
0.14331
0.14331
0.14331
0.14331
0.14331
0.14302
0.14302
0.14302
0.14302
0.14302
0.14302
0.14302
0.14302
0.14302
0.14302
0.14302
0.14302
0.14302
0.14302
0.14302
0.14302
0.14302
0.14302
0.14302
0.14302
0.14302
0.14302
0.14302
0.14302
0.14302
0.14302
0.14302
0.14302
0.14302
0.14302
0.14302
0.14302
0.14302
0.14302
0.14302
0.14302
0.14302
0.14302
0.14302
0.14302
0.14302
0.14302
0.14302
0.14302
0.14302
0.14302
0.14302
0.14302
0.14302
0.14302
0.14302
0.14302
0.14302
0.14302
0.14302
0.14302
0.14302
0.14302
0.14302
0.14302
0.14302
0.14302
0.14302
0.14302
0.14302
0.14302
0.14302
0.14302
0.14302
0.14302
0.14302
0.14302
0.14302
0.14302
0.14302
0.14302
0.14302
0.14302
0.14302
0.14302
0.14302
0.14302
0.14302
0.14302
0.14302
0.14302
0.14302
0.14302
0.14302
0.14302
0.14302
0.14302
0.14302
0.14302
0.14302
0.14302
0.14302
0.14302
0.14302
0.14302
0.14302
0.14302
0.14302
0.14302
0.14302
0.14302
0.14302
0.14302
0.14302
0.14302
0.14302
0.14302
0.14302
0.14302
0.14302
0.14302
0.14302
0.14302
0.14302
0.14302
0.14302
0.14302
0.14302
0.14302
0.14302
0.14302
0.14302
0.14302
0.14302
0.14302
0.14302
0.14302
0.14302
0.14302
0.14302
0.14302
0.14302
0.14302
0.14302
0.14302
0.14302
0.14302
0.14302
0.14302
0.14302
0.14302
0.14302
0.14302
0.14302
0.14302
0.14302
0.14302
0.14302
0.14302
0.14302
0.14302
0.14302
0.14302
0.14302
0.14302
0.14302
0.14302
0.14302
0.14302
0.14302
0.14302
0.14302
0.14302
0.14302
0.14302
0.14302
0.14302
0.14302
0.14302
0.14302
0.14302
0.14302
0.14302
0.14302
0.14302
0.14302
0.14302
0.14302
0.14302
0.14302
0.14302
0.14302
0.14302
0.14302
0.14302
0.14302
0.14302
0.14302
0.14302
0.14302
0.14302
0.14302
0.14302
0.14302
0.14302
0.14302
0.14302
0.14302
0.14302
0.14302
0.14302
0.14302
0.14302
0.14302
0.14302
0.14302
0.14302
0.14302
0.14302
0.14302
0.14302
0.14302
0.14302
0.14302
0.14302
0.14302
0.14302
0.14302
0.14302
0.14302
0.14302
0.14302
0.14302
0.14331
0.1436
0.1436
0.1436
0.1436
0.1436
0.1436
0.1436
0.1436
0.1436
0.14389
0.14389
0.14389
0.14389
0.14389
0.14389
0.14389
0.14389
0.14389
0.14389
0.14389
0.14389
0.14389
0.14389
0.14389
0.14389
0.14389
0.14389
0.14389
0.14389
0.14389
0.14389
0.14389
0.14389
0.14389
0.14418
