1
0.96289
0.93277
0.90829
0.90713
0.90059
0.8929
0.88519
0.87926
0.87504
0.8725
0.87143
0.87166
0.87043
0.8684
0.86675
0.86521
0.86388
0.8625
0.86157
0.85909
0.85679
0.85394
0.85147
0.84921
0.84707
0.8455
0.84417
0.84299
0.84072
0.83869
0.83531
0.83089
0.82812
0.82561
0.82324
0.82104
0.81817
0.81548
0.81297
0.81072
0.80748
0.80444
0.80159
0.79851
0.79564
0.79292
0.79032
0.78785
0.78571
0.78319
0.7804
0.77799
0.77627
0.77447
0.77274
0.77098
0.76957
0.76875
0.76787
0.76726
0.76648
0.76575
0.76527
0.76478
0.76423
0.76356
0.76298
0.76246
0.76191
0.76157
0.7611
0.76097
0.76063
0.76035
0.76009
0.7596
0.7593
0.75896
0.7589
0.7591
0.75932
0.75927
0.75941
0.75953
0.7599
0.76039
0.76113
0.76191
0.76298
0.76423
0.76523
0.76624
0.76731
0.76776
0.76827
0.76891
0.7691
0.76962
0.77013
0.77065
0.77118
0.77182
0.77247
0.77263
0.77236
0.77209
0.77179
0.7715
0.77101
0.77055
0.77008
0.76961
0.76926
0.76891
0.7688
0.76904
0.76878
0.76847
0.76823
0.76773
0.76723
0.76653
0.76583
0.76519
0.76468
0.76402
0.76366
0.76344
0.76324
0.76303
0.763
0.76301
0.76269
0.76235
0.76205
0.76175
0.76158
0.7612
0.76078
0.7605
0.76003
0.75938
0.7587
0.75802
0.75729
0.75684
0.75624
0.75564
0.75541
0.75529
0.75533
0.75514
0.75482
0.75456
0.75418
0.75375
0.75341
0.75316
0.75281
0.75253
0.75227
0.75192
0.7515
0.75121
0.75087
0.75045
0.7499
0.74941
0.7488
0.74811
0.74743
0.74675
0.74601
0.74523
0.74459
0.74416
0.74366
0.74313
0.74256
0.74196
0.74131
0.7406
0.7401
0.73961
0.73912
0.73866
0.73817
0.73781
0.73749
0.73713
0.73674
0.73633
0.736
0.73562
0.73514
0.73454
0.73392
0.73332
0.73271
0.73212
0.73145
0.7309
0.73035
0.72981
0.72926
0.72872
0.72839
0.72814
0.72783
0.72752
0.72725
0.72701
0.72694
0.72704
0.72715
0.72727
0.7276
0.72794
0.72827
0.72867
0.72922
0.72952
0.72975
0.72998
0.73029
0.73062
0.73095
0.73123
0.73153
0.73183
0.73213
0.73244
0.73249
0.73277
0.73279
0.73262
0.73245
0.73214
0.73182
0.73151
0.73122
0.73115
0.73109
0.73108
0.73104
0.73103
0.73102
0.73099
0.73109
0.73127
0.73146
0.73168
0.73179
0.73193
0.73192
0.73195
0.73209
0.73226
0.7324
0.73256
0.73251
0.73236
0.73221
0.73206
0.73191
0.73176
0.73149
0.73122
0.73116
0.73115
0.73115
0.73101
0.73077
0.73048
0.73035
0.73022
0.73009
0.72991
0.72968
0.72935
0.72909
0.72874
0.72848
0.72813
0.7279
0.72763
0.7273
0.7271
0.72697
0.72683
0.72665
0.72653
0.72641
0.72629
0.72616
0.72606
0.72592
0.72585
0.72563
0.7255
0.72533
0.72517
0.72497
0.7247
0.72441
0.72407
0.72397
0.72386
0.7237
0.72358
0.72347
0.72327
0.72307
0.7228
0.72253
0.72221
0.72191
0.72164
0.7214
0.72115
0.72087
0.7206
0.72028
0.72003
0.71973
0.71944
0.71916
0.71886
0.71852
0.7182
0.71786
0.71753
0.7172
0.71686
0.71655
0.71625
0.71596
0.71565
0.71532
0.71498
0.71464
0.71429
0.71397
0.71365
0.71333
0.71298
0.71275
0.71253
0.71235
0.71224
0.71223
0.71217
0.71221
0.7122
0.7122
0.7122
0.71226
0.71236
0.7124
0.71245
0.71245
0.71239
0.71228
0.71207
0.71185
0.71162
0.71139
0.7111
0.71088
0.71071
0.71054
0.71037
0.71028
0.71023
0.7102
0.71015
0.71008
0.70999
0.70998
0.70998
0.70994
0.70992
0.70993
0.70992
0.70993
0.70997
0.71
0.71001
0.71003
0.71004
0.71006
0.71009
0.71011
0.71013
0.71013
0.71013
0.71014
0.71014
0.71014
0.71016
0.71018
0.71022
0.71029
0.71036
0.71043
0.71047
0.71051
0.71055
0.71059
0.71064
0.7107
0.71067
0.71065
0.71062
0.71059
0.71057
0.71054
0.71051
0.71047
0.71044
0.71041
0.71042
0.71043
0.71042
0.71043
0.71042
0.71042
0.71043
0.71045
0.71036
0.71027
0.71018
0.71009
0.71
0.70992
0.70972
0.70953
0.70934
0.70923
0.70912
0.70906
0.709
0.70894
0.70876
0.70861
0.70849
0.70831
0.70813
0.70805
0.70797
0.70788
0.70779
0.70775
0.70771
0.70773
0.70777
0.70785
0.70789
0.70796
0.70798
