0
0.33876
0.33876
0.33876
0.33876
0.33876
0.33876
0.33876
0.33876
0.33876
0.33876
0.33876
0.33876
0.33876
0.33876
0.33876
0.33876
0.33876
0.33876
0.33876
0.33876
0.33876
0.33876
0.33876
0.33876
0.33876
0.33876
0.33876
0.33876
0.33876
0.33876
0.33876
0.33876
0.33876
0.33876
0.33876
0.33876
0.33876
0.33876
0.33876
0.33876
0.33876
0.33876
0.33876
0.33876
0.33876
0.33876
0.33811
0.33909
0.33844
0.33779
0.3342
0.33029
0.32964
0.32899
0.32541
0.32052
0.31792
0.31336
0.30912
0.30749
0.30489
0.30521
0.30261
0.3013
0.30065
0.29902
0.2987
0.29772
0.29544
0.29316
0.29023
0.28502
0.28339
0.27948
0.27655
0.27557
0.27166
0.2671
0.26417
0.26059
0.25798
0.25472
0.25277
0.25081
0.24788
0.24821
0.24723
0.24691
0.243
0.24235
0.24235
0.24039
0.23876
0.24235
0.24235
0.24137
0.24104
0.2443
0.24495
0.24397
0.243
0.24235
0.24235
0.24235
0.24332
0.24397
0.2443
0.24495
0.24691
0.24691
0.24756
0.24886
0.24723
0.24658
0.24723
0.24821
0.24723
0.24625
0.24658
0.24625
0.24593
0.24593
0.24528
0.2456
0.24495
0.2443
0.24235
0.243
0.24235
0.24104
0.24104
0.24007
0.24007
0.24007
0.23909
0.23974
0.23941
0.23974
0.23909
0.23909
0.23876
0.24039
0.24007
0.24039
0.24104
0.24137
0.24137
0.24365
0.24169
0.24137
0.24137
0.24202
0.24169
0.24137
0.24137
0.24267
0.24169
0.24039
0.23909
0.23909
0.23941
0.23974
0.23974
0.23974
0.23909
0.23941
0.23811
0.23876
0.23876
0.23876
0.23941
0.23844
0.23941
0.23941
0.23941
0.23941
0.23876
0.23909
0.23616
0.23616
0.23485
0.2355
0.23518
0.23518
0.2342
0.23355
0.23257
0.23322
0.23322
0.23322
0.23388
0.23322
0.23388
0.23257
0.23257
0.23225
0.23257
0.23388
0.23388
0.2342
0.23257
0.23192
0.23094
0.23029
0.23029
0.23127
0.23094
0.23062
0.23029
0.23029
0.23029
0.23029
0.22997
0.22932
0.23029
0.23094
0.23192
0.23192
0.23192
0.2329
0.23094
0.2316
0.23225
0.23257
0.2329
0.23355
0.2355
0.2355
0.2355
0.23616
0.23583
0.23713
0.23713
0.2355
0.23453
0.2342
0.23485
0.23485
0.2342
0.23453
0.23485
0.23453
0.23453
0.23388
0.23485
0.23453
0.23388
0.23485
0.23453
0.2355
0.2355
0.23485
0.23453
0.2342
0.23388
0.23453
0.23453
0.2355
0.23485
0.23453
0.23485
0.23453
0.23453
0.23485
0.23518
0.23518
0.23583
0.2355
0.23518
0.23518
0.23713
0.23681
0.23746
0.23713
0.23713
0.23746
0.23844
0.23909
0.23941
0.23974
0.23974
0.23909
0.23811
0.23746
0.23746
0.23746
0.23616
0.23713
0.23713
0.23681
0.23779
0.23746
0.23779
0.23746
0.23746
0.23713
0.23746
0.23713
0.23713
0.23746
0.23681
0.23616
0.23583
0.2355
0.2342
0.23485
0.2342
0.23518
0.2355
0.23583
0.23616
0.23583
0.23583
0.23485
0.23453
0.23355
0.2342
0.23388
0.23388
0.23388
0.23322
0.23322
0.23388
0.23388
0.2342
0.23355
0.23388
0.23388
0.23322
0.23322
0.23322
0.2329
0.23257
0.2329
0.23225
0.23225
0.23225
0.23225
0.23094
0.22997
0.23029
0.23029
0.23029
0.22866
0.22801
0.22801
0.22834
0.22834
0.22834
0.22834
0.22769
0.22736
0.22736
0.22801
0.22801
0.22866
0.22899
0.23029
0.22932
0.22899
0.22964
0.22932
0.22899
0.22899
0.22899
0.22899
0.22834
0.22801
0.22801
0.22801
0.22834
0.22834
0.22866
0.22964
0.22997
0.22932
0.22964
0.22964
0.23062
0.23094
0.23062
0.2316
0.23192
0.2329
0.23388
0.23388
0.23453
0.2342
0.23518
0.23518
0.23485
0.23518
0.23681
0.23713
0.23713
0.23681
0.23713
0.23779
0.23844
0.23844
0.23844
0.23909
0.23974
0.24072
0.24104
0.24169
0.24169
0.24137
0.24169
0.24202
0.243
0.24235
0.24267
0.243
0.24235
0.24235
0.243
0.24332
0.24397
0.24495
0.24625
0.24691
0.24625
0.24691
0.24788
0.24886
0.24853
0.24853
0.24821
0.24853
0.24821
0.24886
0.24984
0.25049
0.25147
0.25147
0.25114
0.25179
0.25179
0.25179
0.25244
0.25244
0.25244
0.25277
0.25277
0.25244
0.25244
0.25244
0.25179
0.25179
0.25179
0.25179
0.25212
0.25212
0.25244
0.25212
0.25212
0.25244
0.25277
0.25309
