0
0.33876
0.33876
0.33876
0.33876
0.33876
0.33876
0.33876
0.33876
0.33876
0.33876
0.33876
0.33876
0.33876
0.33876
0.33876
0.33876
0.33876
0.33876
0.33876
0.33876
0.33876
0.33876
0.33876
0.33876
0.33876
0.33876
0.33876
0.33876
0.33876
0.33876
0.33876
0.33876
0.33876
0.33876
0.33876
0.33876
0.33876
0.33876
0.33876
0.33876
0.33876
0.33876
0.33876
0.33876
0.33876
0.33876
0.33876
0.33876
0.33876
0.33876
0.33876
0.33876
0.33876
0.3355
0.3355
0.33225
0.3355
0.3355
0.33225
0.32248
0.32248
0.32248
0.32248
0.32248
0.32248
0.32248
0.32248
0.32248
0.32248
0.32248
0.32248
0.31596
0.31922
0.31922
0.31922
0.31922
0.31922
0.31922
0.31922
0.31922
0.31596
0.31596
0.3127
0.30619
0.30619
0.30293
0.29642
0.29316
0.2899
0.27687
0.27687
0.27362
0.27362
0.27036
0.27362
0.2671
0.2671
0.25733
0.25407
0.2443
0.23779
0.24104
0.23779
0.23453
0.23779
0.23779
0.23779
0.23779
0.23779
0.23453
0.23779
0.23779
0.23779
0.23779
0.23779
0.23779
0.23779
0.23779
0.23127
0.23453
0.23453
0.23453
0.23453
0.24104
0.23779
0.23779
0.23779
0.24104
0.24104
0.24104
0.24104
0.24104
0.24104
0.23453
0.23453
0.23453
0.23127
0.23127
0.23127
0.23127
0.23453
0.23453
0.23453
0.23127
0.23127
0.23127
0.23127
0.23453
0.23453
0.23127
0.23127
0.23127
0.23127
0.23127
0.23453
0.23453
0.23453
0.23453
0.23453
0.23127
0.23453
0.23453
0.23453
0.23453
0.23453
0.23453
0.23453
0.23779
0.23779
0.23779
0.23453
0.23127
0.23127
0.23127
0.23127
0.23127
0.23127
0.23127
0.23127
0.23127
0.23127
0.22476
0.23127
0.23127
0.23453
0.23453
0.23127
0.23127
0.23453
0.23453
0.23127
0.23127
0.23127
0.23127
0.23127
0.23453
0.23779
0.23779
0.23779
0.24104
0.24104
0.24104
0.2443
0.2443
0.2443
0.24104
0.24104
0.24104
0.24104
0.24104
0.24104
0.24104
0.23779
0.23779
0.23779
0.23779
0.23779
0.23453
0.23453
0.23453
0.23453
0.23127
0.23127
0.23127
0.23127
0.23127
0.23127
0.23127
0.23453
0.23127
0.23127
0.23127
0.23127
0.23127
0.23127
0.23127
0.23127
0.23127
0.23127
0.23127
0.23127
0.23127
0.23127
0.23127
0.23453
0.23453
0.23453
0.23127
0.23127
0.23127
0.23127
0.23127
0.23127
0.23127
0.22801
0.22801
0.22476
0.23127
0.23127
0.23127
0.23127
0.23127
0.23127
0.23127
0.23127
0.23453
0.23453
0.23453
0.23453
0.23453
0.23453
0.23453
0.23453
0.23453
0.23453
0.23779
0.23779
0.23779
0.23779
0.23779
0.23779
0.23779
0.23779
0.23779
0.23779
0.23779
0.23779
0.23779
0.23779
0.23779
0.23779
0.23779
0.23779
0.23779
0.23779
0.23779
0.23779
0.23779
0.23779
0.23779
0.23779
0.23779
0.23453
0.23779
0.23779
0.23779
0.23779
0.23779
0.23779
0.23779
0.23779
0.23779
0.23779
0.23779
0.23779
0.23453
0.23453
0.23453
0.23453
0.23453
0.23453
0.23779
0.23779
0.23779
0.23779
0.23779
0.23779
0.23779
0.23779
0.23779
0.23779
0.23779
0.23779
0.23779
0.23779
0.23779
0.23779
0.23779
0.23779
0.23779
0.23779
0.23779
0.23779
0.23779
0.23453
0.23127
0.23127
0.23127
0.23453
0.23453
0.23453
0.23453
0.23453
0.23779
0.23779
0.23779
0.23779
0.23779
0.23779
0.23779
0.23779
0.23779
0.23779
0.23779
0.23779
0.23779
0.23779
0.23779
0.23779
0.23779
0.23779
0.23779
0.23779
0.23453
0.23453
0.23453
0.23779
0.23779
0.23779
0.23779
0.23779
0.23779
0.23779
0.23779
0.23779
0.23779
0.23779
0.23779
0.23779
0.23779
0.23779
0.23779
0.23779
0.23779
0.23779
0.23779
0.23779
0.23779
0.23779
0.23779
0.23779
0.23779
0.23779
0.23779
0.23779
0.23779
0.23779
0.23779
0.23453
0.23453
0.23453
0.23453
0.23453
0.23127
0.23127
0.23127
0.23127
0.22801
0.22801
0.22801
0.22801
0.22801
0.22801
0.23127
0.23127
0.22801
0.22801
0.22801
0.22801
0.22801
0.22801
0.22801
0.22801
0.22801
0.22476
0.22476
0.22476
0.22476
0.22476
0.22476
0.22476
0.22476
0.22476
0.22476
0.22476
0.22801
0.22801
0.22801
0.22801
0.22801
0.22476
0.2215
0.2215
0.2215
0.2215
0.2215
0.2215
0.21824
0.21824
0.21824
