0
0.539
0.539
0.539
0.531
0.276
0.263
0.255
0.2135
0.1205
0.078
0.092
0.0995
0.1275
0.1445
0.141
0.149
0.1565
0.163
0.166
0.1695
0.167
0.165
0.1655
0.1645
0.1615
0.1575
0.1515
0.1465
0.1345
0.1285
0.1205
0.115
0.109
0.105
0.1
0.097
0.0945
0.0935
0.091
0.092
0.0915
0.092
0.092
0.092
0.093
0.0935
0.094
0.094
0.0945
0.094
0.0935
0.093
0.092
0.091
0.0915
0.0915
0.0915
0.092
0.092
0.093
0.0955
0.0955
0.0965
0.096
0.097
0.098
0.098
0.0975
0.097
0.097
0.097
0.097
0.0965
0.096
0.0965
0.0965
0.097
0.0975
0.097
0.0975
0.097
0.097
0.0975
0.099
0.0985
0.099
0.0995
0.0995
0.1
0.1005
0.1005
0.1005
0.1
0.1
0.1
0.1
0.1
0.1
0.1
0.1
0.099
0.099
0.099
0.099
0.099
0.0985
0.097
0.0965
0.096
0.096
0.0955
0.0955
0.095
0.0945
0.0945
0.094
0.094
0.094
0.094
0.094
0.094
0.094
0.094
0.094
0.094
0.094
0.094
0.094
0.0945
0.0945
0.0945
0.0945
0.094
0.0935
0.0925
0.093
0.0935
0.0905
0.0905
0.09
0.09
0.09
0.09
0.09
0.09
0.09
0.089
0.0885
0.0885
0.0885
0.0885
0.0885
0.0885
0.086
0.0855
0.0855
0.085
0.0845
0.084
0.084
0.084
0.084
0.083
0.0825
0.081
0.0805
0.08
0.0795
0.079
0.079
0.079
0.0785
0.0785
0.078
0.0775
0.076
0.0755
0.075
0.0745
0.074
0.0735
0.0735
0.0735
0.0735
0.073
0.073
0.0725
0.0725
0.0725
0.072
0.0715
0.0715
0.072
0.0715
0.072
0.072
0.0715
0.072
0.0705
0.0705
0.0705
0.0705
0.07
0.0695
0.069
0.0685
0.068
0.068
0.068
0.0675
0.0675
0.0675
0.0675
0.067
0.067
0.067
0.0665
0.0665
0.0665
0.067
0.067
0.067
0.067
0.067
0.0675
0.0675
0.0675
0.0675
0.067
0.0665
0.0665
0.0665
0.0665
0.066
0.066
0.0665
0.0665
0.0665
0.0665
0.0665
0.066
0.066
0.066
0.066
0.066
0.066
0.0655
0.0655
0.0655
0.0655
0.0655
0.0655
0.0655
0.0655
0.0655
0.0655
0.0655
0.0655
0.0655
0.065
0.065
0.065
0.065
0.065
0.065
0.0645
0.0645
0.0645
0.0645
0.0645
0.0645
0.0645
0.0645
0.0645
0.0645
0.0645
0.064
0.064
0.064
0.0635
0.0635
0.063
0.063
0.0625
0.0625
0.0625
0.0625
0.062
0.062
0.062
0.0625
0.0625
0.0625
0.0625
0.0625
0.0625
0.0625
0.0625
0.0625
0.0625
0.0625
0.0625
0.0625
0.0625
0.0625
0.0625
0.0625
0.0625
0.0625
0.0625
0.0625
0.0625
0.0625
0.0625
0.062
0.0625
0.063
0.063
0.063
0.063
0.063
0.063
0.063
0.063
0.0625
0.0625
0.0625
0.0625
0.0625
0.062
0.062
0.062
0.062
0.062
0.061
0.061
0.061
0.061
0.061
0.061
0.0605
0.0605
0.0605
0.0605
0.0605
0.0605
0.06
0.06
0.06
0.06
0.06
0.06
0.06
0.06
0.06
0.0595
0.0595
0.0595
0.059
0.0585
0.0585
0.0585
0.0585
0.0585
0.058
0.0585
0.0585
0.0585
0.0585
0.0585
0.0585
0.0585
0.0585
0.0585
0.0585
0.0585
0.058
0.058
0.058
0.058
0.058
0.057
0.0565
0.0565
0.0565
0.0565
0.0565
0.0565
0.0555
0.0555
0.0555
0.055
0.055
0.055
0.055
0.055
0.054
0.054
0.0535
0.0535
0.0535
0.053
0.053
0.053
0.0525
0.0525
0.0525
0.0525
0.0525
0.052
0.0515
0.0515
0.0515
0.0515
0.0515
0.0515
0.0515
0.051
0.051
0.051
0.0505
0.05
0.05
0.05
0.05
0.05
0.05
0.05
0.05
0.05
0.05
0.05
0.05
0.05
0.05
0.05
0.05
0.05
0.05
0.05
0.05
0.05
0.05
0.05
0.05
0.05
0.05
0.05
0.05
0.05
0.05
0.05
0.05
0.05
0.05
0.05
0.05
0.05
0.05
0.05
0.05
0.05
0.05
0.05
0.05
0.05
0.05
0.0505
0.0505
0.0505
0.0505
0.0505
0.0505
0.0505
0.0505
0.0505
0.0505
0.0505
0.0505
0.0505
0.0505
0.0505
0.0505
0.0505
0.0505
0.0505
0.0505
0.0505
0.0505
0.0505
0.0505
0.0505
0.0505
0.0505
0.0505
0.0505
0.0505
0.0505
0.0505
0.0505
0.0505
0.0505
0.0505
0.05
0.05
0.05
0.05
0.05
0.05
0.05
0.05
0.05
0.05
0.05
0.05
0.05
0.05
0.05
0.05
0.0505
0.0505
0.0505
0.0505
0.0505
0.0505
0.0505
0.051
0.051
0.051
0.051
0.051
0.051
0.051
0.051
0.051
0.051
0.051
0.051
0.051
0.051
0.051
0.051
0.051
0.051
0.051
0.051
0.051
0.051
0.051
0.051
0.051
0.051
0.051
0.051
0.051
0.051
0.051
0.051
0.051
0.051
0.051
0.051
0.051
0.051
0.051
0.051
0.051
0.051
0.051
0.051
0.051
0.051
0.051
0.051
0.051
0.051
0.051
0.051
0.051
0.051
0.051
0.051
0.051
0.051
0.051
0.051
0.051
0.051
0.051
0.051
0.051
0.051
0.051
0.051
0.051
0.051
0.0505
0.0505
0.0505
0.0505
0.0505
0.0505
0.0505
0.0505
0.0505
0.0505
0.0505
0.0505
0.0505
0.0505
0.0505
0.0505
0.0505
0.0505
0.0505
0.0505
0.0505
0.0505
0.0505
0.0505
0.0505
0.0505
0.0505
0.0505
0.0505
0.0505
0.0505
0.0505
0.0505
0.051
0.051
0.051
0.051
0.0515
0.0515
0.0515
0.0515
0.0515
0.0515
0.0515
0.0515
0.0515
0.0515
0.0515
0.0515
0.0515
0.0515
0.0515
0.0515
0.0515
0.0515
0.0515
0.0515
0.0515
0.0515
0.0515
0.0515
0.052
0.052
0.052
0.052
0.052
0.052
0.052
0.052
0.052
0.052
0.052
0.052
0.052
0.0525
0.0525
0.0525
0.0525
0.0525
0.0525
0.0525
0.0525
0.0525
0.0525
0.0525
0.0525
0.0525
0.0525
0.0525
0.0525
0.0525
0.0525
0.0525
0.0525
0.0525
0.0525
0.0525
0.0525
0.0525
0.0525
0.0525
0.0525
0.0525
0.0525
0.0525
0.0525
0.0525
0.0525
0.0525
0.0525
0.0525
0.0525
0.0525
0.0525
0.0525
0.0525
0.0525
0.0525
0.0525
0.0525
0.0525
0.0525
0.0525
0.0525
0.053
0.053
0.053
0.053
0.053
0.053
0.053
0.053
0.053
0.053
0.053
0.0535
0.0535
0.0535
0.0535
0.054
0.054
0.054
0.054
0.054
0.054
0.054
0.054
0.054
0.054
0.054
0.054
0.054
0.054
0.054
0.054
0.054
0.054
0.054
0.054
0.054
0.054
0.054
0.054
0.054
0.054
0.054
0.054
0.054
0.054
0.054
0.054
0.054
0.054
0.054
0.054
0.054
0.054
0.054
0.054
0.054
0.0535
0.0535
0.0535
0.0535
0.0535
0.0535
0.0535
0.0535
0.0535
0.0535
0.0535
0.0535
0.0535
0.054
0.054
0.054
0.054
0.054
0.054
0.0535
0.0535
0.0535
0.0535
0.0535
0.0535
0.053
0.053
0.053
0.053
0.053
0.053
0.053
0.053
0.0525
0.0525
0.0525
0.0525
0.0525
0.0525
0.0525
0.0525
0.0525
0.0525
0.0525
0.0525
0.0525
0.0525
0.0525
0.0525
0.0525
0.0525
0.0525
0.0525
0.0525
0.0525
0.0525
0.0525
0.0525
0.0525
0.0525
0.0525
0.0525
0.0525
0.0525
0.0525
0.0525
0.0525
0.0525
0.0525
0.0525
0.0525
0.0525
0.0525
0.0525
0.0525
0.0525
0.0525
0.0525
0.0525
0.0525
0.0525
0.0525
0.0525
0.0525
0.0525
0.0525
0.0525
0.0525
0.0525
0.0525
0.0525
0.0525
0.0525
0.0525
0.0525
0.0525
0.0525
0.0525
0.0525
0.0525
0.0525
0.0525
0.0525
0.0525
0.0525
0.0525
0.0525
0.0525
0.0525
0.0525
0.0525
0.0525
0.0525
0.0525
0.0525
0.0525
0.0525
0.0525
0.0525
0.0525
0.0525
0.0525
0.0525
0.0525
0.0525
0.0525
0.0525
0.0525
0.0525
0.0525
0.0525
0.0525
0.0525
0.0525
0.0525
0.0525
0.0525
0.0525
0.0525
0.0525
0.0525
0.0525
0.0525
0.052
0.052
0.052
0.052
0.052
0.052
0.052
0.052
0.052
0.052
0.052
0.052
0.052
0.052
0.0525
0.0525
0.052
0.052
0.052
0.052
0.052
0.052
0.052
0.052
0.052
0.052
0.052
0.052
0.052
0.0525
0.0525
0.0525
0.0525
0.0525
0.0525
0.0525
0.0525
0.0525
0.0525
0.053
0.053
0.053
0.053
0.053
0.053
0.053
0.053
0.053
0.053
0.0525
0.0525
0.0525
0.0525
0.0525
0.0525
0.0525
0.0525
0.0525
0.0525
0.0525
0.0525
0.0525
0.0525
0.0525
0.0525
0.0525
0.0525
0.0525
0.0525
0.0525
0.0525
0.0525
0.0525
0.0525
0.0525
0.0525
0.0525
0.0525
0.0525
0.0525
0.0525
0.0525
0.0525
0.0525
0.0525
0.0525
0.0525
0.0525
0.0525
0.0525
0.0525
0.0525
0.0525
0.0525
0.0525
0.0525
0.0525
0.0525
0.0525
0.0525
0.0525
0.0525
0.0525
0.0525
0.0525
0.0525
0.0525
0.0525
0.0525
0.0525
0.0525
0.0525
0.053
0.053
0.053
0.053
0.053
0.053
0.053
0.053
0.053
0.053
0.053
0.053
0.053
0.0535
0.0535
0.0535
0.0535
0.0535
0.0535
0.0535
0.0535
0.0535
0.0535
0.0535
0.0535
0.0535
0.0535
0.053
0.053
0.053
0.053
0.053
0.053
0.053
0.053
0.053
0.053
0.053
0.053
0.053
0.053
0.053
0.053
0.053
0.053
0.053
0.053
0.053
0.053
0.053
0.053
0.053
0.053
0.053
0.053
0.053
0.053
0.053
0.053
0.053
0.053
0.053
0.053
0.053
0.053
0.053
0.053
0.053
0.053
0.053
0.053
0.053
0.053
0.053
0.053
0.053
0.053
0.053
0.053
0.053
0.053
0.053
0.0535
0.054
0.054
0.054
0.054
0.054
0.054
0.054
0.054
0.054
0.054
0.054
0.054
0.054
0.054
0.054
0.054
0.054
0.054
0.054
0.054
0.054
0.054
0.054
0.054
0.054
0.054
0.054
0.054
0.054
0.054
0.054
0.054
0.054
0.054
0.054
0.054
0.054
0.054
0.054
0.054
0.054
0.054
0.054
0.054
0.054
0.054
0.054
0.054
0.054
0.054
0.054
0.054
0.054
0.054
0.054
0.054
0.054
0.054
0.054
0.054
0.054
0.054
0.054
0.054
0.054
0.054
0.054
0.054
0.054
0.054
0.054
0.054
0.0545
0.0545
0.0545
0.0545
0.0545
0.0545
0.0545
0.0545
0.0545
0.0545
0.0545
0.0545
0.0545
0.0545
0.0545
0.0545
0.0545
0.0545
0.0545
0.0545
0.0545
0.0545
0.0545
0.0545
0.0545
0.0545
0.0545
0.0545
0.0545
0.055
0.055
0.0555
0.0555
0.0555
0.0555
0.0555
0.0555
0.0555
0.0555
0.0555
0.0555
0.0555
0.0555
0.0555
0.0555
0.0555
0.0555
0.0555
0.0555
0.0555
0.0555
0.0555
0.0555
0.0555
0.0555
0.055
0.055
0.055
0.055
0.055
0.055
0.055
0.055
0.055
0.055
0.055
0.055
0.055
0.055
0.055
0.055
0.055
0.055
0.055
0.055
0.055
0.055
0.055
0.055
0.0555
0.0555
0.0555
0.0555
0.0555
0.0555
0.0555
0.0555
0.0555
0.0555
0.0555
0.0555
0.0555
0.0555
0.0555
0.0555
0.0555
0.0555
0.0555
0.0555
0.0555
0.0555
0.0555
0.0555
0.0555
0.0555
0.0555
0.0555
0.0555
0.0555
0.0555
0.0555
0.0555
0.0555
0.0555
0.0555
0.0555
0.0555
0.0555
0.0555
0.0555
0.0555
0.0555
0.0555
0.0555
0.0555
0.0555
0.0555
0.0555
0.0555
0.0555
0.0555
0.0555
0.0555
0.0555
0.0555
0.0555
0.0555
0.0555
0.0555
0.0555
0.0555
0.0555
0.0555
0.0555
0.0555
0.0555
0.0555
0.0555
0.0555
0.0555
0.0555
0.0555
0.0555
0.0555
0.0555
0.0555
0.0555
0.055
0.055
0.055
0.055
0.055
0.055
0.055
0.055
0.055
0.055
0.055
0.055
0.055
0.055
0.055
0.055
0.055
0.055
0.055
0.055
0.055
0.055
0.055
0.055
0.055
0.055
0.055
0.055
0.0555
0.0555
0.0555
0.0555
0.0555
0.0555
0.0555
0.0555
0.0555
0.0555
0.0555
0.0555
0.0555
0.0555
0.0555
0.0555
0.0555
0.0555
0.0555
0.056
0.056
0.056
0.056
0.056
0.056
0.056
0.056
0.056
0.056
0.056
0.056
0.056
0.056
0.056
0.056
0.056
0.056
0.056
0.056
0.056
0.056
0.056
0.056
0.056
0.056
0.056
0.056
0.056
0.056
0.056
0.056
0.056
0.056
0.056
0.056
0.056
0.056
0.056
0.056
0.056
0.056
0.056
0.056
0.056
0.056
0.056
0.056
0.056
0.056
0.056
0.056
0.056
0.056
0.056
0.056
0.056
0.056
0.056
0.056
0.056
0.056
0.056
0.056
0.056
0.056
0.056
0.056
0.056
0.056
0.056
0.056
0.056
0.056
0.056
0.056
0.056
0.056
0.056
0.056
0.056
0.056
0.056
0.056
0.056
0.056
0.056
0.056
0.056
0.056
0.0565
0.0565
0.0565
0.0565
0.0565
0.0565
0.0565
0.0565
0.0565
0.0565
0.0565
0.0565
0.0565
0.0565
0.0565
0.0565
0.0565
0.0565
0.0565
0.0565
0.0565
0.0565
0.0565
0.0565
0.0565
0.0565
0.0565
0.0565
0.0565
0.0565
0.0565
0.0565
0.0565
0.0565
0.0565
0.0565
0.0565
0.0565
0.0565
0.0565
0.0565
0.0565
0.0565
0.0565
0.0565
0.0565
0.0565
0.0565
0.0565
0.0565
0.0565
0.0565
0.0565
0.0565
0.0565
0.057
0.057
0.057
0.057
0.057
0.057
0.057
0.057
0.057
0.057
0.057
0.057
0.057
0.057
0.057
0.057
0.057
0.057
0.057
0.057
0.057
0.057
0.057
0.057
0.057
0.057
0.057
0.057
0.057
0.057
0.057
0.057
0.057
0.057
0.057
0.057
0.057
0.057
0.057
0.057
0.057
0.057
0.057
0.057
0.057
0.057
0.057
0.057
0.057
0.057
0.057
0.057
0.057
0.057
0.057
0.057
0.057
0.057
0.057
0.057
0.057
0.057
0.057
0.057
0.057
0.057
0.0575
0.0575
0.0575
0.0575
0.0575
0.0575
0.0575
0.0575
0.0575
0.0575
0.0575
0.0575
0.0575
0.0575
0.0575
0.0575
0.0575
0.0575
0.0575
0.0575
0.0575
0.0575
0.0575
0.0575
0.0575
0.0575
0.0575
0.0575
0.0575
0.0575
0.0575
0.0575
0.0575
0.0575
0.0575
0.0575
0.0575
0.0575
0.0575
0.058
0.058
0.058
0.058
0.058
0.058
0.058
0.058
0.058
0.058
0.058
0.058
0.058
0.058
0.058
0.058
0.058
0.058
0.058
0.058
0.058
0.058
0.058
0.058
0.058
0.058
0.058
0.058
0.058
0.058
0.058
0.058
0.058
0.058
0.058
0.058
0.058
0.058
0.058
0.058
0.058
0.058
0.058
0.058
0.058
0.058
0.058
0.058
0.058
0.058
0.058
0.0585
0.0585
0.0585
0.0585
0.0585
0.0585
0.0585
0.0585
0.0585
0.0585
0.0585
0.0585
0.0585
0.0585
0.0585
0.0585
0.0585
0.0585
0.0585
0.0585
0.0585
0.0585
0.0585
0.0585
0.0585
0.0585
0.0585
0.0585
0.0585
0.0585
0.0585
0.0585
0.0585
0.0585
0.0585
0.0585
0.0585
0.0585
0.0585
0.0585
0.0585
0.0585
0.0585
0.0585
0.0585
0.0585
0.0585
0.0585
0.0585
0.0585
0.0585
0.0585
0.0585
0.0585
0.0585
0.0585
0.0585
0.0585
0.0585
0.0585
0.0585
0.0585
0.0585
0.0585
0.0585
0.0585
0.0585
0.0585
0.0585
0.0585
0.0585
0.0585
0.0585
0.0585
0.0585
0.0585
0.0585
0.0585
0.0585
0.058
0.058
0.058
0.058
0.058
0.058
0.058
0.058
0.058
0.058
0.058
0.058
0.058
0.058
0.058
0.058
0.058
0.058
0.058
0.058
0.058
0.058
0.058
0.058
0.058
0.058
0.058
0.058
0.058
0.058
0.058
0.058
0.058
0.058
0.058
0.058
0.058
0.058
0.058
0.058
0.058
0.058
0.058
0.058
0.058
0.058
0.058
0.058
0.058
0.0575
0.0575
0.0575
0.0575
0.0575
0.0575
0.0575
0.0575
0.0575
0.0575
0.0575
0.0575
0.0575
0.0575
0.0575
0.057
0.057
0.057
0.057
0.057
0.057
0.057
0.057
0.0565
0.0565
0.0565
0.0565
0.0565
0.0565
0.0565
0.056
0.056
0.056
0.056
0.056
0.056
0.056
0.056
0.056
0.056
0.056
0.056
0.0555
0.0555
0.0555
0.0555
0.0555
0.0555
0.0555
0.0555
0.0555
0.0555
0.0555
0.0555
0.0555
0.0555
0.0555
0.0555
0.0555
0.0555
0.0555
0.0555
0.0555
0.0555
0.0555
0.0555
0.0555
0.0555
0.0555
0.055
0.055
0.055
0.055
0.055
0.055
0.055
0.055
0.055
0.055
0.055
0.055
0.055
0.055
0.055
0.055
0.055
0.055
0.055
0.055
0.055
0.055
0.055
0.055
0.055
0.055
0.055
0.055
0.055
0.055
0.055
0.055
0.055
0.055
0.055
0.055
0.055
0.055
0.055
0.055
0.055
0.055
0.055
0.055
0.055
0.055
0.055
0.055
0.055
0.055
0.055
0.055
0.055
0.055
0.055
0.055
0.055
0.055
0.055
0.055
0.055
0.055
0.055
0.055
0.055
0.055
0.055
0.055
0.055
0.055
0.055
0.055
0.055
0.055
0.055
0.055
0.055
0.055
0.055
0.055
0.055
0.055
0.055
0.055
0.055
0.055
0.055
0.055
0.055
0.055
0.055
0.055
0.055
0.055
0.055
0.055
0.055
0.055
0.055
0.055
0.055
0.055
0.055
0.055
0.055
0.0555
0.0555
0.0555
0.0555
0.0555
0.0555
0.0555
0.0555
0.0555
0.0555
0.0555
0.0555
0.055
0.055
0.055
0.055
0.055
0.055
0.055
0.055
0.055
0.055
0.055
0.055
0.055
0.055
0.055
0.055
0.055
0.055
0.055
0.055
0.055
0.055
0.055
0.055
0.055
0.055
0.055
0.055
0.055
0.055
0.055
0.055
0.055
0.055
0.055
0.055
0.055
0.055
0.055
0.055
0.055
0.055
0.055
0.055
0.055
0.055
0.055
0.055
0.055
0.055
0.055
0.055
0.055
0.055
0.055
0.055
0.055
0.055
0.055
0.055
0.055
0.0555
0.0555
0.0555
0.0555
0.0555
0.0555
0.0555
0.0555
0.0555
0.0555
0.0555
0.0555
0.0555
0.0555
0.0555
0.0555
0.0555
0.0555
0.0555
0.0555
0.0555
0.0555
0.0555
0.0555
0.0555
0.0555
0.0555
0.0555
0.0555
0.0555
0.0555
0.0555
0.0555
0.0555
0.0555
0.0555
0.0555
0.0555
0.0555
0.0555
0.0555
0.0555
0.0555
0.0555
0.0555
0.0555
0.0555
0.0555
0.0555
0.0555
0.0555
0.0555
0.0555
0.0555
0.0555
0.0555
0.0555
0.056
0.056
0.056
0.056
0.056
0.056
0.056
0.056
0.056
0.056
0.056
0.056
0.056
0.056
0.056
0.056
0.056
0.056
0.056
0.056
0.056
0.056
0.056
0.056
0.056
0.056
0.056
0.056
0.056
0.056
0.056
0.0565
0.0565
0.0565
0.0565
0.0565
0.0565
0.0565
0.0565
0.0565
0.0565
0.0565
0.0565
0.0565
0.0565
0.0565
0.0565
0.0565
0.0565
0.0565
0.0565
0.0565
0.0565
0.0565
0.0565
0.0565
0.0565
0.0565
0.0565
0.0565
0.0565
0.0565
0.0565
0.0565
0.0565
0.0565
0.0565
0.0565
0.0565
0.0565
0.0565
0.0565
0.0565
0.0565
0.0565
0.0565
0.0565
0.0565
0.0565
0.0565
0.0565
0.0565
0.0565
0.0565
0.0565
0.0565
0.0565
0.0565
0.0565
0.0565
0.0565
0.0565
0.0565
0.0565
0.0565
0.0565
0.0565
0.0565
0.0565
0.0565
0.0565
0.0565
0.0565
0.0565
0.0565
0.0565
0.0565
0.0565
0.0565
0.0565
0.0565
0.0565
0.0565
0.0565
0.0565
0.0565
0.0565
0.0565
0.0565
0.0565
0.0565
0.0565
0.0565
0.0565
0.0565
0.0565
0.0565
0.0565
0.0565
0.0565
0.0565
0.0565
0.0565
0.0565
0.0565
0.0565
0.0565
0.0565
0.0565
0.0565
0.0565
0.0565
0.0565
0.0565
0.0565
0.0565
0.0565
0.0565
0.0565
0.0565
0.0565
0.0565
0.0565
0.0565
0.0565
0.0565
0.0565
0.0565
0.0565
0.0565
0.0565
0.0565
0.0565
0.0565
0.0565
0.0565
0.0565
0.0565
0.0565
0.0565
0.0565
0.0565
0.0565
0.0565
0.0565
0.0565
0.0565
0.0565
0.0565
0.0565
0.0565
0.0565
0.0565
0.0565
0.0565
0.0565
0.0565
0.0565
0.0565
0.0565
0.0565
0.0565
0.0565
0.0565
0.0565
0.0565
0.0565
0.0565
0.0565
0.0565
0.0565
0.0565
0.0565
0.0565
0.0565
0.0565
0.0565
0.0565
0.0565
0.0565
0.0565
0.0565
0.0565
0.0565
0.0565
0.0565
0.0565
0.0565
0.0565
0.0565
0.0565
0.0565
0.0565
0.0565
0.0565
0.0565
0.0565
0.0565
0.0565
0.0565
0.0565
0.0565
0.0565
0.0565
0.0565
0.0565
0.0565
0.0565
0.0565
0.0565
0.0565
0.0565
0.0565
0.0565
0.0565
0.0565
0.0565
0.0565
0.0565
0.0565
0.0565
0.0565
0.0565
0.0565
0.0565
0.0565
0.0565
0.0565
0.0565
0.0565
0.0565
0.0565
0.0565
0.0565
0.0565
0.0565
0.0565
0.0565
0.0565
0.0565
0.0565
0.0565
0.0565
0.0565
0.0565
0.0565
0.0565
0.0565
0.0565
0.0565
0.0565
0.0565
0.0565
0.0565
0.0565
0.0565
0.0565
0.0565
0.0565
0.0565
0.0565
0.0565
0.0565
0.0565
0.0565
0.0565
0.0565
0.0565
0.0565
0.0565
0.0565
0.0565
0.0565
0.0565
0.0565
0.0565
0.0565
0.0565
0.0565
0.0565
0.0565
0.0565
0.0565
0.0565
0.0565
0.0565
0.0565
0.0565
0.0565
0.0565
0.0565
0.0565
0.0565
0.0565
0.0565
0.0565
0.0565
0.0565
0.0565
0.0565
0.0565
0.0565
0.0565
0.0565
0.0565
0.0565
0.0565
0.0565
0.0565
0.0565
0.0565
0.0565
0.0565
0.0565
0.0565
0.057
0.0575
0.0575
0.0575
0.0575
0.0575
0.0575
0.0575
0.0575
0.0575
0.0575
0.0575
0.0575
0.0575
0.0575
0.0575
0.0575
0.0575
0.0575
0.0575
0.057
0.057
0.057
0.057
0.057
0.057
0.057
0.057
0.057
0.057
0.057
0.057
0.057
0.057
0.057
0.057
0.057
0.057
0.057
0.057
0.057
0.057
0.057
0.057
0.057
0.057
0.057
0.057
0.057
0.057
0.057
0.057
0.057
0.057
0.057
0.057
0.057
0.057
0.057
0.057
0.057
0.057
0.057
0.057
0.057
0.057
0.057
0.057
0.057
0.057
0.057
0.057
0.057
0.057
0.057
0.057
0.057
0.057
0.057
0.057
0.057
0.057
0.057
0.057
0.057
0.057
0.057
0.057
0.057
0.057
0.057
0.057
0.057
0.057
0.057
0.057
0.057
0.057
0.057
0.057
0.057
0.057
0.057
0.057
0.057
0.057
0.057
0.057
0.057
0.057
0.057
0.057
0.057
0.057
0.057
0.057
0.057
0.057
0.057
0.057
0.057
0.057
0.0565
0.0565
0.0565
0.0565
0.0565
0.0565
0.0565
0.0565
0.0565
0.0565
0.0565
0.0565
0.0565
0.0565
0.0565
0.0565
0.0565
0.0565
0.0565
0.0565
0.0565
0.0565
0.0565
0.0565
0.0565
0.0565
0.0565
0.0565
0.0565
0.0565
0.0565
0.0565
0.0565
0.0565
0.0565
0.0565
0.0565
0.0565
0.0565
0.0565
0.0565
0.0565
0.0565
0.0565
0.0565
0.0565
0.0565
0.0565
0.0565
0.0565
0.0565
0.0565
0.0565
0.0565
0.0565
0.0565
0.0565
0.0565
0.0565
0.0565
0.0565
0.0565
0.0565
0.0565
0.0565
0.0565
0.0565
0.0565
0.0565
0.0565
0.0565
0.0565
0.0565
0.0565
0.0565
0.0565
0.0565
0.0565
0.0565
0.0565
0.0565
0.0565
0.0565
0.0565
0.0565
0.0565
0.0565
0.0565
0.0565
0.0565
0.0565
0.0565
0.0565
0.0565
0.0565
0.0565
0.0565
0.0565
0.0565
0.0565
0.0565
0.0565
0.0565
0.0565
0.0565
0.0565
0.0565
0.0565
0.056
0.056
0.056
0.056
0.056
0.056
0.056
0.056
0.056
0.056
0.056
0.056
0.056
0.056
0.056
0.056
0.056
0.056
0.056
0.056
0.056
0.056
0.056
0.056
0.056
0.056
0.056
0.056
0.056
0.056
0.056
0.056
0.056
0.056
0.056
0.056
0.056
0.056
0.056
0.056
0.056
0.056
0.056
0.056
0.056
0.056
0.056
0.056
0.056
0.056
0.056
0.056
0.056
0.056
0.056
0.056
0.056
0.056
0.056
0.056
0.056
0.056
0.056
0.056
0.056
0.056
0.056
0.056
0.056
0.056
0.056
0.056
0.056
0.056
0.056
0.056
0.056
0.056
0.056
0.056
0.056
0.056
0.056
0.056
0.056
0.056
0.056
0.056
0.056
0.056
0.056
0.056
0.056
0.056
0.056
0.056
0.056
0.056
0.056
0.056
0.056
0.056
0.056
0.056
0.056
0.056
0.056
0.056
0.056
0.056
0.056
0.056
0.056
0.056
0.056
0.056
0.056
0.056
0.056
0.056
0.056
0.056
0.056
0.056
0.056
0.056
0.056
0.056
0.056
0.056
0.056
0.056
0.056
0.056
0.056
0.056
0.056
0.056
0.056
0.056
0.056
0.056
0.056
0.056
0.056
0.056
0.056
0.056
0.056
0.056
0.056
0.056
0.056
0.056
0.056
0.056
0.056
0.056
0.056
0.056
0.056
0.056
0.056
0.056
0.056
0.056
0.056
0.056
0.056
0.056
0.056
0.056
0.056
0.056
0.056
0.056
0.056
0.056
0.056
0.056
0.056
0.056
0.056
0.056
0.056
0.056
0.056
0.056
0.056
0.056
0.056
0.056
0.056
0.056
0.056
0.056
0.056
0.056
0.056
0.056
0.056
0.056
0.056
0.056
0.056
0.056
0.056
0.056
0.056
0.056
0.056
0.056
0.056
0.056
0.056
0.056
0.056
0.056
0.056
0.056
0.056
0.056
0.056
0.056
0.056
0.056
0.056
0.056
0.056
0.056
0.056
0.056
0.056
0.056
0.056
0.056
0.056
0.056
0.056
0.056
0.056
0.056
0.056
0.056
0.056
0.056
0.056
0.056
0.056
0.056
0.056
0.056
0.056
0.056
0.056
0.056
0.056
0.056
0.056
0.056
0.056
0.056
0.056
0.056
0.056
0.056
0.056
0.056
0.056
0.056
0.056
0.056
0.056
0.056
0.056
0.056
0.056
0.056
0.056
0.056
0.056
0.056
0.056
0.056
0.056
0.056
0.056
0.056
0.056
0.056
0.056
0.056
0.056
0.056
0.056
0.056
0.056
0.056
0.056
0.056
0.056
0.056
0.056
0.056
0.056
0.056
0.056
0.056
0.056
0.056
0.056
0.056
0.0555
0.0555
0.0555
0.0555
0.0555
0.0555
0.0555
0.0555
0.0555
0.0555
0.0555
0.0555
0.0555
0.0555
0.0555
0.0555
0.0555
0.0555
0.0555
0.0555
0.0555
0.0555
0.0555
0.0555
0.0555
0.0555
0.0555
0.0555
0.0555
0.0555
0.0555
0.0555
0.0555
0.0555
0.0555
0.0555
0.0555
0.0555
0.0555
0.0555
0.0555
0.0555
0.0555
0.0555
0.0555
0.0555
0.0555
0.0555
0.0555
0.0555
0.0555
0.0555
0.0555
0.0555
0.0555
0.0555
0.0555
0.055
0.055
0.055
0.055
0.055
0.055
0.055
0.055
0.055
0.055
0.055
0.055
0.055
0.055
0.055
0.055
0.055
0.055
0.055
0.055
0.055
0.055
0.055
0.055
0.055
0.055
0.055
0.055
0.0545
0.0545
0.0545
0.0545
0.0545
0.0545
0.0545
0.0545
0.0545
0.0545
0.0545
0.0545
0.0545
0.0545
0.0545
0.0545
0.0545
0.0545
0.0545
0.0545
0.0545
0.0545
0.0545
0.0545
0.0545
0.0545
0.0545
0.0545
0.0545
0.0545
0.0545
0.0545
0.0545
0.0545
0.0545
0.0545
0.0545
0.0545
0.0545
0.0545
0.0545
0.0545
0.0545
0.0545
0.0545
0.0545
0.0545
0.0545
0.0545
0.0545
0.0545
0.0545
0.0545
0.0545
0.0545
0.0545
0.0545
0.0545
0.0545
0.0545
0.0545
0.0545
0.0545
0.0545
0.0545
0.0545
0.0545
0.0545
0.0545
0.0545
0.0545
0.0545
0.0545
0.0545
0.0545
0.0545
0.0545
0.0545
0.0545
0.0545
0.0545
0.0545
0.0545
0.0545
0.0545
0.0545
0.0545
0.0545
0.0545
0.0545
0.0545
0.0545
0.0545
0.0545
0.0545
0.0545
0.0545
0.0545
0.0545
0.0545
0.0545
0.0545
0.0545
0.054
0.054
0.054
0.054
0.054
0.054
0.054
0.054
0.054
0.054
0.054
0.054
0.054
0.054
0.054
0.054
0.054
0.054
0.054
0.054
0.054
0.054
0.0535
0.0535
0.0535
0.0535
0.0535
0.0535
0.0535
0.0535
0.0535
0.0535
0.0535
0.0535
0.0535
0.0535
0.0535
0.0535
0.0535
0.0535
0.0535
0.0535
0.0535
0.0535
0.0535
0.0535
0.0535
0.0535
0.0535
0.0535
0.0535
0.0535
0.0535
0.0535
0.0535
0.0535
0.0535
0.0535
0.0535
0.0535
0.0535
0.0535
0.0535
0.0535
0.0535
0.0535
0.0535
0.0535
0.0535
0.0535
0.0535
0.0535
0.0535
0.0535
0.0535
0.0535
0.0535
0.0535
0.0535
0.0535
0.0535
0.0535
0.0535
0.0535
0.0535
0.0535
0.0535
0.0535
0.0535
0.0535
0.0535
0.0535
0.0535
0.0535
0.0535
0.0535
0.0535
0.0535
0.0535
0.0535
0.0535
0.0535
0.0535
0.0535
0.0535
0.0535
0.0535
0.0535
0.0535
0.0535
0.0535
0.0535
0.0535
0.0535
0.0535
0.0535
0.0535
0.0535
0.0535
0.0535
0.0535
0.0535
0.0535
0.0535
0.0535
0.0535
0.0535
0.0535
0.0535
0.0535
0.0535
0.0535
0.0535
0.0535
0.0535
0.0535
0.0535
0.0535
0.0535
0.0535
0.0535
0.0535
0.0535
0.0535
0.0535
0.0535
0.0535
0.0535
0.0535
0.0535
0.0535
0.0535
0.0535
0.0535
0.0535
0.0535
0.0535
0.0535
0.0535
0.0535
0.0535
0.0535
0.0535
0.0535
0.0535
0.0535
0.0535
0.0535
0.0535
0.0535
0.0535
0.0535
0.0535
0.0535
0.0535
0.0535
0.0535
0.0535
0.0535
0.0535
0.0535
0.0535
0.0535
0.0535
0.0535
0.0535
0.0535
0.0535
0.0535
0.0535
0.0535
0.0535
0.0535
0.0535
0.0535
0.0535
0.0535
0.0535
0.0535
0.0535
0.0535
0.0535
0.0535
0.0535
0.0535
0.0535
0.0535
0.0535
0.0535
0.0535
0.0535
0.0535
0.0535
0.0535
0.0535
0.0535
0.0535
0.0535
0.0535
0.0535
0.0535
0.0535
0.0535
0.0535
0.0535
0.0535
0.0535
0.0535
0.0535
0.0535
0.0535
0.0535
0.0535
0.0535
0.0535
0.0535
0.0535
0.0535
0.0535
0.0535
0.0535
0.0535
0.0535
0.0535
0.0535
0.0535
0.0535
0.0535
0.0535
0.0535
0.0535
0.0535
0.0535
0.0535
0.0535
0.0535
0.0535
0.0535
0.0535
0.0535
0.0535
0.0535
0.0535
0.0535
0.0535
0.0535
0.0535
0.0535
0.0535
0.0535
0.0535
0.0535
0.0535
0.0535
0.0535
0.0535
0.0535
0.0535
0.0535
0.0535
0.0535
0.0535
0.0535
0.0535
0.0535
0.0535
0.0535
0.0535
0.0535
0.0535
0.0535
0.0535
0.0535
0.0535
0.0535
0.0535
0.0535
0.0535
0.0535
0.0535
0.0535
0.0535
0.0535
0.0535
0.0535
0.0535
0.0535
0.0535
0.0535
0.0535
0.0535
0.0535
0.0535
0.0535
0.0535
0.0535
0.0535
0.0535
0.0535
0.0535
0.0535
0.0535
0.0535
0.0535
0.0535
0.0535
0.0535
0.0535
0.0535
0.0535
0.0535
0.0535
0.0535
0.0535
0.0535
0.0535
0.0535
0.0535
0.0535
0.0535
0.0535
0.0535
0.0535
0.0535
0.0535
0.0535
0.0535
0.0535
0.0535
0.0535
0.0535
0.0535
0.0535
0.0535
0.0535
0.0535
0.0535
0.0535
0.0535
0.0535
0.0535
0.0535
0.0535
0.0535
0.0535
0.0535
0.0535
0.0535
0.0535
0.0535
0.0535
0.0535
0.0535
0.0535
0.0535
0.0535
0.0535
0.0535
0.0535
0.0535
0.0535
0.0535
0.0535
0.0535
0.0535
0.0535
0.0535
0.0535
0.0535
0.0535
0.0535
0.0535
0.0535
0.0535
0.0535
0.0535
0.0535
0.0535
0.0535
0.0535
0.0535
0.0535
0.0535
0.0535
0.0535
0.0535
0.0535
0.0535
0.0535
0.0535
0.0535
0.0535
0.0535
0.0535
0.0535
0.0535
0.0535
0.0535
0.0535
0.0535
0.0535
0.0535
0.0535
0.0535
0.0535
0.0535
0.0535
0.0535
0.0535
0.0535
0.0535
0.0535
0.0535
0.0535
0.0535
0.0535
0.0535
0.0535
0.0535
0.0535
0.0535
0.0535
0.0535
0.0535
0.0535
0.0535
0.0535
0.0535
0.0535
0.0535
0.0535
0.0535
0.0535
0.0535
0.0535
0.0535
0.0535
0.0535
0.0535
0.0535
0.0535
0.0535
0.0535
0.0535
0.0535
0.0535
0.0535
0.0535
0.0535
0.0535
0.0535
0.0535
0.0535
0.0535
0.0535
0.0535
0.0535
0.0535
0.054
0.054
0.054
0.054
0.054
0.054
0.054
0.054
0.054
0.054
0.054
0.054
0.054
0.054
0.054
0.054
0.054
0.054
0.054
0.054
0.054
0.054
0.054
0.054
0.054
0.054
0.054
0.054
0.054
0.054
0.054
0.054
0.054
0.054
0.054
0.054
0.054
0.054
0.054
0.054
0.054
0.054
0.054
0.054
0.054
0.054
0.054
0.054
0.054
0.054
0.054
0.054
0.054
0.054
0.054
0.054
0.054
0.054
0.054
0.054
0.054
0.054
0.054
0.054
0.054
0.054
0.054
0.054
0.054
0.054
0.054
0.054
0.054
0.054
0.054
0.054
0.054
0.054
0.054
0.054
0.054
0.054
0.054
0.054
0.054
0.054
0.054
0.054
0.054
0.054
0.054
0.054
0.054
0.054
0.054
0.054
0.054
0.054
0.054
0.054
0.054
0.054
0.054
0.054
0.054
0.054
0.054
0.054
0.054
0.054
0.054
0.054
0.054
0.054
0.054
0.054
0.054
0.054
0.054
0.054
0.054
0.054
0.054
0.054
0.054
0.054
0.054
0.054
0.054
0.054
0.054
0.054
0.054
0.054
0.054
0.054
0.054
0.054
0.054
0.054
0.054
0.054
0.054
0.054
0.054
0.054
0.054
0.054
0.054
0.054
0.054
0.054
0.054
0.054
0.054
0.054
0.054
0.054
0.054
0.054
0.054
0.054
0.054
0.054
0.054
0.054
0.054
0.054
0.054
0.054
0.054
0.054
0.054
0.054
0.054
0.054
0.054
0.054
0.054
0.054
0.054
0.054
0.0535
0.0535
0.0535
0.0535
0.0535
0.0535
0.0535
0.0535
0.0535
0.0535
0.0535
0.0535
0.0535
0.0535
0.0535
0.0535
0.0535
0.0535
0.0535
0.0535
0.0535
0.0535
0.0535
0.0535
0.0535
0.0535
0.0535
0.0535
0.0535
0.0535
0.0535
0.0535
0.0535
0.0535
0.0535
0.0535
0.0535
0.0535
0.0535
0.0535
0.0535
0.0535
0.0535
0.0535
0.0535
0.0535
0.0535
0.0535
0.0535
0.0535
0.0535
0.0535
0.0535
0.0535
0.0535
0.0535
0.0535
0.0535
0.0535
0.0535
0.0535
0.0535
0.0535
0.0535
0.0535
0.0535
0.0535
0.0535
0.0535
0.0535
0.0535
0.0535
0.0535
0.0535
0.0535
0.0535
0.0535
0.0535
0.0535
0.0535
0.0535
0.0535
0.0535
0.0535
0.0535
0.0535
0.0535
0.0535
0.0535
0.054
0.054
0.054
0.054
0.054
0.054
0.054
0.054
0.054
0.054
0.054
0.054
0.054
0.054
0.054
0.054
0.054
0.054
0.054
0.054
0.054
0.054
0.054
0.054
0.054
0.054
0.054
0.054
0.054
0.054
0.054
0.054
0.054
0.054
0.054
0.054
0.054
0.054
0.054
0.054
0.054
0.054
0.054
0.054
0.054
0.054
0.054
0.054
0.054
0.054
0.054
0.054
0.054
0.054
0.054
0.054
0.054
0.054
0.054
0.054
0.054
0.054
0.054
0.054
0.054
0.054
0.054
0.054
0.054
0.054
0.054
0.054
0.054
0.054
0.054
0.054
0.054
0.054
0.054
0.054
0.0535
0.0535
0.0535
0.0535
0.0535
0.0535
0.0535
0.0535
0.0535
0.0535
0.0535
0.0535
0.0535
0.0535
0.0535
0.0535
0.0535
0.0535
0.0535
0.0535
0.0535
0.0535
0.0535
0.0535
0.0535
0.0535
0.0535
0.0535
0.0535
0.0535
0.0535
0.0535
0.0535
0.0535
0.0535
0.0535
0.053
0.053
0.053
0.053
0.053
0.053
0.053
0.053
0.053
0.053
0.0525
0.0525
0.0525
0.0525
0.0525
0.0525
0.0525
0.0525
0.0525
0.0525
0.0525
0.0525
0.0525
0.0525
0.0525
0.0525
0.0525
0.0525
0.0525
0.0525
0.0525
0.0525
0.0525
0.0525
0.0525
0.0525
0.0525
0.0525
0.0525
0.0525
0.0525
0.0525
0.0525
0.0525
0.0525
0.0525
0.0525
0.0525
0.0525
0.0525
0.0525
0.0525
0.0525
0.0525
0.0525
0.0525
0.0525
0.0525
0.0525
0.0525
0.0525
0.0525
0.0525
0.0525
0.0525
0.0525
0.0525
0.0525
0.0525
0.0525
0.0525
0.0525
0.0525
0.0525
0.0525
0.0525
0.0525
0.0525
0.0525
0.0525
0.0525
0.0525
0.0525
0.0525
0.0525
0.0525
0.0525
0.0525
0.0525
0.0525
0.0525
0.0525
0.0525
0.0525
0.0525
0.0525
0.0525
0.0525
0.0525
0.0525
0.0525
0.0525
0.0525
0.0525
0.0525
0.0525
0.0525
0.0525
0.0525
0.0525
0.0525
0.0525
0.0525
0.0525
0.0525
0.0525
0.0525
0.0525
0.0525
0.0525
0.0525
0.0525
0.0525
0.0525
0.0525
0.0525
0.0525
0.0525
0.0525
0.0525
0.0525
0.0525
0.0525
0.0525
0.0525
0.0525
0.0525
0.0525
0.0525
0.0525
0.0525
0.0525
0.0525
0.0525
0.0525
0.0525
0.0525
0.0525
0.0525
0.0525
0.0525
0.0525
0.0525
0.0525
0.0525
0.0525
0.0525
0.0525
0.0525
0.0525
0.0525
0.0525
0.0525
0.0525
0.0525
0.0525
0.0525
0.0525
0.0525
0.0525
0.0525
0.0525
0.0525
0.0525
0.0525
0.0525
0.0525
0.0525
0.0525
0.0525
0.0525
0.0525
0.0525
0.0525
0.0525
0.0525
0.0525
0.0525
0.0525
0.0525
0.0525
0.0525
0.0525
0.0525
0.0525
0.0525
0.0525
0.0525
0.0525
0.0525
0.0525
0.0525
0.0525
0.0525
0.0525
0.0525
0.0525
0.0525
0.0525
0.0525
0.0525
0.0525
0.0525
0.0525
0.0525
0.0525
0.0525
0.0525
0.0525
0.0525
0.0525
0.0525
0.0525
0.0525
0.0525
0.0525
0.0525
0.0525
0.0525
0.0525
0.0525
0.0525
0.0525
0.0525
0.0525
0.0525
0.0525
0.0525
0.0525
0.0525
0.0525
0.0525
0.0525
0.0525
0.0525
0.0525
0.0525
0.0525
0.0525
0.0525
0.0525
0.0525
0.0525
0.0525
0.0525
0.0525
0.0525
0.0525
0.0525
0.0525
0.0525
0.0525
0.0525
0.0525
0.0525
0.0525
0.0525
0.0525
0.0525
0.0525
0.0525
0.0525
0.0525
0.0525
0.0525
0.0525
0.0525
0.0525
0.0525
0.0525
0.0525
0.0525
0.0525
0.0525
0.0525
0.0525
0.0525
0.0525
0.0525
0.0525
0.0525
0.0525
0.0525
0.0525
0.0525
0.0525
0.0525
0.0525
0.0525
0.0525
0.0525
0.0525
0.0525
0.0525
0.0525
0.0525
0.0525
0.0525
0.0525
0.0525
0.0525
0.0525
0.0525
0.0525
0.0525
0.0525
0.0525
0.0525
0.0525
0.0525
0.0525
0.0525
0.0525
0.0525
0.0525
0.0525
0.0525
0.0525
0.0525
0.0525
0.0525
0.0525
0.0525
0.0525
0.0525
0.0525
0.0525
0.0525
0.0525
0.0525
0.0525
0.0525
0.0525
0.0525
0.0525
0.0525
0.0525
0.0525
0.0525
0.0525
0.0525
0.0525
0.052
0.052
0.052
0.052
0.052
0.052
0.052
0.052
0.052
0.052
0.052
0.052
0.052
0.052
0.052
0.052
0.052
0.052
0.052
