1
0.99976
1.005
0.99151
0.97034
0.94677
0.9326
0.91972
0.90518
0.89417
0.88317
0.87368
0.86174
0.85174
0.83942
0.82634
0.8143
0.80355
0.79191
0.78051
0.769
0.75711
0.74542
0.7345
0.7232
0.71243
0.70242
0.69263
0.68311
0.67414
0.66484
0.65624
0.64747
0.63872
0.63022
0.62218
0.61468
0.60769
0.60117
0.59484
0.58891
0.5831
0.57748
0.57204
0.56685
0.56206
0.55728
0.55257
0.54809
0.54374
0.53983
0.536
0.53218
0.52837
0.5247
0.52113
0.5177
0.51452
0.51155
0.50877
0.50607
0.50344
0.50089
0.49861
0.49642
0.49423
0.49211
0.49001
0.48807
0.48614
0.48423
0.48238
0.48056
0.4788
0.47713
0.47547
0.47388
0.47225
0.47064
0.46908
0.46755
0.46604
0.4646
0.4632
0.46183
0.46047
0.45917
0.45802
0.45691
0.45584
0.4547
0.45359
0.45252
0.45144
0.45039
0.44937
0.44838
0.44742
0.44649
0.44559
0.44467
0.44372
0.44279
0.44182
0.44091
0.44001
0.43914
0.43824
0.43737
0.43648
0.43556
0.43466
0.43385
0.43304
0.43225
0.43147
0.4307
0.42998
0.42926
0.42854
0.42782
0.42708
0.42634
0.42559
0.42485
0.42413
0.42339
0.42267
0.42197
0.42129
0.42063
0.41999
0.41933
0.41869
0.41807
0.41746
0.41687
0.41624
0.41563
0.41502
0.41444
0.41387
0.41328
0.41268
0.41205
0.41147
0.41092
0.41039
0.40986
0.40935
0.40886
0.40838
0.40791
0.40743
0.40697
0.40651
0.40608
0.40565
0.40524
0.40483
0.40442
0.40399
0.40358
0.40319
0.40282
0.40246
0.4021
0.40173
0.40137
0.401
0.40063
0.40026
0.3999
0.39954
0.3992
0.39887
0.39854
0.39823
0.39792
0.39761
0.39731
0.397
0.39671
0.39642
0.39614
0.39587
0.3956
0.39534
0.39507
0.39481
0.39454
0.39428
0.39402
0.39376
0.39351
0.39327
0.39304
0.39281
0.39259
0.39237
0.39213
0.39187
0.3916
0.39134
0.39109
0.39084
0.3906
0.39036
0.39011
0.38987
0.38962
0.38939
0.38915
0.38891
0.38868
0.38843
0.38819
0.38795
0.38771
0.38748
0.38725
0.38703
0.38682
0.38662
0.38641
0.38622
0.38603
0.38582
0.38561
0.38541
0.38521
0.38501
0.38481
0.38459
0.38439
0.38419
0.384
0.38381
0.38363
0.38345
0.38327
0.38308
0.3829
0.38271
0.38253
0.38236
0.38219
0.38202
0.38185
0.38167
0.3815
0.38133
0.38116
0.38099
0.38082
0.38064
0.38047
0.38028
0.3801
0.37992
0.37973
0.37956
0.37936
0.37918
0.379
0.37882
0.37864
0.37846
0.37828
0.37809
0.37792
0.37774
0.37757
0.3774
0.37723
0.37706
0.37689
0.37672
0.37656
0.37639
0.37622
0.37605
0.37587
0.3757
0.37553
0.37537
0.3752
0.37505
0.37489
0.37474
0.3746
0.37446
0.37431
0.37418
0.37405
0.37392
0.3738
0.37366
0.37353
0.37339
0.37325
0.37312
0.37298
0.37285
0.37271
0.37257
0.37243
0.37229
0.37215
0.37201
0.37187
0.37174
0.3716
0.37146
0.37132
0.37119
0.37105
0.37091
0.37077
0.37063
0.3705
0.37037
0.37025
0.37012
0.36999
0.36985
0.36972
0.36959
0.36947
0.36934
0.36922
0.3691
0.36898
0.36887
0.36875
0.36863
0.36852
0.36841
0.36829
0.36817
0.36806
0.36795
0.36784
0.36773
0.36763
0.36752
0.36742
0.36732
0.36722
0.36712
0.36702
0.36692
0.36683
0.36674
0.36665
0.36655
0.36646
0.36637
0.36627
0.36618
0.36609
0.36599
0.3659
0.36581
0.36572
0.36563
0.36554
0.36545
0.36536
0.36527
0.36519
0.3651
0.36502
0.36494
0.36486
0.36478
0.36471
0.36463
0.36456
0.36449
0.36443
0.36436
0.3643
0.36423
0.36416
0.36409
0.36403
0.36396
0.3639
0.36383
0.36377
0.36371
0.36364
0.36358
0.36352
0.36346
0.36339
0.36333
0.36326
0.36319
0.36312
0.36305
0.36299
0.36292
0.36285
0.36279
0.36273
0.36266
0.3626
0.36253
0.36247
0.36241
0.36236
0.3623
0.36225
0.36219
0.36214
0.36209
0.36203
0.36198
0.36192
0.36186
0.36181
0.36176
0.36171
0.36165
0.36159
0.36153
0.36147
0.36141
0.36136
0.3613
0.36125
0.3612
0.36114
0.36109
0.36103
0.36097
0.36092
0.36086
0.36081
0.36075
0.3607
0.36064
0.36059
0.36054
0.36049
0.36043
0.36037
0.36032
0.36027
0.3602
0.36015
0.36009
0.36003
0.35997
0.35991
0.35984
0.35976
0.35968
0.3596
0.35952
0.35945
0.35939
0.35934
0.35928
0.35922
0.35916
0.35909
0.35903
0.35897
0.3589
0.35883
0.35876
0.35869
0.35862
0.35855
0.35848
0.35841
0.35835
0.3583
0.35824
0.35818
0.35813
0.35808
0.35803
0.35797
0.35792
0.35787
0.35783
0.35779
0.35774
0.35769
0.35763
0.35758
0.35752
0.35746
0.3574
0.35734
0.35728
0.35722
0.35716
0.3571
0.35704
0.35698
0.35693
0.35688
0.35683
0.35678
0.35673
0.35668
0.35664
0.35659
0.35653
0.35647
0.35641
0.35636
0.3563
0.35624
0.35618
0.35613
0.35607
0.35602
0.35596
0.35591
0.35587
0.35582
0.35577
0.35571
0.35566
0.35561
0.35556
0.35551
0.35546
0.35541
0.35536
0.35532
0.35527
0.35522
0.35518
0.35514
0.35509
0.35505
0.35501
0.35497
0.35493
0.35489
0.35484
0.3548
0.35476
0.35472
0.35468
0.35463
0.35458
0.35454
0.35449
0.35444
0.35439
0.35434
0.35429
0.35425
0.35421
0.35417
0.35411
0.35406
0.35401
0.35395
0.3539
0.35384
0.35379
0.35373
0.35367
0.35361
0.35355
0.35349
0.35344
0.35338
0.35332
0.35327
0.35321
0.35315
0.3531
0.35304
0.35298
0.35293
0.35287
0.35281
0.35275
0.3527
0.35264
0.35258
0.35253
0.35247
0.35241
0.35236
0.3523
0.35224
0.35219
0.35214
0.35208
0.35203
0.35197
0.35192
0.35187
0.35182
0.35177
0.35172
0.35167
0.35163
0.35159
0.35155
0.35151
0.35146
0.35141
0.35136
0.35131
0.35126
0.35121
0.35116
0.35111
0.35106
0.351
0.35095
0.3509
0.35084
0.35079
0.35073
0.35068
0.35063
0.35057
0.35052
0.35046
0.35041
0.35035
0.3503
0.35024
0.35019
0.35014
0.35009
0.35004
0.34998
0.34993
0.34988
0.34983
0.34978
0.34973
0.34968
0.34963
0.34958
0.34952
0.34947
0.34941
0.34936
0.34931
0.34926
0.34921
0.34916
0.34911
0.34906
0.34902
0.34897
0.34892
0.34887
0.34883
0.34878
0.34873
0.34868
0.34863
0.34858
0.34853
0.34847
0.34842
0.34837
0.34832
0.34827
0.34822
0.34817
0.34812
0.34808
0.34803
0.34798
0.34794
0.34789
0.34785
0.3478
0.34776
0.34771
0.34767
0.34762
0.34757
0.34753
0.34748
0.34743
0.34738
0.34733
0.34729
0.34724
0.34719
0.34715
0.3471
0.34705
0.34701
0.34696
0.34692
0.34688
0.34683
0.34679
0.34674
0.3467
0.34665
0.34661
0.34656
0.34651
0.34647
0.34642
0.34637
0.34633
0.34628
0.34624
0.3462
0.34616
0.34612
0.34608
0.34604
0.34601
0.34597
0.34594
0.3459
0.34587
0.34583
0.3458
0.34577
0.34573
0.3457
0.34567
0.34563
0.3456
0.34558
0.34555
0.34552
0.3455
0.34547
0.34544
0.34542
0.3454
0.34537
0.34534
0.34532
0.34529
0.34527
0.34524
0.34522
0.34519
0.34517
0.34514
0.34511
0.34508
0.34505
0.34502
0.34499
0.34495
0.34492
0.34489
0.34486
0.34483
0.34481
0.34478
0.34475
0.34472
0.34469
0.34466
0.34464
0.34461
0.34459
0.34457
0.34455
0.34453
0.34451
0.34449
0.34447
0.34445
0.34442
0.3444
0.34437
0.34435
0.34432
0.3443
0.34428
0.34425
0.34423
0.34421
0.34418
0.34416
0.34414
0.34412
0.3441
0.34408
0.34406
0.34405
0.34403
0.34401
0.34399
0.34397
0.34395
0.34393
0.34391
0.3439
0.34389
0.34388
0.34385
0.34383
0.3438
0.34377
0.34374
0.34371
0.34368
0.34365
0.34361
0.34357
0.34353
0.3435
0.34346
0.34342
0.34338
0.34334
0.34331
0.34327
0.34324
0.3432
0.34317
0.34313
0.3431
0.34307
0.34305
0.34302
0.34299
0.34296
0.34293
0.3429
0.34287
0.34285
0.34283
0.34281
0.34278
0.34276
0.34273
0.3427
0.34268
0.34266
0.34264
0.34262
0.3426
0.34259
0.34258
0.34257
0.34256
0.34256
0.34257
0.34257
0.34256
0.34255
0.34253
0.34251
0.3425
0.3425
0.34249
0.34247
0.34246
0.34245
0.34242
0.3424
0.34237
0.34235
0.34232
0.34228
0.34225
0.34221
0.34218
0.34215
0.34213
0.34211
0.34208
0.34205
0.34203
0.342
0.34197
0.34194
0.34192
0.34189
0.34187
0.34184
0.34182
0.34179
0.34177
0.34174
0.34172
0.34169
0.34167
0.34165
0.34164
0.34162
0.34161
0.3416
0.34158
0.34156
0.34154
0.34153
0.34151
0.3415
0.34149
0.34148
0.34146
0.34145
0.34145
0.34144
0.34142
0.34141
0.34141
0.3414
0.34139
0.34139
0.34139
0.34139
0.3414
0.3414
0.3414
0.34138
0.34137
0.34136
0.34134
0.34131
0.34129
0.34126
0.34124
0.34123
0.34121
0.34119
0.34117
0.34115
0.34113
0.34111
0.34108
0.34106
0.34104
0.34102
0.341
0.34098
0.34096
0.34094
0.34092
0.34089
0.34087
0.34085
0.34083
0.34081
0.34078
0.34076
0.34074
0.34071
0.34069
0.34067
0.34065
0.34062
0.3406
0.34058
0.34055
0.34054
0.34051
0.34049
0.34046
0.34044
0.34041
0.34038
0.34036
0.34033
0.34031
0.34028
0.34026
0.34023
0.3402
0.34018
0.34015
0.34012
0.3401
0.34008
0.34005
0.34003
0.34001
0.33998
0.33995
0.33993
0.3399
0.33987
0.33985
0.33983
0.33981
0.33978
0.33976
0.33974
0.33972
0.3397
0.33968
0.33966
0.33964
0.33962
0.3396
0.33958
0.33956
0.33954
0.33952
0.3395
0.33948
0.33946
0.33944
0.33942
0.3394
0.33938
0.33936
0.33934
0.33932
0.33929
0.33927
0.33925
0.33923
0.3392
0.33918
0.33915
0.33913
0.3391
0.33907
0.33904
0.33902
0.33899
0.33896
0.33893
0.3389
0.33887
0.33884
0.33881
0.33878
0.33875
0.33871
0.33868
0.33865
0.33862
0.33858
0.33855
0.33851
0.33848
0.33844
0.33841
0.33837
0.33834
0.33831
0.33827
0.33824
0.33821
0.33817
0.33814
0.33812
0.33809
0.33806
0.33804
0.33801
0.33798
0.33796
0.33794
0.33791
0.33789
0.33787
0.33785
0.33783
0.33781
0.33779
0.33777
0.33776
0.33774
0.33773
0.33772
0.33771
0.3377
0.33769
0.33767
0.33766
0.33764
0.33763
0.33762
0.3376
0.33759
0.33757
0.33755
0.33754
0.33753
0.33752
0.33751
0.3375
0.33748
0.33748
0.33747
0.33747
0.33747
0.33746
0.33746
0.33745
0.33743
0.33742
0.33741
0.33739
0.33738
0.33736
0.33735
0.33733
0.33731
0.33729
0.33728
0.33726
0.33724
0.33722
0.3372
0.33717
0.33715
0.33713
0.33711
0.33709
0.33707
0.33704
0.33702
0.337
0.33697
0.33694
0.33692
0.3369
0.33688
0.33686
0.33684
0.33682
0.3368
0.33677
0.33675
0.33674
0.33672
0.33671
0.3367
0.33669
0.33668
0.33666
0.33664
0.33662
0.3366
0.33658
0.33656
0.33655
0.33653
0.33651
0.33649
0.33646
0.33644
0.33642
0.3364
0.33638
0.33636
0.33634
0.33632
0.33629
0.33627
0.33625
0.33624
0.33622
0.3362
0.33618
0.33616
0.33614
0.33613
0.33611
0.33609
0.33607
0.33605
0.33603
0.33601
0.33598
0.33596
0.33594
0.33592
0.3359
0.33589
0.33587
0.33585
0.33583
0.33581
0.3358
0.33578
0.33576
0.33574
0.33572
0.3357
0.33568
0.33566
0.33564
0.33563
0.33561
0.33559
0.33557
0.33556
0.33554
0.33552
0.3355
0.33548
0.33547
0.33545
0.33543
0.33542
0.3354
0.33539
0.33537
0.33536
0.33534
0.33532
0.33531
0.33529
0.33527
0.33526
0.33524
0.33523
0.33521
0.33519
0.33518
0.33516
0.33514
0.33513
0.33511
0.3351
0.33508
0.33506
0.33504
0.33502
0.335
0.33498
0.33497
0.33495
0.33493
0.33491
0.33489
0.33488
0.33486
0.33484
0.33483
0.33481
0.33479
0.33478
0.33476
0.33474
0.33473
0.33471
0.33469
0.33467
0.33465
0.33463
0.33461
0.3346
0.33457
0.33455
0.33453
0.33451
0.33449
0.33448
0.33446
0.33444
0.33443
0.33441
0.33439
0.33438
0.33437
0.33435
0.33434
0.33433
0.33432
0.33431
0.3343
0.33429
0.33428
0.33427
0.33427
0.33426
0.33425
0.33424
0.33423
0.33423
0.33422
0.33421
0.33421
0.3342
0.33419
0.33418
0.33418
0.33417
0.33416
0.33416
0.33415
0.33414
0.33413
0.33412
0.33411
0.33411
0.33411
0.3341
0.3341
0.3341
0.33411
0.33411
0.33412
0.33412
0.33412
0.33412
0.33412
0.33412
0.33412
0.33412
0.33412
0.33411
0.3341
0.33409
0.33408
0.33406
0.33405
0.33404
0.33402
0.33401
0.334
0.33398
0.33396
0.33395
0.33393
0.33391
0.33389
0.33387
0.33385
0.33383
0.33381
0.33379
0.33376
0.33373
0.3337
0.33368
0.33365
0.33363
0.3336
0.33358
0.33356
0.33354
0.33352
0.33351
0.3335
0.33349
0.33348
0.33346
0.33345
0.33344
0.33342
0.33341
0.3334
0.33338
0.33337
0.33335
0.33334
0.33333
0.33332
0.33331
0.33329
0.33328
0.33327
0.33326
0.33325
0.33324
0.33323
0.33322
0.33321
0.3332
0.33319
0.33317
0.33316
0.33315
0.33314
0.33313
0.33312
0.33311
0.33311
0.3331
0.33309
0.33308
0.33307
0.33306
0.33305
0.33304
0.33303
0.33302
0.33301
0.333
0.33299
0.33299
0.33298
0.33297
0.33296
0.33295
0.33294
0.33292
0.33291
0.3329
0.33288
0.33287
0.33286
0.33285
0.33284
0.33282
0.33281
0.3328
0.33278
0.33277
0.33276
0.33274
0.33273
0.33271
0.3327
0.33269
0.33268
0.33267
0.33266
0.33265
0.33264
0.33263
0.33262
0.33261
0.3326
0.33259
0.33258
0.33257
0.33256
0.33255
0.33254
0.33253
0.33252
0.33251
0.33251
0.3325
0.33249
0.33248
0.33247
0.33246
0.33245
0.33243
0.33242
0.3324
0.33238
0.33237
0.33235
0.33233
0.33231
0.3323
0.33228
0.33227
0.33226
0.33225
0.33224
0.33223
0.33221
0.3322
0.33218
0.33217
0.33215
0.33213
0.33212
0.3321
0.33208
0.33207
0.33205
0.33204
0.33202
0.332
0.33199
0.33198
0.33196
0.33194
0.33192
0.33191
0.3319
0.33189
0.33187
0.33186
0.33184
0.33183
0.33181
0.3318
0.33178
0.33176
0.33174
0.33173
0.33171
0.3317
0.33168
0.33166
0.33165
0.33164
0.33162
0.33161
0.33159
0.33158
0.33156
0.33155
0.33153
0.33151
0.3315
0.33148
0.33146
0.33145
0.33143
0.33141
0.3314
0.33138
0.33136
0.33134
0.33132
0.3313
0.33128
0.33127
0.33125
0.33124
0.33123
0.33122
0.33121
0.3312
0.33119
0.33118
0.33116
0.33115
0.33113
0.33112
0.33111
0.3311
0.33109
0.33108
0.33107
0.33107
0.33106
0.33105
0.33104
0.33103
0.33102
0.33101
0.33099
0.33098
0.33097
0.33097
0.33096
0.33095
0.33095
0.33095
0.33094
0.33094
0.33093
0.33093
0.33093
0.33093
0.33092
0.33092
0.33092
0.33091
0.33091
0.33091
0.33091
0.3309
0.3309
0.3309
0.33089
0.33089
0.33089
0.33088
0.33088
0.33088
0.33087
0.33087
0.33087
0.33086
0.33086
0.33086
0.33086
0.33086
0.33085
0.33085
0.33085
0.33085
0.33085
0.33084
0.33084
0.33084
0.33083
0.33083
0.33083
0.33082
0.33082
0.33082
0.33081
0.33081
0.33081
0.33081
0.3308
0.3308
0.3308
0.3308
0.33079
0.33079
0.33079
0.33079
0.33078
0.33078
0.33077
0.33077
0.33076
0.33075
0.33074
0.33074
0.33073
0.33072
0.33071
0.3307
0.33069
0.33069
0.33068
0.33067
0.33066
0.33065
0.33065
0.33064
0.33064
0.33064
0.33063
0.33063
0.33062
0.33062
0.33061
0.3306
0.33059
0.33058
0.33057
0.33056
0.33056
0.33055
0.33053
0.33052
0.33051
0.3305
0.33048
0.33046
0.33045
0.33043
0.33041
0.33039
0.33038
0.33037
0.33036
0.33034
0.33033
0.33032
0.33031
0.3303
0.33028
0.33027
0.33025
0.33024
0.33023
0.33022
0.33021
0.33021
0.3302
0.33019
0.33018
0.33017
0.33016
0.33015
0.33014
0.33013
0.33012
0.33011
0.3301
0.33009
0.33008
0.33006
0.33005
0.33004
0.33003
0.33002
0.33001
0.33
0.32999
0.32998
0.32998
0.32997
0.32996
0.32995
0.32994
0.32993
0.32992
0.32991
0.3299
0.32989
0.32988
0.32987
0.32986
0.32985
0.32984
0.32983
0.32982
0.32981
0.3298
0.3298
0.32979
0.32978
0.32978
0.32977
0.32976
0.32975
0.32974
0.32973
0.32972
0.32972
0.32971
0.3297
0.32969
0.32968
0.32967
0.32966
0.32965
0.32964
0.32963
0.32962
0.32961
0.3296
0.32959
0.32958
0.32956
0.32955
0.32954
0.32953
0.32953
0.32952
0.32951
0.32951
0.3295
0.3295
0.32949
0.32949
0.32948
0.32948
0.32948
0.32947
0.32947
0.32946
0.32946
0.32946
0.32945
0.32945
0.32945
0.32944
0.32944
0.32944
0.32944
0.32943
0.32943
0.32942
0.32942
0.32942
0.32941
0.32941
0.3294
0.3294
0.32939
0.32939
0.32939
0.32938
0.32938
0.32937
0.32937
0.32936
0.32936
0.32935
0.32934
0.32934
0.32933
0.32932
0.32932
0.32931
0.3293
0.3293
0.32929
0.32929
0.32928
0.32927
0.32926
0.32925
0.32924
0.32923
0.32922
0.32921
0.3292
0.32919
0.32918
0.32917
0.32916
0.32914
0.32913
0.32912
0.32911
0.3291
0.32909
0.32909
0.32908
0.32908
0.32907
0.32906
0.32906
0.32905
0.32905
0.32904
0.32904
0.32903
0.32903
0.32902
0.32902
0.32901
0.32901
0.329
0.329
0.329
0.32899
0.32898
0.32898
0.32897
0.32897
0.32896
0.32895
0.32895
0.32894
0.32894
0.32894
0.32893
0.32893
0.32892
0.32892
0.32892
0.32892
0.32892
0.32892
0.32892
0.32892
0.32891
0.32891
0.32891
0.3289
0.3289
0.3289
0.32889
0.32889
0.32888
0.32888
0.32887
0.32887
0.32887
0.32886
0.32886
0.32886
0.32886
0.32885
0.32885
0.32885
0.32885
0.32885
0.32884
0.32884
0.32884
0.32884
0.32884
0.32884
0.32883
0.32883
0.32883
0.32883
0.32883
0.32883
0.32882
0.32882
0.32882
0.32881
0.32881
0.32881
0.3288
0.3288
0.32879
0.32879
0.32879
0.32878
0.32878
0.32877
0.32877
0.32876
0.32876
0.32875
0.32875
0.32874
0.32874
0.32874
0.32873
0.32873
0.32872
0.32872
0.32871
0.3287
0.3287
0.3287
0.32869
0.32869
0.32868
0.32868
0.32867
0.32867
0.32866
0.32866
0.32866
0.32865
0.32864
0.32864
0.32863
0.32862
0.32861
0.3286
0.32859
0.32858
0.32858
0.32857
0.32857
0.32856
0.32856
0.32855
0.32855
0.32855
0.32854
0.32854
0.32854
0.32854
0.32853
0.32853
0.32853
0.32852
0.32852
0.32852
0.32852
0.32851
0.3285
0.3285
0.32849
0.32848
0.32848
0.32847
0.32846
0.32845
0.32844
0.32844
0.32843
0.32842
0.32841
0.3284
0.3284
0.32839
0.32838
0.32837
0.32836
0.32835
0.32834
0.32833
0.32833
0.32832
0.32832
0.32831
0.32831
0.32831
0.32831
0.32831
0.3283
0.3283
0.32829
0.32829
0.32829
0.32828
0.32828
0.32827
0.32827
0.32827
0.32826
0.32826
0.32825
0.32825
0.32824
0.32824
0.32823
0.32823
0.32823
0.32822
0.32822
0.32822
0.32821
0.32821
0.32821
0.3282
0.3282
0.3282
0.32819
0.32819
0.32819
0.32819
0.32819
0.32818
0.32818
0.32818
0.32818
0.32818
0.32818
0.32817
0.32817
0.32817
0.32817
0.32817
0.32816
0.32816
0.32816
0.32815
0.32815
0.32815
0.32814
0.32814
0.32814
0.32814
0.32814
0.32813
0.32813
0.32813
0.32813
0.32812
0.32812
0.32811
0.32811
0.32811
0.3281
0.3281
0.32809
0.32809
0.32808
0.32808
0.32808
0.32807
0.32807
0.32807
0.32806
0.32806
0.32805
0.32805
0.32804
0.32804
0.32803
0.32803
0.32803
0.32803
0.32802
0.32802
0.32802
0.32801
0.32801
0.32801
0.328
0.328
0.328
0.32799
0.32799
0.32799
0.32798
0.32798
0.32798
0.32797
0.32797
0.32797
0.32797
0.32797
0.32796
0.32796
0.32796
0.32796
0.32796
0.32796
0.32796
0.32795
0.32795
0.32795
0.32795
0.32795
0.32795
0.32795
0.32795
0.32795
0.32795
0.32795
0.32794
0.32794
0.32793
0.32793
0.32793
0.32792
0.32792
0.32792
0.32791
0.32791
0.32791
0.32791
0.3279
0.3279
0.3279
0.32789
0.32789
0.32789
0.32788
0.32788
0.32788
0.32787
0.32786
0.32786
0.32785
0.32785
0.32784
0.32784
0.32783
0.32783
0.32782
0.32782
0.32781
0.32781
0.3278
0.3278
0.32779
0.32779
0.32778
0.32778
0.32777
0.32777
0.32777
0.32776
0.32776
0.32775
0.32775
0.32774
0.32774
0.32773
0.32773
0.32772
0.32772
0.32771
0.3277
0.3277
0.32769
0.32769
0.32768
0.32768
0.32767
0.32767
0.32767
0.32766
0.32766
0.32765
0.32765
0.32764
0.32764
0.32763
0.32763
0.32762
0.32762
0.32762
0.32761
0.32761
0.3276
0.3276
0.32759
0.32759
0.32758
0.32758
0.32758
0.32757
0.32757
0.32757
0.32756
0.32756
0.32756
0.32755
0.32755
0.32755
0.32754
0.32754
0.32754
0.32754
0.32753
0.32753
0.32753
0.32753
0.32752
0.32752
0.32751
0.32751
0.3275
0.3275
0.32749
0.32749
0.32749
0.32748
0.32748
0.32747
0.32746
0.32746
0.32745
0.32745
0.32745
0.32744
0.32744
0.32744
0.32743
0.32743
0.32743
0.32742
0.32742
0.32742
0.32742
0.32741
0.32741
0.3274
0.3274
0.3274
0.32739
0.32739
0.32739
0.32739
0.32738
0.32738
0.32738
0.32737
0.32737
0.32736
0.32736
0.32736
0.32735
0.32735
0.32734
0.32734
0.32734
0.32733
0.32733
0.32732
0.32732
0.32732
0.32732
0.32731
0.32731
0.32731
0.32731
0.3273
0.3273
0.3273
0.32729
0.32729
0.32729
0.32728
0.32728
0.32728
0.32727
0.32727
0.32727
0.32726
0.32726
0.32726
0.32725
0.32725
0.32725
0.32724
0.32724
0.32723
0.32723
0.32722
0.32721
0.32721
0.3272
0.3272
0.32719
0.32718
0.32718
0.32717
0.32717
0.32716
0.32716
0.32715
0.32715
0.32714
0.32713
0.32713
0.32712
0.32712
0.32711
0.3271
0.32709
0.32709
0.32708
0.32707
0.32707
0.32706
0.32705
0.32705
0.32704
0.32703
0.32702
0.32702
0.32701
0.327
0.327
0.32699
0.32698
0.32697
0.32697
0.32696
0.32695
0.32695
0.32694
0.32693
0.32693
0.32692
0.32691
0.32691
0.3269
0.3269
0.32689
0.32689
0.32688
0.32688
0.32687
0.32686
0.32686
0.32685
0.32685
0.32684
0.32684
0.32683
0.32683
0.32682
0.32681
0.32681
0.3268
0.32679
0.32679
0.32678
0.32677
0.32676
0.32676
0.32675
0.32674
0.32674
0.32673
0.32673
0.32672
0.32672
0.32671
0.32671
0.3267
0.3267
0.32669
0.32669
0.32669
0.32668
0.32668
0.32667
0.32667
0.32666
0.32666
0.32666
0.32665
0.32665
0.32664
0.32664
0.32664
0.32663
0.32663
0.32662
0.32662
0.32661
0.32661
0.3266
0.3266
0.32659
0.32659
0.32658
0.32658
0.32657
0.32657
0.32657
0.32656
0.32656
0.32655
0.32655
0.32655
0.32654
0.32654
0.32653
0.32653
0.32652
0.32652
0.32652
0.32651
0.32651
0.32651
0.3265
0.3265
0.32649
0.32649
0.32649
0.32648
0.32648
0.32647
0.32647
0.32647
0.32646
0.32646
0.32645
0.32645
0.32645
0.32644
0.32644
0.32643
0.32643
0.32643
0.32642
0.32642
0.32641
0.32641
0.32641
0.3264
0.3264
0.3264
0.32639
0.32639
0.32639
0.32638
0.32638
0.32638
0.32637
0.32637
0.32637
0.32636
0.32636
0.32636
0.32635
0.32635
0.32635
0.32635
0.32634
0.32634
0.32634
0.32633
0.32633
0.32633
0.32632
0.32632
0.32632
0.32632
0.32631
0.32631
0.32631
0.32631
0.3263
0.3263
0.3263
0.3263
0.32629
0.32629
0.32629
0.32628
0.32628
0.32628
0.32627
0.32627
0.32627
0.32626
0.32626
0.32625
0.32625
0.32625
0.32624
0.32624
0.32623
0.32622
0.32622
0.32621
0.32621
0.32621
0.3262
0.3262
0.32619
0.32619
0.32619
0.32618
0.32618
0.32618
0.32617
0.32617
0.32617
0.32617
0.32617
0.32616
0.32616
0.32616
0.32616
0.32616
0.32616
0.32616
0.32616
0.32616
0.32616
0.32615
0.32615
0.32615
0.32615
0.32615
0.32615
0.32615
0.32615
0.32615
0.32615
0.32615
0.32615
0.32615
0.32615
0.32615
0.32614
0.32614
0.32614
0.32614
0.32614
0.32614
0.32614
0.32613
0.32613
0.32613
0.32613
0.32613
0.32613
0.32613
0.32613
0.32613
0.32613
0.32613
0.32614
0.32613
0.32613
0.32613
0.32613
0.32613
0.32612
0.32612
0.32611
0.32611
0.32611
0.3261
0.3261
0.3261
0.3261
0.32609
0.32609
0.32609
0.32609
0.32609
0.32609
0.32609
0.32609
0.32609
0.32608
0.32608
0.32609
0.32609
0.32609
0.32609
0.32609
0.32609
0.32608
0.32608
0.32608
0.32608
0.32608
0.32607
0.32607
0.32607
0.32606
0.32606
0.32605
0.32605
0.32605
0.32604
0.32604
0.32604
0.32603
0.32603
0.32603
0.32603
0.32603
0.32602
0.32602
0.32602
0.32601
0.32601
0.32601
0.32601
0.32601
0.326
0.326
0.326
0.326
0.326
0.326
0.326
0.326
0.32599
0.32599
0.32599
0.32599
0.32599
0.32599
0.32599
0.32598
0.32598
0.32598
0.32598
0.32598
0.32597
0.32597
0.32597
0.32596
0.32596
0.32596
0.32596
0.32596
0.32595
0.32595
0.32595
0.32595
0.32595
0.32594
0.32594
0.32594
0.32594
0.32594
0.32594
0.32593
0.32593
0.32593
0.32593
0.32593
0.32593
0.32592
0.32592
0.32592
0.32592
0.32591
0.32591
0.32591
0.3259
0.3259
0.3259
0.32589
0.32589
0.32589
0.32589
0.32588
0.32588
0.32588
0.32587
0.32587
0.32587
0.32586
0.32586
0.32586
0.32585
0.32585
0.32585
0.32585
0.32584
0.32584
0.32584
0.32584
0.32583
0.32583
0.32583
0.32583
0.32582
0.32582
0.32582
0.32582
0.32581
0.32581
0.32581
0.3258
0.3258
0.3258
0.32579
0.32579
0.32579
0.32579
0.32578
0.32578
0.32578
0.32578
0.32577
0.32577
0.32577
0.32577
0.32577
0.32576
0.32576
0.32576
0.32575
0.32575
0.32575
0.32575
0.32574
0.32574
0.32574
0.32574
0.32573
0.32573
0.32573
0.32572
0.32572
0.32572
0.32571
0.32571
0.32571
0.32571
0.32571
0.3257
0.3257
0.3257
0.32569
0.32569
0.32569
0.32568
0.32568
0.32568
0.32568
0.32568
0.32567
0.32567
0.32567
0.32567
0.32567
0.32567
0.32567
0.32567
0.32567
0.32566
0.32566
0.32566
0.32566
0.32566
0.32566
0.32566
0.32565
0.32565
0.32565
0.32565
0.32565
0.32565
0.32565
0.32565
0.32565
0.32565
0.32565
0.32565
0.32565
0.32565
0.32565
0.32564
0.32564
0.32564
0.32564
0.32564
0.32564
0.32564
0.32564
0.32564
0.32564
0.32564
0.32564
0.32564
0.32564
0.32564
0.32564
0.32564
0.32565
0.32564
0.32564
0.32564
0.32564
0.32564
0.32564
0.32564
0.32564
0.32564
0.32564
0.32564
0.32564
0.32564
0.32564
0.32564
0.32564
0.32564
0.32564
0.32564
0.32564
0.32564
0.32564
0.32564
0.32564
0.32564
0.32563
0.32563
0.32563
0.32563
0.32563
0.32563
0.32563
0.32562
0.32562
0.32562
0.32562
0.32561
0.32561
0.32561
0.3256
0.3256
0.3256
0.3256
0.3256
0.32559
0.32559
0.32559
0.32559
0.32558
0.32558
0.32558
0.32558
0.32557
0.32557
0.32557
0.32556
0.32556
0.32556
0.32555
0.32555
0.32554
0.32554
0.32553
0.32553
0.32552
0.32552
0.32552
0.32551
0.32551
0.3255
0.3255
0.32549
0.32549
0.32549
0.32548
0.32548
0.32547
0.32547
0.32547
0.32546
0.32546
0.32546
0.32545
0.32545
0.32545
0.32544
0.32544
0.32544
0.32543
0.32543
0.32543
0.32542
0.32542
0.32542
0.32541
0.32541
0.32541
0.32541
0.3254
0.3254
0.3254
0.32539
0.32539
0.32539
0.32538
0.32538
0.32538
0.32537
0.32537
0.32537
0.32537
0.32536
0.32536
0.32536
0.32536
0.32535
0.32535
0.32535
0.32535
0.32534
0.32534
0.32534
0.32533
0.32533
0.32533
0.32533
0.32532
0.32532
0.32532
0.32531
0.32531
0.32531
0.32531
0.3253
0.3253
0.3253
0.32529
0.32529
0.32529
0.32528
0.32528
0.32528
0.32527
0.32527
0.32527
0.32526
0.32526
0.32526
0.32525
0.32525
0.32525
0.32525
0.32525
0.32524
0.32524
0.32524
0.32524
0.32523
0.32523
0.32523
0.32523
0.32522
0.32522
0.32522
0.32522
0.32521
0.32521
0.3252
0.3252
0.3252
0.32519
0.32519
0.32519
0.32519
0.32518
0.32518
0.32518
0.32517
0.32517
0.32517
0.32516
0.32516
0.32516
0.32515
0.32515
0.32514
0.32514
0.32514
0.32513
0.32513
0.32513
0.32512
0.32512
0.32512
0.32511
0.32511
0.32511
0.32511
0.3251
0.3251
0.3251
0.3251
0.32509
0.32509
0.32509
0.32508
0.32508
0.32508
0.32508
0.32507
0.32507
0.32507
0.32507
0.32506
0.32506
0.32506
0.32506
0.32505
0.32505
0.32505
0.32505
0.32504
0.32504
0.32504
0.32504
0.32504
0.32503
0.32503
0.32503
0.32503
0.32502
0.32502
0.32502
0.32502
0.32502
0.32501
0.32501
0.32501
0.32501
0.32501
0.32501
0.32501
0.325
0.325
0.325
0.32499
0.32499
0.32499
0.32498
0.32498
0.32498
0.32497
0.32497
0.32497
0.32496
0.32496
0.32495
0.32495
0.32495
0.32495
0.32494
0.32494
0.32494
0.32493
0.32493
0.32493
0.32493
0.32492
0.32492
0.32492
0.32492
0.32492
0.32491
0.32491
0.32491
0.32491
0.32491
0.32491
0.3249
0.3249
0.3249
0.3249
0.3249
0.3249
0.32489
0.32489
0.32489
0.32489
0.32488
0.32488
0.32488
0.32488
0.32488
0.32488
0.32488
0.32487
0.32487
0.32487
0.32487
0.32487
0.32487
0.32487
0.32487
0.32487
0.32487
0.32487
0.32487
0.32486
0.32486
0.32486
0.32486
0.32486
0.32486
0.32485
0.32485
0.32485
0.32485
0.32485
0.32485
0.32484
0.32484
0.32484
0.32484
0.32484
0.32484
0.32483
0.32483
0.32483
0.32483
0.32483
0.32483
0.32483
0.32483
0.32483
0.32483
0.32483
0.32483
0.32483
0.32484
0.32484
0.32484
0.32484
0.32484
0.32484
0.32484
0.32484
0.32484
0.32485
0.32485
0.32485
0.32485
0.32485
0.32485
0.32485
0.32485
0.32484
0.32484
0.32484
0.32484
0.32484
0.32484
0.32484
0.32484
0.32484
0.32484
0.32484
0.32484
0.32484
0.32484
0.32484
0.32484
0.32484
0.32484
0.32484
0.32484
0.32484
0.32484
0.32484
0.32484
0.32484
0.32484
0.32484
0.32484
0.32484
0.32484
0.32484
0.32484
0.32484
0.32484
0.32483
0.32483
0.32483
0.32483
0.32484
0.32484
0.32484
0.32484
0.32484
0.32484
0.32484
0.32484
0.32484
0.32485
0.32485
0.32485
0.32485
0.32485
0.32485
0.32485
0.32485
0.32486
0.32486
0.32486
0.32486
0.32486
0.32486
0.32486
0.32486
0.32486
0.32486
0.32486
0.32486
0.32486
0.32486
0.32486
0.32486
0.32486
0.32486
0.32486
0.32486
0.32486
0.32486
0.32486
0.32486
0.32486
0.32486
0.32486
0.32486
0.32486
0.32486
0.32486
0.32486
0.32486
0.32487
0.32487
0.32487
0.32487
0.32488
0.32488
0.32488
0.32488
0.32488
0.32488
0.32489
0.32489
0.32489
0.3249
0.3249
0.3249
0.32491
0.32491
0.32491
0.32491
0.32492
0.32492
0.32492
0.32492
0.32493
0.32493
0.32493
0.32493
0.32493
0.32493
0.32493
0.32493
0.32493
0.32493
0.32493
0.32493
0.32493
0.32493
0.32493
0.32493
0.32493
0.32493
0.32493
0.32493
0.32493
0.32493
0.32493
0.32493
0.32493
0.32493
0.32493
0.32493
0.32493
0.32493
0.32493
0.32493
0.32493
0.32493
0.32493
0.32492
0.32492
0.32492
0.32493
0.32493
0.32493
0.32493
0.32494
0.32494
0.32494
0.32495
0.32495
0.32495
0.32495
0.32495
0.32495
0.32495
0.32495
0.32496
0.32496
0.32496
0.32496
0.32496
0.32496
0.32496
0.32496
0.32496
0.32496
0.32496
0.32496
0.32496
0.32496
0.32496
0.32496
0.32496
0.32497
0.32497
0.32497
0.32497
0.32497
0.32497
0.32497
0.32497
0.32497
0.32497
0.32497
0.32497
0.32497
0.32497
0.32497
0.32497
0.32497
0.32497
0.32497
0.32497
0.32497
0.32496
0.32496
0.32496
0.32496
0.32496
0.32496
0.32496
0.32495
0.32495
0.32495
0.32495
0.32495
0.32495
0.32495
0.32495
0.32495
0.32495
0.32494
0.32494
0.32494
0.32494
0.32494
0.32494
0.32494
0.32494
0.32494
0.32494
0.32494
0.32494
0.32494
0.32494
0.32494
0.32494
0.32494
0.32493
0.32493
0.32493
0.32493
0.32493
0.32493
0.32493
0.32493
0.32493
0.32493
0.32493
0.32493
0.32493
0.32493
0.32493
0.32493
0.32493
0.32493
0.32493
0.32493
0.32493
0.32493
0.32493
0.32493
0.32493
0.32493
0.32493
0.32493
0.32493
0.32493
0.32493
0.32493
0.32493
0.32493
0.32493
0.32493
0.32493
0.32493
0.32493
0.32493
0.32493
0.32493
0.32494
0.32494
0.32494
0.32494
0.32494
0.32494
0.32494
0.32495
0.32495
0.32495
0.32495
0.32495
0.32496
0.32496
0.32496
0.32496
0.32496
0.32497
0.32497
0.32497
0.32497
0.32498
0.32498
0.32498
0.32498
0.32499
0.32499
0.32499
0.325
0.325
0.325
0.325
0.32501
0.32501
0.32501
0.32501
0.32502
0.32502
0.32502
0.32502
0.32502
0.32502
0.32503
0.32503
0.32503
0.32503
0.32503
0.32503
0.32503
0.32504
0.32504
0.32504
0.32504
0.32504
0.32504
0.32504
0.32504
0.32505
0.32504
0.32504
0.32504
0.32504
0.32504
0.32504
0.32504
0.32504
0.32505
0.32505
0.32505
0.32505
0.32505
0.32505
0.32506
0.32506
0.32506
0.32506
0.32506
0.32506
0.32506
0.32507
0.32507
0.32507
0.32507
0.32507
0.32507
0.32507
0.32507
0.32508
0.32508
0.32508
0.32508
0.32508
0.32508
0.32508
0.32509
0.32509
0.32509
0.32509
0.3251
0.3251
0.3251
0.3251
0.3251
0.3251
0.32511
0.32511
0.32511
0.32511
0.32511
0.32512
0.32512
0.32512
0.32512
0.32512
0.32512
0.32512
0.32513
0.32513
0.32513
0.32513
0.32513
0.32513
0.32513
0.32513
0.32513
0.32513
0.32513
0.32513
0.32513
0.32513
0.32513
0.32513
0.32513
0.32513
0.32513
0.32514
0.32514
0.32514
0.32514
0.32514
0.32514
0.32514
0.32514
0.32514
0.32514
0.32514
0.32514
0.32514
0.32514
0.32514
0.32514
0.32514
0.32515
0.32515
0.32515
0.32515
0.32515
0.32516
0.32516
0.32516
0.32516
0.32516
0.32516
0.32516
0.32516
0.32516
0.32516
0.32516
0.32516
0.32516
0.32516
0.32516
0.32517
0.32517
0.32517
0.32517
0.32517
0.32517
0.32518
0.32518
0.32518
0.32518
0.32518
0.32519
0.32519
0.32519
0.32519
0.32519
0.32519
0.32519
0.32519
0.32519
0.32519
0.32519
0.32519
0.32519
0.32519
0.32519
0.32519
0.32519
0.32519
0.32519
0.32519
0.32519
0.32519
0.32519
0.3252
0.3252
0.3252
0.3252
0.3252
0.3252
0.3252
0.3252
0.3252
0.3252
0.3252
0.3252
0.3252
0.32521
0.32521
0.32521
0.32521
0.32521
0.32521
0.32521
0.32521
0.32521
0.32521
0.32521
0.32521
0.32521
0.32521
0.32521
0.32521
0.32521
0.32521
0.32521
0.32521
0.32522
0.32522
0.32522
0.32522
0.32522
0.32523
0.32523
0.32523
0.32523
0.32524
0.32524
0.32524
0.32524
0.32524
0.32524
0.32524
0.32524
0.32524
0.32524
0.32524
0.32524
0.32524
0.32524
0.32525
0.32525
0.32525
0.32525
0.32525
0.32525
0.32525
0.32525
0.32525
0.32525
0.32525
0.32525
0.32525
0.32526
0.32526
0.32526
0.32526
0.32526
0.32526
0.32525
0.32525
0.32525
0.32525
0.32525
0.32525
0.32525
0.32525
0.32525
0.32525
0.32525
0.32525
0.32525
0.32525
0.32525
0.32525
0.32525
0.32525
0.32525
0.32525
0.32525
0.32524
0.32524
0.32524
0.32524
0.32523
0.32523
0.32523
0.32523
0.32522
0.32522
0.32522
0.32521
0.32521
0.32521
0.3252
0.3252
0.3252
0.32519
0.32519
0.32519
0.32519
0.32519
0.32519
0.32519
0.32519
0.32519
0.32519
0.32518
0.32518
0.32518
0.32518
0.32518
0.32518
0.32517
0.32517
0.32517
0.32517
0.32516
0.32516
0.32516
0.32516
0.32516
0.32516
0.32516
0.32515
0.32515
0.32515
0.32515
0.32515
0.32515
0.32514
0.32514
0.32514
0.32514
0.32514
0.32514
0.32514
0.32513
0.32513
0.32513
0.32513
0.32513
0.32513
0.32513
0.32512
0.32512
0.32512
0.32512
0.32512
0.32512
0.32511
0.32511
0.32511
0.3251
0.3251
0.3251
0.3251
0.3251
0.32509
0.32509
0.32509
0.32509
0.32509
0.32509
0.32509
0.32509
0.32509
0.32508
0.32508
0.32508
0.32508
0.32508
0.32508
0.32508
0.32508
0.32508
0.32508
0.32508
0.32508
0.32508
0.32508
0.32509
0.32509
0.32509
0.32509
0.32509
0.32509
0.32509
0.32509
0.32509
0.32509
0.32509
0.32509
0.32509
0.32509
0.32508
0.32508
0.32508
0.32508
0.32508
0.32508
0.32508
0.32508
0.32508
0.32508
0.32508
0.32508
0.32508
0.32508
0.32508
0.32508
0.32508
0.32508
0.32508
0.32508
0.32508
0.32508
0.32508
0.32508
0.32508
0.32508
0.32508
0.32508
0.32508
0.32508
0.32508
0.32508
0.32508
0.32509
0.32509
0.32509
0.32509
0.32509
0.32509
0.32509
0.32509
0.32508
0.32508
0.32508
0.32508
0.32508
0.32508
0.32507
0.32507
0.32507
0.32507
0.32507
0.32507
0.32507
0.32506
0.32506
0.32506
0.32506
0.32506
0.32506
0.32506
0.32505
0.32505
0.32505
0.32505
0.32505
0.32504
0.32504
0.32504
0.32504
0.32504
0.32504
0.32504
0.32503
0.32503
0.32503
0.32503
0.32503
0.32503
0.32503
0.32503
0.32503
0.32503
0.32503
0.32503
0.32503
0.32503
0.32503
0.32503
0.32503
0.32503
0.32503
0.32503
0.32503
0.32503
0.32503
0.32503
0.32503
0.32502
0.32502
0.32502
0.32502
0.32502
0.32502
0.32502
0.32502
0.32502
0.32502
0.32502
0.32502
0.32502
0.32501
0.32501
0.32501
0.32501
0.325
0.325
0.32499
0.32499
0.32499
0.32498
0.32498
0.32498
0.32498
0.32497
0.32497
0.32497
0.32497
0.32497
0.32496
0.32496
0.32496
0.32495
0.32495
0.32495
0.32494
0.32494
0.32494
0.32494
0.32493
0.32493
0.32493
0.32492
0.32492
0.32492
0.32492
0.32491
0.32491
0.32491
0.32491
0.32491
0.32491
0.3249
0.3249
0.3249
0.3249
0.3249
0.3249
0.3249
0.3249
0.3249
0.32489
0.32489
0.32489
0.32489
0.32489
0.32489
0.32489
0.32488
0.32488
0.32488
0.32488
0.32488
0.32488
0.32488
0.32488
0.32488
0.32488
0.32488
0.32488
0.32488
0.32488
0.32488
0.32488
0.32487
0.32487
0.32487
0.32487
0.32487
0.32487
0.32487
0.32486
0.32486
0.32486
0.32486
0.32485
0.32485
0.32485
0.32485
0.32485
0.32485
0.32485
0.32485
0.32484
0.32484
0.32484
0.32484
0.32484
0.32484
0.32483
0.32483
0.32483
0.32483
0.32482
0.32482
0.32482
0.32482
0.32481
0.32481
0.32481
0.3248
0.3248
0.3248
0.32479
0.32479
0.32479
0.32478
0.32478
0.32478
0.32478
0.32478
0.32478
0.32478
0.32477
0.32477
0.32477
0.32477
0.32477
0.32477
0.32477
0.32477
0.32477
0.32477
0.32477
0.32476
0.32476
0.32476
0.32476
0.32476
0.32476
0.32476
0.32476
0.32476
0.32476
0.32476
0.32476
0.32475
0.32475
0.32475
0.32475
0.32475
0.32475
0.32475
0.32475
0.32475
0.32475
0.32475
0.32475
0.32475
0.32475
0.32475
0.32475
0.32475
0.32475
0.32475
0.32475
0.32475
0.32475
0.32475
0.32475
0.32475
0.32475
0.32474
0.32474
0.32474
0.32474
0.32474
0.32474
0.32474
0.32474
0.32474
0.32473
0.32473
0.32473
0.32473
0.32473
0.32472
0.32472
0.32472
0.32472
0.32472
0.32471
0.32471
0.32471
0.3247
0.3247
0.3247
0.32469
0.32469
0.32469
0.32468
0.32468
0.32467
0.32467
0.32467
0.32466
0.32466
0.32466
0.32465
0.32465
0.32465
0.32464
0.32464
0.32464
0.32464
0.32464
0.32463
0.32463
0.32463
0.32463
0.32463
0.32463
0.32463
0.32463
0.32463
0.32463
0.32462
0.32462
0.32462
0.32462
0.32462
0.32462
0.32461
0.32461
0.32461
0.32461
0.3246
0.3246
0.3246
0.3246
0.32459
0.32459
0.32459
0.32459
0.32458
0.32458
0.32458
0.32458
0.32457
0.32457
0.32457
0.32457
0.32456
0.32456
0.32456
0.32456
0.32456
0.32456
0.32456
0.32455
0.32455
0.32455
0.32455
0.32455
0.32455
0.32455
0.32455
0.32455
0.32454
0.32454
0.32454
0.32454
0.32454
0.32454
0.32453
0.32453
0.32453
0.32453
0.32453
0.32452
0.32452
0.32452
0.32452
0.32452
0.32452
0.32452
0.32451
0.32451
0.32451
0.32451
0.32451
0.32451
0.3245
0.3245
0.3245
0.3245
0.3245
0.32449
0.32449
0.32449
0.32449
0.32449
0.32448
0.32448
0.32448
0.32448
0.32447
0.32447
0.32447
0.32447
0.32447
0.32446
0.32446
0.32446
0.32446
0.32446
0.32446
0.32445
0.32445
0.32445
0.32445
0.32445
0.32445
0.32445
0.32444
0.32444
0.32444
0.32444
0.32444
0.32443
0.32443
0.32443
0.32443
0.32443
0.32442
0.32442
0.32442
0.32442
0.32442
0.32441
0.32441
0.32441
0.32441
0.3244
0.3244
0.3244
0.3244
0.3244
0.32439
0.32439
0.32439
0.32439
0.32439
0.32439
0.32438
0.32438
0.32438
0.32438
0.32438
0.32438
0.32438
0.32438
0.32438
0.32438
0.32438
0.32438
0.32437
0.32437
0.32437
0.32437
0.32437
0.32437
0.32437
0.32436
0.32436
0.32436
0.32436
0.32436
0.32436
0.32436
0.32436
0.32436
0.32436
0.32435
0.32435
0.32435
0.32435
0.32435
0.32435
0.32434
0.32434
0.32434
0.32434
0.32434
0.32433
0.32433
0.32433
0.32433
0.32432
0.32432
0.32432
0.32432
0.32431
0.32431
0.32431
0.32431
0.32431
0.3243
0.3243
0.3243
0.3243
0.3243
0.3243
0.32429
0.32429
0.32429
0.32429
0.32429
0.32428
0.32428
0.32428
0.32428
0.32428
0.32428
0.32427
0.32427
0.32427
0.32427
0.32427
0.32427
0.32427
0.32427
0.32426
0.32426
0.32426
0.32426
0.32426
0.32426
0.32426
0.32426
0.32426
0.32426
0.32425
0.32425
0.32425
0.32425
0.32425
0.32425
0.32425
0.32425
0.32425
0.32425
0.32425
0.32425
0.32425
0.32425
0.32425
0.32425
0.32425
0.32425
0.32425
0.32425
0.32425
0.32425
0.32425
0.32425
0.32425
0.32425
0.32425
0.32425
0.32425
