0.19013
0.19013
0.19012
0.19012
0.19012
0.19012
0.19012
0.19011
0.19011
0.19011
0.19011
0.19011
0.19011
0.1901
0.1901
0.1901
0.1901
0.1901
0.1901
0.1901
0.1901
0.19011
0.19011
0.1901
0.1901
0.1901
0.19009
0.19008
0.19008
0.19008
0.19008
0.19008
0.19008
0.19008
0.19008
0.19008
0.19008
0.19008
0.19008
0.19008
0.19009
0.19008
0.19009
0.19008
0.19008
0.19008
0.19008
0.19008
0.19008
0.19008
0.19008
0.19008
0.19008
0.19008
0.19009
0.19009
0.1901
0.1901
0.1901
0.1901
0.1901
0.1901
0.1901
0.1901
0.1901
0.1901
0.19011
0.19011
0.19011
0.19011
0.19012
0.19011
0.19011
0.1901
0.1901
0.1901
0.1901
0.1901
0.1901
0.1901
0.1901
0.19011
0.19011
0.19011
0.19011
0.19011
0.19011
0.1901
0.1901
0.1901
0.1901
0.19011
0.19011
0.19011
0.19011
0.19011
0.19011
0.1901
0.1901
0.1901
0.1901
0.1901
0.1901
0.1901
0.1901
0.1901
0.19011
0.19011
0.19013
0.19013
0.19014
0.19014
0.19014
0.19014
0.19014
0.19014
0.19015
0.19015
0.19015
0.19016
0.19016
0.19016
0.19016
0.19017
0.19017
0.19018
0.19018
0.19018
0.19018
0.19018
0.19019
0.19019
0.19019
0.1902
0.1902
0.19021
0.19021
0.1902
0.1902
0.19018
0.19018
0.19018
0.19018
0.19018
0.19018
0.19018
0.19018
0.19018
0.19017
0.19017
0.19017
0.19017
0.19017
0.19017
0.19017
0.19017
0.19017
0.19017
0.19017
0.19017
0.19017
0.19017
0.19017
0.19017
0.19017
0.19017
0.19017
0.19017
0.19017
0.19017
0.19017
0.19017
0.19016
0.19016
0.19016
0.19016
0.19017
0.19017
0.19017
0.19017
0.19017
0.19017
0.19017
0.19017
0.19017
0.19018
0.19018
0.19018
0.19018
0.19017
0.19017
0.19017
0.19017
0.19018
0.19017
0.19017
0.19017
0.19017
0.19017
0.19016
0.19016
0.19015
0.19015
0.19015
0.19014
0.19014
0.19014
0.19014
0.19014
0.19014
0.19014
0.19014
0.19014
0.19015
0.19014
0.19016
0.19016
0.19016
0.19017
0.19017
0.19017
0.19017
0.19017
0.19017
0.19017
0.19017
0.19017
0.19017
0.19017
0.19017
0.19016
0.19016
0.19015
0.19015
0.19015
0.19014
0.19014
0.19014
0.19014
0.19014
0.19013
0.19013
0.19012
0.19012
0.19012
0.19012
0.19012
0.19012
0.19011
0.19011
0.19011
0.19011
0.19011
0.19011
0.19011
0.19012
0.19012
0.19012
0.19012
0.19013
0.19012
0.19012
0.19012
0.19012
0.19011
0.19009
0.19008
0.19008
0.19008
0.19008
0.19009
0.19009
0.19007
0.19009
0.19009
0.19009
0.19009
0.19009
0.19008
0.19008
0.19008
0.19008
0.19008
0.19008
0.19009
0.1901
0.1901
0.1901
0.1901
0.1901
0.1901
0.1901
0.1901
0.1901
0.1901
0.19009
0.19009
0.19009
0.19009
0.19009
0.19009
0.19009
0.19009
0.19009
0.19008
0.19008
0.19008
0.19007
0.19007
0.19006
0.19005
0.19005
0.19005
0.19005
0.19005
0.19005
0.19005
0.19006
0.19006
0.19005
0.19006
0.19006
0.19006
0.19005
0.19005
0.19005
0.19005
0.19006
0.19006
0.19006
0.19006
0.19005
0.19004
0.19004
0.19004
0.19003
0.19003
0.19003
0.19003
0.19003
0.19004
0.19004
0.19004
0.19003
0.19003
0.19003
0.19003
0.19003
0.19003
0.19003
0.19002
0.19002
0.19003
0.19002
0.19003
0.19002
0.19
0.19
0.19
0.18999
0.18999
0.18999
0.18999
0.18999
0.18999
0.18999
0.18999
0.19
0.19
0.18999
0.18999
0.18999
0.18999
0.19
0.19
0.19
0.19
0.19
0.19
0.19
0.19
0.18999
0.19
0.18999
0.19
0.19
0.19
0.19
0.18999
0.18999
0.18999
0.18999
0.18999
0.18999
0.19
0.19
0.19
0.19
0.19
0.19001
0.19001
0.19002
0.19002
0.19002
0.19002
0.19002
0.19003
0.19004
0.19004
0.19004
0.19004
0.19005
0.19005
0.19005
0.19005
0.19004
0.19003
0.19004
0.19004
0.19004
0.19004
0.19003
0.19003
0.19003
0.19004
0.19004
0.19004
0.19003
0.19003
0.19003
0.19003
0.19003
0.19003
0.19003
0.19004
0.19004
0.19005
0.19005
0.19005
0.19005
0.19005
0.19005
0.19005
0.19005
0.19005
0.19005
0.19004
0.19004
0.19004
0.19003
0.19003
0.19003
0.19002
0.19001
0.19
0.18999
0.18999
0.18999
0.18999
0.18999
0.18998
0.18998
0.18998
0.18998
0.18997
0.18997
0.18997
0.18997
0.18997
0.18997
0.18997
0.18997
0.18997
0.18997
0.18996
0.18996
0.18996
0.18996
0.18996
0.18996
0.18996
0.18996
0.18997
0.18997
0.18997
0.18997
0.18997
0.18997
0.18996
0.18995
0.18995
0.18995
0.18996
0.18996
0.18996
0.18996
0.18995
0.18995
0.18996
0.18996
0.18996
0.18997
0.18997
0.18997
0.18997
0.18997
0.18997
0.18997
0.18997
0.18997
0.18997
0.18996
0.18995
0.18995
0.18995
0.18995
0.18996
0.18996
0.18996
0.18996
0.18996
0.18996
0.18996
0.18996
0.18996
0.18995
0.18995
0.18995
0.18995
0.18993
0.18993
0.18993
0.18993
0.18992
0.18992
0.18992
0.18992
0.18991
0.18991
0.1899
0.1899
0.18989
0.18988
0.18991
0.18991
0.18991
0.1899
0.1899
0.1899
0.1899
0.1899
0.1899
0.1899
0.18991
0.1899
0.1899
0.18991
0.1899
0.1899
0.1899
0.1899
0.1899
0.18988
0.18988
0.18988
0.18989
0.18989
0.18991
0.18991
0.1899
0.18989
0.18989
0.18989
0.18989
0.18989
0.18989
0.1899
0.1899
0.1899
0.1899
0.1899
0.1899
0.1899
0.1899
0.1899
0.18989
0.18988
0.18988
0.18987
0.18988
0.18988
0.18988
0.18987
0.18987
0.18987
0.18986
0.18986
0.18986
0.18986
0.18986
0.18986
0.18985
0.18987
0.18987
0.18987
0.18987
0.18986
0.18986
0.18985
0.18984
0.18983
0.18983
0.18983
0.18984
0.18985
0.18985
0.18985
0.18984
0.18984
0.18984
0.18984
0.18983
0.18982
0.18981
0.18981
0.18981
0.18981
0.1898
0.1898
0.1898
0.1898
0.18981
0.18981
0.18981
0.18981
0.18981
0.18981
0.18981
0.18981
0.18981
0.18981
0.18981
0.1898
0.18979
0.18981
0.18981
0.18981
0.18981
0.18981
0.18981
0.1898
0.18979
0.18979
0.18979
0.18979
0.18978
0.18978
0.18978
0.18978
0.18978
0.18978
0.18978
0.18978
0.18977
0.18977
0.18978
0.18978
0.18977
0.18978
0.18978
0.18977
0.18976
0.18976
0.18976
0.18976
0.18976
0.18976
0.18976
0.18976
0.18976
0.18977
0.18977
0.18977
0.18977
0.18977
0.18977
0.18977
0.18977
0.18976
0.18976
0.18976
0.18976
0.18976
0.18976
0.18976
0.18976
0.18976
0.18977
0.18977
0.18977
0.18977
0.18977
0.18976
0.18976
0.18976
0.18976
0.18976
0.18976
0.18976
0.18976
0.18976
0.18975
0.18975
0.18977
0.18977
0.18978
0.18978
0.18978
0.18978
0.18978
0.18979
0.18979
0.18979
0.18979
0.18979
0.1898
0.1898
0.1898
0.18979
0.18979
0.18978
0.18978
0.18978
0.18978
0.18979
0.18979
0.18978
0.18978
0.18977
0.18977
0.18977
0.18978
0.18977
0.18977
0.18977
0.18977
0.18977
0.18978
0.18979
0.18979
0.18979
0.18979
0.18978
0.18978
0.18978
0.18979
0.1898
0.1898
0.18979
0.18978
0.18979
0.1898
0.18981
0.18981
0.18981
0.18981
0.18981
0.18981
0.1898
0.1898
0.1898
0.18979
0.18979
0.1898
0.1898
0.1898
0.1898
0.1898
0.1898
0.18981
0.18981
0.18981
0.18981
0.18982
0.18982
0.18983
0.18983
0.18983
0.18981
0.18982
0.18981
0.18981
0.18981
0.18981
0.18981
0.18981
0.18981
0.18981
0.1898
0.1898
0.1898
0.1898
0.1898
0.1898
0.1898
0.1898
0.1898
0.1898
0.1898
0.1898
0.1898
0.1898
0.1898
0.1898
0.1898
0.18979
0.18979
0.18979
0.18979
0.18979
0.18979
0.18979
0.18979
0.18979
0.18979
0.18979
0.18979
0.1898
0.1898
0.1898
0.1898
0.1898
0.1898
0.1898
0.1898
0.1898
0.1898
0.18979
0.18979
0.18979
0.18979
0.18979
0.18979
0.18979
0.18979
0.18979
0.18979
0.18979
0.18979
0.18979
0.18979
0.18978
0.18978
0.18977
0.18977
0.18977
0.18977
0.18977
0.18977
0.18977
0.18976
0.18976
0.18975
0.18976
0.18976
0.18975
0.18975
0.18975
0.18975
0.18976
0.18977
0.18977
0.18976
0.18976
0.18976
0.18975
0.18975
0.18975
0.18977
0.18977
0.18978
0.18977
0.18977
0.18977
0.18977
0.18977
0.18976
0.18976
0.18976
0.18976
0.18977
0.18975
0.18975
0.18975
0.18973
0.18973
0.18973
0.18973
0.18972
0.18971
0.18971
0.18971
0.18971
0.18972
0.18973
0.18973
0.18973
0.18973
0.18973
0.18973
0.18973
0.18974
0.18975
0.18975
0.18975
0.18975
0.18975
0.18975
0.18975
0.18976
0.18976
0.18976
0.18976
0.18976
0.18975
0.18976
0.18976
0.18976
0.18975
0.18975
0.18975
0.18975
0.18975
0.18975
0.18975
0.18975
0.18975
0.18975
0.18975
0.18976
0.18976
0.18977
0.18977
0.18977
0.18977
0.18977
0.18977
0.18976
0.18976
0.18976
0.18976
0.18976
0.18976
0.18976
0.18977
0.18977
0.18977
0.18977
0.18977
0.18977
0.18977
0.18976
0.18976
0.18976
0.18975
0.18975
0.18975
0.18975
0.18975
0.18975
0.18975
0.18975
0.18975
0.18975
0.18975
0.18975
0.18975
0.18975
0.18974
0.18974
0.18974
0.18974
0.18974
0.18973
0.18971
0.18971
0.18971
0.18972
0.18974
0.18974
0.18974
0.18974
0.18974
0.18974
0.18972
0.18972
0.18972
0.18972
0.18974
0.18974
0.18974
0.18974
0.18975
0.18975
0.18975
0.18975
0.18975
0.18974
0.18974
0.18974
0.18973
0.18975
0.18975
0.18976
0.18974
0.18974
0.18974
0.18974
0.18974
0.18974
0.18975
0.18976
0.18976
0.18976
0.18977
0.18977
0.18976
0.18977
0.18977
0.18977
0.18976
0.18976
0.18977
0.18977
0.18977
0.18976
0.18977
0.18977
0.18977
0.18977
0.18977
0.18977
0.18977
0.18977
0.18977
0.18977
0.18977
0.18977
0.18977
0.18976
0.18976
0.18976
0.18975
0.18975
0.18975
0.18975
0.18975
0.18975
0.18976
0.18977
0.18977
0.18977
0.18977
0.18978
0.18978
0.18977
0.18976
0.18977
0.18976
0.18976
0.18975
0.18974
0.18974
0.18974
0.18975
0.18976
0.18976
0.18976
0.18976
0.18976
0.18976
0.18977
0.18977
0.18976
0.18975
0.18975
0.18976
0.18976
0.18976
0.18976
0.18975
0.18975
0.18975
0.18974
0.18974
0.18975
0.18975
0.18975
0.18975
0.18975
0.18975
0.18975
0.18976
0.18976
0.18976
0.18976
0.18975
0.18976
0.18976
0.18976
0.18976
0.18977
0.18977
0.18977
0.18977
0.18977
0.18977
0.18978
0.18978
0.18978
0.18977
0.18975
0.18975
0.18975
0.18976
0.18976
0.18976
0.18976
0.18976
0.18977
0.18977
0.18977
0.18977
0.18977
0.18977
0.18978
0.18978
0.18978
0.18979
0.18979
0.18979
0.18979
0.18978
0.18978
0.18978
0.18978
0.18978
0.18979
0.18979
0.18979
0.18979
0.1898
0.1898
0.1898
0.18979
0.1898
0.1898
0.1898
0.1898
0.18981
0.18981
0.18981
0.18982
0.18982
0.18982
0.18982
0.18982
0.18982
0.18982
0.18982
0.18981
0.1898
0.1898
0.18981
0.18981
0.18981
0.18982
0.18983
0.18983
0.18983
0.18983
0.18983
0.18983
0.18983
0.18983
0.18983
0.18983
0.18984
0.18984
0.18984
0.18984
0.18985
0.18985
0.18985
0.18985
0.18985
0.18984
0.18984
0.18984
0.18984
0.18984
0.18984
0.18985
0.18985
0.18985
0.18986
0.18985
0.18985
0.18985
0.18985
0.18985
0.18985
0.18985
0.18986
0.18987
0.18987
0.18986
0.18986
0.18985
0.18985
0.18985
0.18985
0.18985
0.18985
0.18985
0.18985
0.18985
0.18985
0.18985
0.18984
0.18984
0.18984
0.18984
0.18983
0.18983
0.18984
0.18984
0.18984
0.18984
0.18984
0.18984
0.18984
0.18984
0.18984
0.18985
0.18985
0.18985
0.18984
0.18984
0.18984
0.18984
0.18984
0.18985
0.18985
0.18985
0.18985
0.18985
0.18985
0.18985
0.18985
0.18985
0.18985
0.18985
0.18985
0.18984
0.18984
0.18984
0.18984
0.18984
0.18984
0.18984
0.18984
0.18983
0.18983
0.18983
0.18982
0.18982
0.18982
0.18983
0.18983
0.18982
0.18982
0.18982
0.18982
0.18982
0.18983
0.18983
0.18983
0.18983
0.18983
0.18983
0.18983
0.18984
0.18984
0.18984
0.18985
0.18985
0.18985
0.18985
0.18985
0.18985
0.18985
0.18985
0.18985
0.18985
0.18985
0.18985
0.18985
0.18985
0.18985
0.18985
0.18985
0.18985
0.18985
0.18985
0.18985
0.18985
0.18985
0.18985
0.18984
0.18984
0.18984
0.18984
0.18985
0.18984
0.18985
0.18985
0.18985
0.18985
0.18985
0.18984
0.18984
0.18984
0.18984
0.18985
0.18985
0.18985
0.18984
0.18985
0.18985
0.18985
0.18985
0.18985
0.18985
0.18985
0.18985
0.18985
0.18984
0.18984
0.18985
0.18985
0.18985
0.18985
0.18984
0.18984
0.18983
0.18984
0.18985
0.18987
0.18987
0.18989
0.18989
0.18989
0.18989
0.18988
0.18988
0.18987
0.18987
0.18987
0.18987
0.18987
0.18988
0.18988
0.18989
0.18989
0.1899
0.1899
0.18989
0.18988
0.18988
0.18987
0.18987
0.18986
0.18986
0.18986
0.18986
0.18986
0.18987
0.18986
0.18986
0.18987
0.18987
0.18987
0.18987
0.18987
0.18987
0.18987
0.18988
0.18988
0.18988
0.18989
0.18989
0.18989
0.18987
0.18988
0.18988
0.18988
0.18988
0.18989
0.18989
0.18989
0.18989
0.18989
0.1899
0.18989
0.18989
0.18989
0.1899
0.1899
0.1899
0.1899
0.18991
0.18991
0.18991
0.18991
0.18991
0.18991
0.18991
0.18991
0.1899
0.1899
0.1899
0.1899
0.1899
0.18989
0.1899
0.1899
0.1899
0.1899
0.1899
0.18989
0.18989
0.18989
0.18989
0.18989
0.18988
0.18988
0.18988
0.18988
0.18989
0.18989
0.18989
0.18989
0.18989
0.18988
0.18988
0.18988
0.18988
0.18988
0.18988
0.18988
0.18987
0.18987
0.18987
0.18987
0.18987
0.18988
0.18988
0.18989
0.18989
0.18989
0.18987
0.18986
0.18985
0.18985
0.18985
0.18984
0.18984
0.18983
0.18983
0.18983
0.18983
0.18983
0.18984
0.18984
0.18983
0.18983
0.18983
0.18983
0.18983
0.18983
0.18983
0.18985
0.18985
0.18986
0.18986
0.18986
0.18985
0.18986
0.18986
0.18986
0.18986
0.18986
0.18987
0.18987
0.18987
0.18986
0.18986
0.18986
0.18985
0.18985
0.18984
0.18984
0.18984
0.18985
0.18985
0.18986
0.18986
0.18986
0.18987
0.18986
0.18986
0.18986
0.18986
0.18986
0.18986
0.18986
0.18986
0.18986
0.18986
0.18986
0.18985
0.18985
0.18985
0.18985
0.18985
0.18984
0.18984
0.18984
0.18984
0.18984
0.18985
0.18985
0.18985
0.18985
0.18984
0.18984
0.18984
0.18984
0.18984
0.18985
0.18985
0.18985
0.18985
0.18986
0.18986
0.18986
0.18986
0.18986
0.18986
0.18986
0.18986
0.18986
0.18985
0.18983
0.18983
0.18983
0.18982
0.18981
0.18981
0.18981
0.18981
0.18981
0.18981
0.18981
0.18981
0.18981
0.18982
0.18982
0.18981
0.18981
0.18981
0.1898
0.1898
0.1898
0.18981
0.18983
0.18983
0.18983
0.18983
0.18983
0.18983
0.18983
0.18983
0.18983
0.18983
0.18983
0.18983
0.18983
0.18983
0.18983
0.18983
0.18983
0.18983
0.18983
0.18983
0.18983
0.18983
0.18983
0.18983
0.18983
0.18983
0.18983
0.18982
0.18983
0.18983
0.18983
0.18983
0.18983
0.18983
0.18983
0.18983
0.18983
0.18983
0.18983
0.18983
0.18983
0.18983
0.18981
0.18981
0.1898
0.1898
0.1898
0.1898
0.1898
0.1898
0.1898
0.18981
0.18981
0.18982
0.18982
0.18982
0.18982
0.18982
0.18981
0.18981
0.1898
0.1898
0.1898
0.1898
0.1898
0.18981
0.18981
0.18981
0.18981
0.18982
0.18982
0.18982
0.18982
0.18982
0.18982
0.18983
0.18982
0.18982
0.18983
0.18983
0.18983
0.18983
0.18983
0.18984
0.18983
0.18983
0.18984
0.18985
0.18985
0.18985
0.18985
0.18985
0.18985
0.18985
0.18985
0.18985
0.18985
0.18985
0.18986
0.18986
0.18986
0.18986
0.18986
0.18985
0.18985
0.18985
0.18986
0.18986
0.18984
0.18984
0.18985
0.18985
0.18985
0.18985
0.18985
0.18985
0.18985
0.18986
0.18986
0.18986
0.18987
0.18987
0.18987
0.18987
0.18986
0.18986
0.18985
0.18984
0.18984
0.18984
0.18984
0.18984
0.18984
0.18983
0.18984
0.18984
0.18984
0.18984
0.18984
0.18984
0.18984
0.18984
0.18984
0.18984
0.18984
0.18985
0.18985
0.18985
0.18986
0.18986
0.18986
0.18985
0.18985
0.18984
0.18984
0.18984
0.18984
0.18985
0.18985
0.18985
0.18985
0.18985
0.18985
0.18985
0.18985
0.18984
0.18983
0.18985
0.18986
0.18986
0.18986
0.18986
0.18986
0.18985
0.18985
0.18984
0.18984
0.18983
0.18983
0.18983
0.18983
0.18983
0.18983
0.18983
0.18983
0.18983
0.18983
0.18983
0.18983
0.18983
0.18983
0.18983
0.18983
0.18983
0.18983
0.18983
0.18983
0.18982
0.18982
0.18982
0.18982
0.18983
0.18983
0.18983
0.18983
0.18983
0.18983
0.18983
0.18983
0.18983
0.18983
0.18983
0.18983
0.18983
0.18983
0.18983
0.18983
0.18983
0.18983
0.18985
0.18985
0.18985
0.18985
0.18985
0.18985
0.18985
0.18985
0.18984
0.18984
0.18984
0.18984
0.18984
0.18983
0.18983
0.18983
0.18983
0.18983
0.18983
0.18982
0.18982
0.18983
0.18983
0.18983
0.18983
0.18983
0.18983
0.18982
0.18982
0.18982
0.18981
0.18982
0.18983
0.18983
0.18983
0.18983
0.18983
0.18983
0.18983
0.18983
0.18983
0.18983
0.18983
0.18983
0.18983
0.18983
0.18982
0.18982
0.18981
0.18981
0.18981
0.18981
0.18981
0.18981
0.18982
0.18982
0.18982
0.18982
0.18982
0.18982
0.18982
0.18983
0.18982
0.18982
0.18983
0.18983
0.18983
0.18982
0.18982
0.18982
0.18982
0.18981
0.18982
0.18981
0.18981
0.18981
0.18981
0.18981
0.18981
0.1898
0.1898
0.18978
0.18978
0.18978
0.18978
0.18977
0.18978
0.18978
0.18978
0.18977
0.18976
0.18976
0.18975
0.18974
0.18974
0.18974
0.18974
0.18974
0.18974
0.18975
0.18975
0.18975
0.18975
0.18975
0.18974
0.18974
0.18974
0.18974
0.18974
0.18974
0.18974
0.18975
0.18975
0.18974
0.18973
0.18973
0.18973
0.18973
0.18974
0.18974
0.18974
0.18974
0.18973
0.18974
0.18973
0.18973
0.18973
0.18972
0.18972
0.18973
0.18973
0.18974
0.18974
0.18975
0.18975
0.18975
0.18975
0.18975
0.18975
0.18975
0.18975
0.18976
0.18976
0.18975
0.18975
0.18974
0.18973
0.18973
0.18974
0.18975
0.18976
0.18976
0.18977
0.18977
0.18976
0.18976
0.18975
0.18974
0.18973
0.18973
0.18973
0.18973
0.18973
0.18973
0.18974
0.18974
0.18973
0.18972
0.18973
0.18972
0.18973
0.18974
0.18974
0.18975
0.18975
0.18975
0.18976
0.18977
0.18976
0.18977
0.18977
0.18977
0.18978
0.18978
0.18978
0.18979
0.18979
0.18979
0.18979
0.18978
0.18978
0.18978
0.18979
0.18979
0.18978
