0
0.59292
0.59292
0.27434
0.21681
0.13009
0.089381
0.083186
0.080531
0.076991
0.071681
0.069912
0.065487
0.073451
0.087611
0.085841
0.09469
0.10177
0.10708
0.10265
0.095575
0.09469
0.090265
0.080531
0.064602
0.063717
0.063717
0.063717
0.076106
0.082301
0.084071
0.09115
0.093805
0.099115
0.10177
0.10531
0.10619
0.10354
0.10796
0.1115
0.1177
0.12212
0.12212
0.12035
0.12301
0.12124
0.12035
0.12035
0.11858
0.12035
0.11858
0.11947
0.11858
0.1177
0.1177
0.11681
0.11681
0.11681
0.11858
0.11593
0.11504
0.11327
0.11062
0.10708
0.10885
0.10619
0.10531
0.10265
0.10265
0.10354
0.10354
0.10265
0.10354
0.10088
0.099115
0.1
0.1
0.099115
0.09823
0.095575
0.099115
0.09823
0.097345
0.09646
0.09646
0.099115
0.099115
0.09646
0.097345
0.093805
0.09469
0.09469
0.09646
0.095575
0.09646
0.09823
0.09823
0.09823
0.099115
0.09646
0.095575
0.095575
0.09292
0.090265
0.090265
0.089381
0.09115
0.090265
0.089381
0.089381
0.090265
0.090265
0.087611
0.087611
0.087611
0.087611
0.089381
0.089381
0.089381
0.089381
0.089381
0.089381
0.090265
0.09292
0.097345
0.09469
0.093805
0.09292
0.092035
0.09115
0.09115
0.090265
0.090265
0.087611
0.087611
0.089381
0.089381
0.087611
0.088496
0.089381
0.090265
0.090265
0.090265
0.09115
0.090265
0.089381
0.089381
0.089381
0.088496
0.088496
0.087611
0.087611
0.087611
0.087611
0.087611
0.086726
0.085841
0.086726
0.084956
0.084956
0.084956
0.086726
0.086726
0.086726
0.088496
0.088496
0.090265
0.090265
0.090265
0.090265
0.089381
0.090265
0.090265
0.09115
0.09292
0.092035
0.09292
0.09292
0.09292
0.09292
0.09292
0.09292
0.09292
0.093805
0.093805
0.093805
0.095575
0.095575
0.095575
0.09646
0.095575
0.095575
0.095575
0.09469
0.09646
0.095575
0.095575
0.095575
0.09646
0.095575
0.095575
0.095575
0.095575
0.095575
0.095575
0.095575
0.09646
0.095575
0.09469
0.09469
0.095575
0.09469
0.093805
0.093805
0.09469
0.093805
0.09292
0.09292
0.09292
0.092035
0.09292
0.093805
0.093805
0.093805
0.093805
0.093805
0.093805
0.093805
0.093805
0.09292
0.09292
0.09292
0.09292
0.09292
0.09292
0.09292
0.09292
0.093805
0.09292
0.09292
0.09292
0.092035
0.092035
0.09292
0.09292
0.09115
0.09115
0.09115
0.090265
0.090265
0.090265
0.090265
0.09115
0.09115
0.090265
0.090265
0.09115
0.09115
0.090265
0.090265
0.090265
0.090265
0.090265
0.090265
0.09115
0.090265
0.090265
0.089381
0.089381
0.089381
0.092035
0.09292
0.09469
0.09292
0.092035
0.092035
0.09115
0.092035
0.09115
0.09292
0.09292
0.09292
0.09292
0.09292
0.092035
0.09115
0.089381
0.090265
0.090265
0.090265
0.090265
0.090265
0.089381
0.089381
0.09115
0.092035
0.09292
0.09292
0.093805
0.093805
0.09292
0.09292
0.09292
0.095575
0.095575
0.09469
0.093805
0.093805
0.09292
0.09292
0.09292
0.09292
0.09292
0.09292
0.09292
0.092035
0.09115
0.09115
0.093805
0.093805
0.093805
0.093805
0.093805
0.093805
0.093805
0.093805
0.093805
0.09469
0.09469
0.09469
0.093805
0.09292
0.09292
0.09292
0.092035
0.092035
0.09292
0.093805
0.09469
0.093805
0.093805
0.093805
0.093805
0.09292
0.09292
0.09292
0.09469
0.095575
0.09646
0.097345
0.09646
0.095575
0.095575
0.09469
0.095575
0.095575
0.095575
0.095575
0.095575
0.095575
0.09646
0.097345
0.09823
0.09823
0.09823
0.09823
0.099115
0.099115
0.09823
0.09823
0.09823
0.1
0.1
0.1
0.10088
0.10088
0.10088
0.099115
0.099115
0.099115
0.099115
0.099115
0.099115
0.09823
0.09823
0.099115
0.099115
0.099115
0.099115
0.09823
0.099115
0.09823
0.09823
0.09823
0.1
0.1
0.1
0.099115
0.099115
0.099115
0.099115
0.09823
0.097345
0.09823
0.09823
0.09823
0.09823
0.09823
0.09646
0.095575
0.095575
0.09469
0.09469
0.093805
0.093805
0.09292
0.09292
0.09292
0.093805
0.093805
0.093805
0.09292
0.093805
0.09292
0.093805
0.09292
0.093805
0.09469
0.095575
0.095575
0.095575
0.09469
0.095575
0.095575
0.093805
0.09292
0.09292
0.09292
0.09292
0.09292
0.09292
0.092035
0.092035
0.092035
0.09292
0.09292
0.09292
0.09292
0.093805
0.09469
0.093805
0.093805
0.093805
0.093805
0.09292
0.093805
